Id,Designator,Package,Quantity,Designation,Supplier and ref,digikey,mpn
1,J4,PinSocket_2x20_P2.54mm_Vertical,1,RPI_HEADER,,H123882-ND,HIF3H-26PB-2.54DSA(71)
2,"D3,D11,D16,D10,D8,D12,D17,D15,D18,D9,D22,D23,D24,D7",LEDSC_1608x020,14,LED,,732-12016-1-ND,150060SS55040
3,"D2,D1,D4,D5,D6,D19,D20,D21",SODFL16080X77N,8,1N4148X-TP,,1N4148XTPMSCT-ND,1N4148X-TP
4,J1,"TerminalBlock_Phoenix_PT-1,5-16-5.0-H_1x16_P5.00mm_Horizontal",1,Inputs,,277-1591-ND,1935307
5,J6,CUI_TB001-500-10BE,1,Outputs-2,,102-6142-ND,TB001-500-10BE
6,J5,CUI_TB001-500-10BE,1,Outputs-1,,102-6142-ND,TB001-500-10BE
7,"R30,R36,R37,R38,R28,R29",RESC_1005x015,6,10k,"own, E15",,
8,"R27,R15,R20,R22,R24,R13,R11,R7,R9,R34,R26,R25,R35,R31,R32,R33",RESC_1005x015,16,270,,311-270LRCT-ND,RC0402FR-07270RL
9,TP1,TestPoint_Pad_D1.0mm,1,TestPoint,no component,,
10,"Q3,Q6,Q5,Q1,Q2,Q4",SOT-23,6,DMN2041L-7,,DMN2041L-7DICT-ND,DMN2041L-7 
11,"R2,R12,R14,R19,R21,R16,R17,R18,R10,R8,R23,R4,R3,R1,R5,R6",RESC_1005x015,16,1k,"own, E19",,
12,J3,PinSocket_2x04_P2.54mm_Vertical,1,Conn_02x04_Odd_Even,,S2011EC-04-ND,PRPC004DAAN-RC
13,C1,CAPC_1005x015,1,0.1uF,"(own, E3?)",,
14,C2,CAPC_1005x015,1,1uF,"(own, E4?)",,
15,"D13,D14",LEDSC_1608x020,2,LED green,,732-12017-1-ND,150060VS55040
16,R39,RESC_1005x015,1,220,,311-220LRCT-ND,RC0402FR-07220RL
17,R40,RESC_1005x015,1,680,,311-680LRCT-ND,RC0402FR-07680RL 
18,U9,SOT-223,1,LM317_TO39,,296-12602-1-ND,LM317DCYR
19,"H4,H3,H2,H1",MountingHole_2.5mm,4,MountingHole,no component,,
20,"K6,K5,K4,K3,K2,K1",RELAY_1462042-8,6,1462042-8,,PB1249CT-ND,1462042-8
21,"JP9,JP4,JP1,JP2,JP3,JP5,JP6,JP8,JP10,JP11,JP12,JP13,JP14,JP15,JP16,JP7",SolderJumper-2_P1.3mm_Open_Pad1.0x1.5mm,16,Jumper_NO_Small,no component,,
22,"U4,U1,U2,U3,U5,U6,U7,U8",SO-4_4.4x3.6mm_P2.54mm,8,TPC817S1B RAG,,TPC817S1BRAGCT-ND,TPC817S1B RAG
