EESchema Schematic File Version 4
LIBS:IOboard-1-cache
EELAYER 30 0
EELAYER END
$Descr A3 16535 11693
encoding utf-8
Sheet 1 1
Title "IOboard - Unlock Oslo v2"
Date "2019-09-10"
Rev "initial"
Comp ""
Comment1 "changes based on review 2019-09-12"
Comment2 ""
Comment3 ""
Comment4 ""
$EndDescr
Text Label 12500 3200 0    50   ~ 0
Input_1
Text Label 15300 2500 2    50   ~ 0
Input_3
Text Label 12500 2000 0    50   ~ 0
Input_2
Text Label 15300 2400 2    50   ~ 0
Input_4
Text Label 15300 1800 2    50   ~ 0
Input_5
Text Label 15300 1700 2    50   ~ 0
Input_6
Text Label 15300 2700 2    50   ~ 0
Input_7
Text Label 15300 2800 2    50   ~ 0
Input_8
$Comp
L Connector_Generic:Conn_02x04_Odd_Even J3
U 1 1 5D7CCD7F
P 13850 5050
F 0 "J3" H 13900 5367 50  0000 C CNN
F 1 "Conn_02x04_Odd_Even" H 13900 5276 50  0000 C CNN
F 2 "Connector_PinSocket_2.54mm:PinSocket_2x04_P2.54mm_Vertical" H 13850 5050 50  0001 C CNN
F 3 "~" H 13850 5050 50  0001 C CNN
F 4 "PRPC004DAAN-RC" H 13850 5050 50  0001 C CNN "mpn"
F 5 "S2011EC-04-ND" H 13850 5050 50  0001 C CNN "digikey"
	1    13850 5050
	1    0    0    -1  
$EndComp
$Comp
L power:GND #PWR052
U 1 1 5D7CCE55
P 13500 5350
F 0 "#PWR052" H 13500 5100 50  0001 C CNN
F 1 "GND" H 13505 5177 50  0000 C CNN
F 2 "" H 13500 5350 50  0001 C CNN
F 3 "" H 13500 5350 50  0001 C CNN
	1    13500 5350
	1    0    0    -1  
$EndComp
$Comp
L power:GND #PWR058
U 1 1 5D7CCEE0
P 14250 5350
F 0 "#PWR058" H 14250 5100 50  0001 C CNN
F 1 "GND" H 14255 5177 50  0000 C CNN
F 2 "" H 14250 5350 50  0001 C CNN
F 3 "" H 14250 5350 50  0001 C CNN
	1    14250 5350
	1    0    0    -1  
$EndComp
Wire Wire Line
	13500 5350 13500 5250
Wire Wire Line
	13500 5250 13650 5250
Wire Wire Line
	14250 5350 14250 5250
Wire Wire Line
	14250 5250 14150 5250
$Comp
L power:+3.3V #PWR061
U 1 1 5D817370
P 14700 4700
F 0 "#PWR061" H 14700 4550 50  0001 C CNN
F 1 "+3.3V" H 14715 4873 50  0000 C CNN
F 2 "" H 14700 4700 50  0001 C CNN
F 3 "" H 14700 4700 50  0001 C CNN
	1    14700 4700
	1    0    0    -1  
$EndComp
$Comp
L power:+3.3V #PWR051
U 1 1 5D8173FB
P 13150 4700
F 0 "#PWR051" H 13150 4550 50  0001 C CNN
F 1 "+3.3V" H 13165 4873 50  0000 C CNN
F 2 "" H 13150 4700 50  0001 C CNN
F 3 "" H 13150 4700 50  0001 C CNN
	1    13150 4700
	1    0    0    -1  
$EndComp
$Comp
L power:+12V #PWR062
U 1 1 5D81BFE8
P 15000 4700
F 0 "#PWR062" H 15000 4550 50  0001 C CNN
F 1 "+12V" H 15015 4873 50  0000 C CNN
F 2 "" H 15000 4700 50  0001 C CNN
F 3 "" H 15000 4700 50  0001 C CNN
	1    15000 4700
	1    0    0    -1  
$EndComp
$Comp
L power:+12V #PWR050
U 1 1 5D81C073
P 12900 4700
F 0 "#PWR050" H 12900 4550 50  0001 C CNN
F 1 "+12V" H 12915 4873 50  0000 C CNN
F 2 "" H 12900 4700 50  0001 C CNN
F 3 "" H 12900 4700 50  0001 C CNN
	1    12900 4700
	1    0    0    -1  
$EndComp
Wire Wire Line
	12900 4700 12900 5150
Wire Wire Line
	12900 5150 13650 5150
Text Label 14600 4950 2    50   ~ 0
Vin
Text Label 13200 4950 0    50   ~ 0
Vin
Wire Wire Line
	13150 4700 13150 5050
Wire Wire Line
	13150 5050 13650 5050
Wire Wire Line
	15000 4700 15000 4900
Wire Wire Line
	14150 5150 15000 5150
Wire Wire Line
	14700 4700 14700 5050
Wire Wire Line
	14150 5050 14700 5050
Wire Wire Line
	14150 4950 14300 4950
Wire Wire Line
	13200 4950 13600 4950
$Comp
L power:GND #PWR053
U 1 1 5D843B70
P 13500 4200
F 0 "#PWR053" H 13500 3950 50  0001 C CNN
F 1 "GND" H 13505 4027 50  0000 C CNN
F 2 "" H 13500 4200 50  0001 C CNN
F 3 "" H 13500 4200 50  0001 C CNN
	1    13500 4200
	1    0    0    -1  
$EndComp
$Comp
L power:GND #PWR042
U 1 1 5D8635A2
P 9700 1750
F 0 "#PWR042" H 9700 1500 50  0001 C CNN
F 1 "GND" H 9705 1577 50  0000 C CNN
F 2 "" H 9700 1750 50  0001 C CNN
F 3 "" H 9700 1750 50  0001 C CNN
	1    9700 1750
	1    0    0    -1  
$EndComp
$Comp
L Device:R R29
U 1 1 5D863823
P 9250 1500
F 0 "R29" H 9320 1546 50  0000 L CNN
F 1 "10k" H 9320 1455 50  0000 L CNN
F 2 "IPC-7351-RESC:RESC_1005x015" V 9180 1500 50  0001 C CNN
F 3 "~" H 9250 1500 50  0001 C CNN
	1    9250 1500
	1    0    0    -1  
$EndComp
$Comp
L Device:R R25
U 1 1 5D863941
P 9100 1750
F 0 "R25" V 8893 1750 50  0000 C CNN
F 1 "270" V 8984 1750 50  0000 C CNN
F 2 "IPC-7351-RESC:RESC_1005x015" V 9030 1750 50  0001 C CNN
F 3 "~" H 9100 1750 50  0001 C CNN
	1    9100 1750
	0    1    1    0   
$EndComp
$Comp
L Device:LED D9
U 1 1 5D86A786
P 8850 1500
F 0 "D9" V 8900 1650 50  0000 R CNN
F 1 "LED" V 8800 1700 50  0000 R CNN
F 2 "IPC-7351-LEDSC:LEDSC_1608x020" H 8850 1500 50  0001 C CNN
F 3 "~" H 8850 1500 50  0001 C CNN
	1    8850 1500
	0    -1   -1   0   
$EndComp
Wire Wire Line
	8850 1650 8850 1750
Wire Wire Line
	8850 1750 8950 1750
Text Label 8250 1350 0    50   ~ 0
Switch_1
Wire Wire Line
	8250 1350 8850 1350
Wire Wire Line
	8850 1350 9250 1350
Connection ~ 8850 1350
$Comp
L Device:Q_NMOS_GSD Q1
U 1 1 5D8988AF
P 9600 1350
F 0 "Q1" H 9805 1396 50  0000 L CNN
F 1 "DMN2041L-7" H 9805 1305 50  0000 L CNN
F 2 "Package_TO_SOT_SMD:SOT-23" H 9800 1450 50  0001 C CNN
F 3 "~" H 9600 1350 50  0001 C CNN
F 4 "DMN2041L-7" H 9600 1350 50  0001 C CNN "mpn"
F 5 "DMN2041L-7DICT-ND" H 9600 1350 50  0001 C CNN "digikey"
	1    9600 1350
	1    0    0    -1  
$EndComp
Wire Wire Line
	9400 1350 9250 1350
Connection ~ 9250 1350
Wire Wire Line
	9250 1650 9250 1750
Connection ~ 9250 1750
Wire Wire Line
	9250 1750 9700 1750
Wire Wire Line
	9700 1550 9700 1750
Connection ~ 9700 1750
Text Label 11350 1100 0    50   ~ 0
Output_1_NC
Text Label 11350 1500 0    50   ~ 0
Output_1_NO
Text Label 11350 1300 0    50   ~ 0
Output_1_C
Wire Wire Line
	11200 1100 11350 1100
Wire Wire Line
	11200 1500 11350 1500
$Comp
L power:GND #PWR07
U 1 1 5DBCD647
P 2900 2400
F 0 "#PWR07" H 2900 2150 50  0001 C CNN
F 1 "GND" H 2905 2227 50  0000 C CNN
F 2 "" H 2900 2400 50  0001 C CNN
F 3 "" H 2900 2400 50  0001 C CNN
	1    2900 2400
	1    0    0    -1  
$EndComp
$Comp
L Isolator:LTV-357T U3
U 1 1 5DBCD64E
P 3400 1500
F 0 "U3" H 3400 1825 50  0000 C CNN
F 1 "TPC817S1B RAG" H 3400 1734 50  0000 C CNN
F 2 "Package_SO:SO-4_4.4x3.6mm_P2.54mm" H 3200 1300 50  0001 L CIN
F 3 "https://www.taiwansemi.com/products/datasheet/TPC817%20SERIES_C1612.pdf" H 3400 1500 50  0001 L CNN
F 4 "TPC817S1B RAG" H 3400 1500 50  0001 C CNN "mpn"
F 5 "TPC817S1BRAGCT-ND" H 3400 1500 50  0001 C CNN "digikey"
	1    3400 1500
	1    0    0    -1  
$EndComp
$Comp
L Device:R R3
U 1 1 5DBCD655
P 2900 950
F 0 "R3" H 2970 996 50  0000 L CNN
F 1 "1k" H 2970 905 50  0000 L CNN
F 2 "IPC-7351-RESC:RESC_1005x015" V 2830 950 50  0001 C CNN
F 3 "~" H 2900 950 50  0001 C CNN
	1    2900 950 
	1    0    0    -1  
$EndComp
$Comp
L power:GND #PWR018
U 1 1 5DBCD673
P 3800 1700
F 0 "#PWR018" H 3800 1450 50  0001 C CNN
F 1 "GND" H 3805 1527 50  0000 C CNN
F 2 "" H 3800 1700 50  0001 C CNN
F 3 "" H 3800 1700 50  0001 C CNN
	1    3800 1700
	1    0    0    -1  
$EndComp
$Comp
L Device:LED D3
U 1 1 5DBCD67A
P 4000 1750
F 0 "D3" V 4038 1633 50  0000 R CNN
F 1 "LED" V 3947 1633 50  0000 R CNN
F 2 "IPC-7351-LEDSC:LEDSC_1608x020" H 4000 1750 50  0001 C CNN
F 3 "~" H 4000 1750 50  0001 C CNN
	1    4000 1750
	0    -1   -1   0   
$EndComp
Wire Wire Line
	13600 4700 13600 4950
Connection ~ 13600 4950
Wire Wire Line
	13600 4950 13650 4950
Connection ~ 14300 4950
Wire Wire Line
	14300 4950 14600 4950
Text Label 15300 2900 2    50   ~ 0
Switch_2
Text Label 12500 3000 0    50   ~ 0
Switch_3
Text Label 12500 2900 0    50   ~ 0
Switch_4
Text Label 12500 2800 0    50   ~ 0
Switch_5
Text Label 12500 3300 0    50   ~ 0
Switch_6
Text Label 12500 2100 0    50   ~ 0
Status_LED_1
Text Label 15300 2300 2    50   ~ 0
Status_LED_2
$Comp
L Device:R R33
U 1 1 5D983D3F
P 13800 6750
F 0 "R33" H 13870 6796 50  0000 L CNN
F 1 "270" H 13870 6705 50  0000 L CNN
F 2 "IPC-7351-RESC:RESC_1005x015" V 13730 6750 50  0001 C CNN
F 3 "~" H 13800 6750 50  0001 C CNN
	1    13800 6750
	1    0    0    -1  
$EndComp
$Comp
L Device:R R34
U 1 1 5D983E44
P 14400 6750
F 0 "R34" H 14470 6796 50  0000 L CNN
F 1 "270" H 14470 6705 50  0000 L CNN
F 2 "IPC-7351-RESC:RESC_1005x015" V 14330 6750 50  0001 C CNN
F 3 "~" H 14400 6750 50  0001 C CNN
	1    14400 6750
	1    0    0    -1  
$EndComp
$Comp
L power:GND #PWR054
U 1 1 5D983F6E
P 13800 7000
F 0 "#PWR054" H 13800 6750 50  0001 C CNN
F 1 "GND" H 13805 6827 50  0000 C CNN
F 2 "" H 13800 7000 50  0001 C CNN
F 3 "" H 13800 7000 50  0001 C CNN
	1    13800 7000
	1    0    0    -1  
$EndComp
$Comp
L power:GND #PWR060
U 1 1 5D984053
P 14400 7000
F 0 "#PWR060" H 14400 6750 50  0001 C CNN
F 1 "GND" H 14405 6827 50  0000 C CNN
F 2 "" H 14400 7000 50  0001 C CNN
F 3 "" H 14400 7000 50  0001 C CNN
	1    14400 7000
	1    0    0    -1  
$EndComp
Wire Wire Line
	14400 6900 14400 7000
Wire Wire Line
	13800 6900 13800 7000
$Comp
L Device:LED D13
U 1 1 5D9C2EE0
P 13800 6350
F 0 "D13" V 13838 6233 50  0000 R CNN
F 1 "LED green" V 13747 6233 50  0000 R CNN
F 2 "IPC-7351-LEDSC:LEDSC_1608x020" H 13800 6350 50  0001 C CNN
F 3 "~" H 13800 6350 50  0001 C CNN
	1    13800 6350
	0    -1   -1   0   
$EndComp
$Comp
L Device:LED D14
U 1 1 5D9C30A5
P 14400 6350
F 0 "D14" V 14438 6233 50  0000 R CNN
F 1 "LED green" V 14347 6233 50  0000 R CNN
F 2 "IPC-7351-LEDSC:LEDSC_1608x020" H 14400 6350 50  0001 C CNN
F 3 "~" H 14400 6350 50  0001 C CNN
	1    14400 6350
	0    -1   -1   0   
$EndComp
Wire Wire Line
	13800 6500 13800 6600
Wire Wire Line
	14400 6500 14400 6600
Text Label 14700 6200 0    50   ~ 0
Status_LED_2
Wire Wire Line
	14400 6200 14700 6200
Text Label 13150 6200 0    50   ~ 0
Status_LED_1
Wire Wire Line
	13150 6200 13800 6200
$Comp
L power:PWR_FLAG #FLG01
U 1 1 5DD26C2E
P 13000 4100
F 0 "#FLG01" H 13000 4175 50  0001 C CNN
F 1 "PWR_FLAG" H 13000 4274 50  0000 C CNN
F 2 "" H 13000 4100 50  0001 C CNN
F 3 "~" H 13000 4100 50  0001 C CNN
	1    13000 4100
	1    0    0    -1  
$EndComp
$Comp
L power:PWR_FLAG #FLG02
U 1 1 5DD44B91
P 14300 4650
F 0 "#FLG02" H 14300 4725 50  0001 C CNN
F 1 "PWR_FLAG" H 14300 4824 50  0000 C CNN
F 2 "" H 14300 4650 50  0001 C CNN
F 3 "~" H 14300 4650 50  0001 C CNN
	1    14300 4650
	1    0    0    -1  
$EndComp
$Comp
L power:PWR_FLAG #FLG04
U 1 1 5DDF1AC2
P 15200 4900
F 0 "#FLG04" H 15200 4975 50  0001 C CNN
F 1 "PWR_FLAG" H 15200 5074 50  0000 C CNN
F 2 "" H 15200 4900 50  0001 C CNN
F 3 "~" H 15200 4900 50  0001 C CNN
	1    15200 4900
	1    0    0    -1  
$EndComp
Wire Wire Line
	15200 4900 15000 4900
Connection ~ 15000 4900
Wire Wire Line
	15000 4900 15000 5150
$Comp
L Device:R R11
U 1 1 5D90A511
P 4000 2100
F 0 "R11" H 4070 2146 50  0000 L CNN
F 1 "270" H 4070 2055 50  0000 L CNN
F 2 "IPC-7351-RESC:RESC_1005x015" V 3930 2100 50  0001 C CNN
F 3 "~" H 4000 2100 50  0001 C CNN
	1    4000 2100
	1    0    0    -1  
$EndComp
$Comp
L power:GND #PWR022
U 1 1 5D9539B2
P 4000 2300
F 0 "#PWR022" H 4000 2050 50  0001 C CNN
F 1 "GND" H 4005 2127 50  0000 C CNN
F 2 "" H 4000 2300 50  0001 C CNN
F 3 "" H 4000 2300 50  0001 C CNN
	1    4000 2300
	1    0    0    -1  
$EndComp
Wire Wire Line
	4000 2250 4000 2300
$Comp
L Device:R R10
U 1 1 5D9EB435
P 4000 950
F 0 "R10" H 4070 996 50  0000 L CNN
F 1 "1k" H 4070 905 50  0000 L CNN
F 2 "IPC-7351-RESC:RESC_1005x015" V 3930 950 50  0001 C CNN
F 3 "~" H 4000 950 50  0001 C CNN
	1    4000 950 
	1    0    0    -1  
$EndComp
$Comp
L power:+3.3V #PWR021
U 1 1 5DA4FA90
P 4000 700
F 0 "#PWR021" H 4000 550 50  0001 C CNN
F 1 "+3.3V" H 4015 873 50  0000 C CNN
F 2 "" H 4000 700 50  0001 C CNN
F 3 "" H 4000 700 50  0001 C CNN
	1    4000 700 
	1    0    0    -1  
$EndComp
Wire Wire Line
	4000 700  4000 800 
$Comp
L unlockoslo:Vin #PWR06
U 1 1 5DAD1271
P 2900 700
F 0 "#PWR06" H 2900 550 50  0001 C CNN
F 1 "Vin" H 2915 873 50  0000 C CNN
F 2 "" H 2900 700 50  0001 C CNN
F 3 "" H 2900 700 50  0001 C CNN
	1    2900 700 
	1    0    0    -1  
$EndComp
$Comp
L Device:Jumper_NO_Small JP6
U 1 1 5DB1A9D0
P 2900 2200
F 0 "JP6" V 2800 2000 50  0000 L CNN
F 1 "Jumper_NO_Small" V 3000 1500 50  0000 L CNN
F 2 "Jumper:SolderJumper-2_P1.3mm_Open_Pad1.0x1.5mm" H 2900 2200 50  0001 C CNN
F 3 "~" H 2900 2200 50  0001 C CNN
	1    2900 2200
	0    1    1    0   
$EndComp
$Comp
L Device:Jumper_NO_Small JP5
U 1 1 5DB6785C
P 2900 1300
F 0 "JP5" V 2700 1100 50  0000 L CNN
F 1 "Jumper_NO_Small" V 2800 600 50  0000 L CNN
F 2 "Jumper:SolderJumper-2_P1.3mm_Open_Pad1.0x1.5mm" H 2900 1300 50  0001 C CNN
F 3 "~" H 2900 1300 50  0001 C CNN
	1    2900 1300
	0    1    1    0   
$EndComp
Wire Wire Line
	2900 2300 2900 2400
Wire Wire Line
	3700 1600 3800 1600
Wire Wire Line
	3800 1600 3800 1700
Text Label 4400 1400 0    50   ~ 0
Input_1
Wire Wire Line
	3700 1400 4000 1400
Wire Wire Line
	4000 1100 4000 1400
Connection ~ 4000 1400
Wire Wire Line
	4000 1400 4400 1400
Wire Wire Line
	4000 1400 4000 1600
Wire Wire Line
	4000 1900 4000 1950
Wire Wire Line
	2900 700  2900 800 
Wire Wire Line
	2900 1100 2900 1200
Text Label 2000 1400 0    50   ~ 0
Ext_Input_1_P
Wire Wire Line
	2000 1400 2900 1400
Text Label 1000 800  0    50   ~ 0
Ext_Input_1_P
$Comp
L Connector:Screw_Terminal_01x16 J1
U 1 1 5DEFC987
P 600 1500
F 0 "J1" H 518 2417 50  0000 C CNN
F 1 "Inputs" H 518 2326 50  0000 C CNN
F 2 "TerminalBlock_Phoenix:TerminalBlock_Phoenix_PT-1,5-16-5.0-H_1x16_P5.00mm_Horizontal" H 600 1500 50  0001 C CNN
F 3 "~" H 600 1500 50  0001 C CNN
F 4 "1935307" H 600 1500 50  0001 C CNN "mpn"
F 5 "277-1591-ND" H 600 1500 50  0001 C CNN "digikey"
	1    600  1500
	-1   0    0    -1  
$EndComp
Wire Wire Line
	800  800  1000 800 
Text Label 1000 1000 0    50   ~ 0
Ext_Input_2_P
Text Label 1000 1200 0    50   ~ 0
Ext_Input_3_P
Text Label 1000 1400 0    50   ~ 0
Ext_Input_4_P
Text Label 1000 1600 0    50   ~ 0
Ext_Input_5_P
Text Label 1000 1800 0    50   ~ 0
Ext_Input_6_P
Text Label 1000 2000 0    50   ~ 0
Ext_Input_7_P
Text Label 1000 2200 0    50   ~ 0
Ext_Input_8_P
Wire Wire Line
	800  1000 1000 1000
Wire Wire Line
	800  1200 1000 1200
Wire Wire Line
	800  1400 1000 1400
Wire Wire Line
	800  1600 1000 1600
Wire Wire Line
	800  1800 1000 1800
Wire Wire Line
	800  2000 1000 2000
Wire Wire Line
	800  2200 1000 2200
$Comp
L unlockoslo:Vin #PWR059
U 1 1 5E62C7DC
P 13600 4700
F 0 "#PWR059" H 13600 4550 50  0001 C CNN
F 1 "Vin" H 13615 4873 50  0000 C CNN
F 2 "" H 13600 4700 50  0001 C CNN
F 3 "" H 13600 4700 50  0001 C CNN
	1    13600 4700
	1    0    0    -1  
$EndComp
Wire Wire Line
	14300 4650 14300 4700
Wire Wire Line
	13600 4700 14300 4700
Connection ~ 13600 4700
Connection ~ 14300 4700
Wire Wire Line
	14300 4700 14300 4950
$Comp
L unlockoslo:Vin #PWR065
U 1 1 5E6D6353
P 13400 7500
F 0 "#PWR065" H 13400 7350 50  0001 C CNN
F 1 "Vin" H 13415 7673 50  0000 C CNN
F 2 "" H 13400 7500 50  0001 C CNN
F 3 "" H 13400 7500 50  0001 C CNN
	1    13400 7500
	1    0    0    -1  
$EndComp
Text Label 12700 7800 0    50   ~ 0
Output_1_C
Text Label 12700 7900 0    50   ~ 0
Output_1_NO
Text Label 12700 7700 0    50   ~ 0
Output_1_NC
Text Label 12700 8100 0    50   ~ 0
Output_2_C
Text Label 12700 8200 0    50   ~ 0
Output_2_NO
Text Label 12700 8000 0    50   ~ 0
Output_2_NC
Text Label 12700 8400 0    50   ~ 0
Output_3_C
Text Label 12700 8500 0    50   ~ 0
Output_3_NO
Text Label 12700 8300 0    50   ~ 0
Output_3_NC
Text Label 12700 8700 0    50   ~ 0
Output_4_C
Text Label 12700 8800 0    50   ~ 0
Output_4_NO
Text Label 12700 8600 0    50   ~ 0
Output_4_NC
$Comp
L power:GND #PWR066
U 1 1 5E6FB6C0
P 13400 9600
F 0 "#PWR066" H 13400 9350 50  0001 C CNN
F 1 "GND" H 13405 9427 50  0000 C CNN
F 2 "" H 13400 9600 50  0001 C CNN
F 3 "" H 13400 9600 50  0001 C CNN
	1    13400 9600
	1    0    0    -1  
$EndComp
Wire Wire Line
	12200 7600 13400 7600
Wire Wire Line
	13400 7600 13400 7500
Wire Wire Line
	12200 9500 13400 9500
Wire Wire Line
	13400 9500 13400 9600
Text Label 12700 9000 0    50   ~ 0
Output_5_C
Text Label 12700 9100 0    50   ~ 0
Output_5_NO
Text Label 12700 8900 0    50   ~ 0
Output_5_NC
Text Label 12700 9300 0    50   ~ 0
Output_6_C
Text Label 12700 9400 0    50   ~ 0
Output_6_NO
Text Label 12700 9200 0    50   ~ 0
Output_6_NC
Wire Wire Line
	12200 7700 12700 7700
Wire Wire Line
	12200 7800 12700 7800
Wire Wire Line
	12200 7900 12700 7900
Wire Wire Line
	12200 8000 12700 8000
Wire Wire Line
	12200 8100 12700 8100
Wire Wire Line
	12200 8200 12700 8200
Wire Wire Line
	12200 8300 12700 8300
Wire Wire Line
	12200 8400 12700 8400
Wire Wire Line
	12200 8500 12700 8500
Wire Wire Line
	12200 8600 12700 8600
Wire Wire Line
	12200 8700 12700 8700
Wire Wire Line
	12200 8800 12700 8800
Wire Wire Line
	12200 9000 12700 9000
Wire Wire Line
	12200 9100 12700 9100
Wire Wire Line
	12200 9300 12700 9300
Wire Wire Line
	12200 9400 12700 9400
Wire Wire Line
	12200 9200 12700 9200
Wire Wire Line
	12200 8900 12700 8900
NoConn ~ 15100 3000
NoConn ~ 15100 3100
Wire Wire Line
	13500 3900 13500 4100
Wire Wire Line
	13000 4100 13500 4100
Connection ~ 13500 4100
Wire Wire Line
	13500 4100 13500 4200
Wire Wire Line
	13500 4100 13600 4100
Wire Wire Line
	14200 4100 14200 3900
Wire Wire Line
	14100 3900 14100 4100
Connection ~ 14100 4100
Wire Wire Line
	14100 4100 14200 4100
Wire Wire Line
	14000 3900 14000 4100
Connection ~ 14000 4100
Wire Wire Line
	14000 4100 14100 4100
Wire Wire Line
	13900 3900 13900 4100
Connection ~ 13900 4100
Wire Wire Line
	13900 4100 14000 4100
Wire Wire Line
	13800 3900 13800 4100
Connection ~ 13800 4100
Wire Wire Line
	13800 4100 13900 4100
Wire Wire Line
	13700 3900 13700 4100
Connection ~ 13700 4100
Wire Wire Line
	13700 4100 13800 4100
Wire Wire Line
	13600 3900 13600 4100
Connection ~ 13600 4100
Wire Wire Line
	13600 4100 13700 4100
NoConn ~ 12700 2400
NoConn ~ 12700 2500
NoConn ~ 13700 1300
NoConn ~ 13800 1300
$Comp
L power:+3.3V #PWR0101
U 1 1 5EF0D528
P 14000 900
F 0 "#PWR0101" H 14000 750 50  0001 C CNN
F 1 "+3.3V" H 14015 1073 50  0000 C CNN
F 2 "" H 14000 900 50  0001 C CNN
F 3 "" H 14000 900 50  0001 C CNN
	1    14000 900 
	1    0    0    -1  
$EndComp
$Comp
L power:PWR_FLAG #FLG0101
U 1 1 5EF68F11
P 14400 900
F 0 "#FLG0101" H 14400 975 50  0001 C CNN
F 1 "PWR_FLAG" H 14400 1073 50  0000 C CNN
F 2 "" H 14400 900 50  0001 C CNN
F 3 "~" H 14400 900 50  0001 C CNN
	1    14400 900 
	1    0    0    -1  
$EndComp
Wire Wire Line
	14000 900  14000 1100
Wire Wire Line
	14100 1300 14100 1100
Wire Wire Line
	14100 1100 14000 1100
Connection ~ 14000 1100
Wire Wire Line
	14000 1100 14000 1300
Wire Wire Line
	14400 900  14400 1100
Wire Wire Line
	14400 1100 14100 1100
Connection ~ 14100 1100
Wire Wire Line
	12700 2400 13100 2400
Wire Wire Line
	12700 2500 13100 2500
Wire Wire Line
	15100 3000 14700 3000
Wire Wire Line
	15100 3100 14700 3100
Wire Wire Line
	14700 1700 15300 1700
Wire Wire Line
	14700 1800 15300 1800
Wire Wire Line
	14700 2400 15300 2400
Wire Wire Line
	14700 2500 15300 2500
Wire Wire Line
	14700 2700 15300 2700
Wire Wire Line
	14700 2800 15300 2800
Wire Wire Line
	12500 3200 13100 3200
Wire Wire Line
	12500 2000 13100 2000
Wire Wire Line
	12500 3300 13100 3300
Wire Wire Line
	12500 3000 13100 3000
Wire Wire Line
	12500 2900 13100 2900
Wire Wire Line
	12500 2800 13100 2800
Wire Wire Line
	12500 2100 13100 2100
Wire Wire Line
	14700 2300 15300 2300
Wire Wire Line
	14700 2900 15300 2900
Wire Wire Line
	12500 3100 13100 3100
Text Label 12500 3100 0    50   ~ 0
Switch_1
$Comp
L Connector:Raspberry_Pi_2_3 J4
U 1 1 5D83F81A
P 13900 2600
F 0 "J4" H 14400 1300 50  0000 C CNN
F 1 "RPI_HEADER" H 14700 1200 50  0000 C CNN
F 2 "Connector_PinSocket_2.54mm:PinSocket_2x20_P2.54mm_Vertical" H 13900 2600 50  0001 C CNN
F 3 "https://www.raspberrypi.org/documentation/hardware/raspberrypi/schematics/rpi_SCH_3bplus_1p0_reduced.pdf" H 13900 2600 50  0001 C CNN
F 4 "HIF3H-26PB-2.54DSA(71)" H 13900 2600 50  0001 C CNN "mpn"
F 5 "H123882-ND" H 13900 2600 50  0001 C CNN "digikey"
	1    13900 2600
	1    0    0    -1  
$EndComp
Text Label 12500 1700 0    50   ~ 0
MCU_TX
Text Label 12500 1800 0    50   ~ 0
MCU_RX
Wire Wire Line
	12500 1800 13100 1800
Wire Wire Line
	12500 1700 13100 1700
NoConn ~ 12500 1700
NoConn ~ 12500 1800
Text Label 12500 2200 0    50   ~ 0
MCU_IO2
Wire Wire Line
	12500 2200 13100 2200
NoConn ~ 12500 2200
Text Label 12500 2600 0    50   ~ 0
MCU_IO14
Wire Wire Line
	12500 2600 13100 2600
NoConn ~ 12500 2600
Text Label 15300 3300 2    50   ~ 0
MCU_IO4
Text Label 15300 3400 2    50   ~ 0
MCU_IO5
Wire Wire Line
	14700 3400 15300 3400
Wire Wire Line
	15300 3300 14700 3300
NoConn ~ 15300 3300
NoConn ~ 15300 3400
Text Label 15300 2000 2    50   ~ 0
MCU_IO12
Text Label 15300 2100 2    50   ~ 0
MCU_IO13
Wire Wire Line
	14700 2100 15300 2100
Wire Wire Line
	14700 2000 15300 2000
NoConn ~ 15300 2000
NoConn ~ 15300 2100
Connection ~ 2900 1400
Wire Wire Line
	2900 1400 3100 1400
Wire Wire Line
	3100 1600 3000 1600
Text Label 2000 1800 0    50   ~ 0
Ext_Input_1_N
Text Label 1000 900  0    50   ~ 0
Ext_Input_1_N
Wire Wire Line
	800  900  1000 900 
Text Label 1000 1100 0    50   ~ 0
Ext_Input_2_N
Text Label 1000 1300 0    50   ~ 0
Ext_Input_3_N
Text Label 1000 1500 0    50   ~ 0
Ext_Input_4_N
Text Label 1000 1700 0    50   ~ 0
Ext_Input_5_N
Text Label 1000 1900 0    50   ~ 0
Ext_Input_6_N
Text Label 1000 2100 0    50   ~ 0
Ext_Input_7_N
Text Label 1000 2300 0    50   ~ 0
Ext_Input_8_N
Wire Wire Line
	800  2300 1000 2300
Wire Wire Line
	800  1900 1000 1900
Wire Wire Line
	800  1700 1000 1700
Wire Wire Line
	800  1500 1000 1500
Wire Wire Line
	800  1300 1000 1300
Wire Wire Line
	800  1100 1000 1100
$Comp
L power:GND #PWR02
U 1 1 5DAC98FE
P 2300 4600
F 0 "#PWR02" H 2300 4350 50  0001 C CNN
F 1 "GND" H 2305 4427 50  0000 C CNN
F 2 "" H 2300 4600 50  0001 C CNN
F 3 "" H 2300 4600 50  0001 C CNN
	1    2300 4600
	1    0    0    -1  
$EndComp
$Comp
L Isolator:LTV-357T U1
U 1 1 5DAC9904
P 2800 3700
F 0 "U1" H 2800 4025 50  0000 C CNN
F 1 "TPC817S1B RAG" H 2800 3934 50  0000 C CNN
F 2 "Package_SO:SO-4_4.4x3.6mm_P2.54mm" H 2600 3500 50  0001 L CIN
F 3 "https://www.taiwansemi.com/products/datasheet/TPC817%20SERIES_C1612.pdf" H 2800 3700 50  0001 L CNN
F 4 "TPC817S1B RAG" H 2800 3700 50  0001 C CNN "mpn"
F 5 "TPC817S1BRAGCT-ND" H 2800 3700 50  0001 C CNN "digikey"
	1    2800 3700
	1    0    0    -1  
$EndComp
$Comp
L Device:R R1
U 1 1 5DAC990A
P 2300 3150
F 0 "R1" H 2370 3196 50  0000 L CNN
F 1 "1k" H 2370 3105 50  0000 L CNN
F 2 "IPC-7351-RESC:RESC_1005x015" V 2230 3150 50  0001 C CNN
F 3 "~" H 2300 3150 50  0001 C CNN
	1    2300 3150
	1    0    0    -1  
$EndComp
$Comp
L power:GND #PWR011
U 1 1 5DAC9910
P 3200 3900
F 0 "#PWR011" H 3200 3650 50  0001 C CNN
F 1 "GND" H 3205 3727 50  0000 C CNN
F 2 "" H 3200 3900 50  0001 C CNN
F 3 "" H 3200 3900 50  0001 C CNN
	1    3200 3900
	1    0    0    -1  
$EndComp
$Comp
L Device:LED D7
U 1 1 5DAC9916
P 3400 3950
F 0 "D7" V 3438 3833 50  0000 R CNN
F 1 "LED" V 3347 3833 50  0000 R CNN
F 2 "IPC-7351-LEDSC:LEDSC_1608x020" H 3400 3950 50  0001 C CNN
F 3 "~" H 3400 3950 50  0001 C CNN
	1    3400 3950
	0    -1   -1   0   
$EndComp
$Comp
L Device:R R7
U 1 1 5DAC991C
P 3400 4300
F 0 "R7" H 3470 4346 50  0000 L CNN
F 1 "270" H 3470 4255 50  0000 L CNN
F 2 "IPC-7351-RESC:RESC_1005x015" V 3330 4300 50  0001 C CNN
F 3 "~" H 3400 4300 50  0001 C CNN
	1    3400 4300
	1    0    0    -1  
$EndComp
$Comp
L power:GND #PWR014
U 1 1 5DAC9922
P 3400 4500
F 0 "#PWR014" H 3400 4250 50  0001 C CNN
F 1 "GND" H 3405 4327 50  0000 C CNN
F 2 "" H 3400 4500 50  0001 C CNN
F 3 "" H 3400 4500 50  0001 C CNN
	1    3400 4500
	1    0    0    -1  
$EndComp
Wire Wire Line
	3400 4450 3400 4500
$Comp
L Device:R R6
U 1 1 5DAC9929
P 3400 3150
F 0 "R6" H 3470 3196 50  0000 L CNN
F 1 "1k" H 3470 3105 50  0000 L CNN
F 2 "IPC-7351-RESC:RESC_1005x015" V 3330 3150 50  0001 C CNN
F 3 "~" H 3400 3150 50  0001 C CNN
	1    3400 3150
	1    0    0    -1  
$EndComp
$Comp
L power:+3.3V #PWR013
U 1 1 5DAC992F
P 3400 2900
F 0 "#PWR013" H 3400 2750 50  0001 C CNN
F 1 "+3.3V" H 3415 3073 50  0000 C CNN
F 2 "" H 3400 2900 50  0001 C CNN
F 3 "" H 3400 2900 50  0001 C CNN
	1    3400 2900
	1    0    0    -1  
$EndComp
Wire Wire Line
	3400 2900 3400 3000
$Comp
L unlockoslo:Vin #PWR01
U 1 1 5DAC9936
P 2300 2900
F 0 "#PWR01" H 2300 2750 50  0001 C CNN
F 1 "Vin" H 2315 3073 50  0000 C CNN
F 2 "" H 2300 2900 50  0001 C CNN
F 3 "" H 2300 2900 50  0001 C CNN
	1    2300 2900
	1    0    0    -1  
$EndComp
$Comp
L Device:Jumper_NO_Small JP2
U 1 1 5DAC993C
P 2300 4400
F 0 "JP2" V 2200 4200 50  0000 L CNN
F 1 "Jumper_NO_Small" V 2400 3700 50  0000 L CNN
F 2 "Jumper:SolderJumper-2_P1.3mm_Open_Pad1.0x1.5mm" H 2300 4400 50  0001 C CNN
F 3 "~" H 2300 4400 50  0001 C CNN
	1    2300 4400
	0    1    1    0   
$EndComp
$Comp
L Device:Jumper_NO_Small JP1
U 1 1 5DAC9942
P 2300 3500
F 0 "JP1" V 2100 3300 50  0000 L CNN
F 1 "Jumper_NO_Small" V 2200 2800 50  0000 L CNN
F 2 "Jumper:SolderJumper-2_P1.3mm_Open_Pad1.0x1.5mm" H 2300 3500 50  0001 C CNN
F 3 "~" H 2300 3500 50  0001 C CNN
	1    2300 3500
	0    1    1    0   
$EndComp
Wire Wire Line
	2300 4500 2300 4600
Wire Wire Line
	3100 3800 3200 3800
Wire Wire Line
	3200 3800 3200 3900
Text Label 3800 3600 0    50   ~ 0
Input_2
Wire Wire Line
	3100 3600 3400 3600
Wire Wire Line
	3400 3300 3400 3600
Connection ~ 3400 3600
Wire Wire Line
	3400 3600 3800 3600
Wire Wire Line
	3400 3600 3400 3800
Wire Wire Line
	3400 4100 3400 4150
Wire Wire Line
	2300 2900 2300 3000
Wire Wire Line
	2300 3300 2300 3400
Text Label 1400 3600 0    50   ~ 0
Ext_Input_2_P
Wire Wire Line
	1400 3600 2300 3600
Connection ~ 2300 3600
Wire Wire Line
	2300 3600 2500 3600
Wire Wire Line
	2500 3800 2400 3800
Wire Wire Line
	2300 4000 2300 4300
Text Label 1400 4000 0    50   ~ 0
Ext_Input_2_N
$Comp
L power:GND #PWR027
U 1 1 5DB2B2EC
P 5600 4600
F 0 "#PWR027" H 5600 4350 50  0001 C CNN
F 1 "GND" H 5605 4427 50  0000 C CNN
F 2 "" H 5600 4600 50  0001 C CNN
F 3 "" H 5600 4600 50  0001 C CNN
	1    5600 4600
	1    0    0    -1  
$EndComp
$Comp
L Isolator:LTV-357T U6
U 1 1 5DB2B2F2
P 6100 3700
F 0 "U6" H 6100 4025 50  0000 C CNN
F 1 "TPC817S1B RAG" H 6100 3934 50  0000 C CNN
F 2 "Package_SO:SO-4_4.4x3.6mm_P2.54mm" H 5900 3500 50  0001 L CIN
F 3 "https://www.taiwansemi.com/products/datasheet/TPC817%20SERIES_C1612.pdf" H 6100 3700 50  0001 L CNN
F 4 "TPC817S1B RAG" H 6100 3700 50  0001 C CNN "mpn"
F 5 "TPC817S1BRAGCT-ND" H 6100 3700 50  0001 C CNN "digikey"
	1    6100 3700
	1    0    0    -1  
$EndComp
$Comp
L Device:R R16
U 1 1 5DB2B2F8
P 5600 3150
F 0 "R16" H 5670 3196 50  0000 L CNN
F 1 "1k" H 5670 3105 50  0000 L CNN
F 2 "IPC-7351-RESC:RESC_1005x015" V 5530 3150 50  0001 C CNN
F 3 "~" H 5600 3150 50  0001 C CNN
	1    5600 3150
	1    0    0    -1  
$EndComp
$Comp
L power:GND #PWR032
U 1 1 5DB2B2FE
P 6500 3900
F 0 "#PWR032" H 6500 3650 50  0001 C CNN
F 1 "GND" H 6505 3727 50  0000 C CNN
F 2 "" H 6500 3900 50  0001 C CNN
F 3 "" H 6500 3900 50  0001 C CNN
	1    6500 3900
	1    0    0    -1  
$EndComp
$Comp
L Device:LED D22
U 1 1 5DB2B304
P 6700 3950
F 0 "D22" V 6738 3833 50  0000 R CNN
F 1 "LED" V 6647 3833 50  0000 R CNN
F 2 "IPC-7351-LEDSC:LEDSC_1608x020" H 6700 3950 50  0001 C CNN
F 3 "~" H 6700 3950 50  0001 C CNN
	1    6700 3950
	0    -1   -1   0   
$EndComp
$Comp
L Device:R R20
U 1 1 5DB2B30A
P 6700 4300
F 0 "R20" H 6770 4346 50  0000 L CNN
F 1 "270" H 6770 4255 50  0000 L CNN
F 2 "IPC-7351-RESC:RESC_1005x015" V 6630 4300 50  0001 C CNN
F 3 "~" H 6700 4300 50  0001 C CNN
	1    6700 4300
	1    0    0    -1  
$EndComp
$Comp
L power:GND #PWR034
U 1 1 5DB2B310
P 6700 4500
F 0 "#PWR034" H 6700 4250 50  0001 C CNN
F 1 "GND" H 6705 4327 50  0000 C CNN
F 2 "" H 6700 4500 50  0001 C CNN
F 3 "" H 6700 4500 50  0001 C CNN
	1    6700 4500
	1    0    0    -1  
$EndComp
Wire Wire Line
	6700 4450 6700 4500
$Comp
L Device:R R19
U 1 1 5DB2B317
P 6700 3150
F 0 "R19" H 6770 3196 50  0000 L CNN
F 1 "1k" H 6770 3105 50  0000 L CNN
F 2 "IPC-7351-RESC:RESC_1005x015" V 6630 3150 50  0001 C CNN
F 3 "~" H 6700 3150 50  0001 C CNN
	1    6700 3150
	1    0    0    -1  
$EndComp
$Comp
L power:+3.3V #PWR033
U 1 1 5DB2B31D
P 6700 2900
F 0 "#PWR033" H 6700 2750 50  0001 C CNN
F 1 "+3.3V" H 6715 3073 50  0000 C CNN
F 2 "" H 6700 2900 50  0001 C CNN
F 3 "" H 6700 2900 50  0001 C CNN
	1    6700 2900
	1    0    0    -1  
$EndComp
Wire Wire Line
	6700 2900 6700 3000
$Comp
L unlockoslo:Vin #PWR026
U 1 1 5DB2B324
P 5600 2900
F 0 "#PWR026" H 5600 2750 50  0001 C CNN
F 1 "Vin" H 5615 3073 50  0000 C CNN
F 2 "" H 5600 2900 50  0001 C CNN
F 3 "" H 5600 2900 50  0001 C CNN
	1    5600 2900
	1    0    0    -1  
$EndComp
$Comp
L Device:Jumper_NO_Small JP12
U 1 1 5DB2B32A
P 5600 4400
F 0 "JP12" V 5500 4200 50  0000 L CNN
F 1 "Jumper_NO_Small" V 5700 3700 50  0000 L CNN
F 2 "Jumper:SolderJumper-2_P1.3mm_Open_Pad1.0x1.5mm" H 5600 4400 50  0001 C CNN
F 3 "~" H 5600 4400 50  0001 C CNN
	1    5600 4400
	0    1    1    0   
$EndComp
$Comp
L Device:Jumper_NO_Small JP11
U 1 1 5DB2B330
P 5600 3500
F 0 "JP11" V 5400 3300 50  0000 L CNN
F 1 "Jumper_NO_Small" V 5500 2800 50  0000 L CNN
F 2 "Jumper:SolderJumper-2_P1.3mm_Open_Pad1.0x1.5mm" H 5600 3500 50  0001 C CNN
F 3 "~" H 5600 3500 50  0001 C CNN
	1    5600 3500
	0    1    1    0   
$EndComp
Wire Wire Line
	5600 4500 5600 4600
Wire Wire Line
	6400 3800 6500 3800
Wire Wire Line
	6500 3800 6500 3900
Text Label 7100 3600 0    50   ~ 0
Input_7
Wire Wire Line
	6400 3600 6700 3600
Wire Wire Line
	6700 3300 6700 3600
Connection ~ 6700 3600
Wire Wire Line
	6700 3600 7100 3600
Wire Wire Line
	6700 3600 6700 3800
Wire Wire Line
	6700 4100 6700 4150
Wire Wire Line
	5600 2900 5600 3000
Wire Wire Line
	5600 3300 5600 3400
Text Label 4700 3600 0    50   ~ 0
Ext_Input_7_P
Wire Wire Line
	4700 3600 5600 3600
Connection ~ 5600 3600
Wire Wire Line
	5600 3600 5800 3600
Wire Wire Line
	5800 3800 5700 3800
Wire Wire Line
	5600 4000 5600 4300
Text Label 4700 4000 0    50   ~ 0
Ext_Input_7_N
$Comp
L power:GND #PWR029
U 1 1 5DB8A793
P 6000 2400
F 0 "#PWR029" H 6000 2150 50  0001 C CNN
F 1 "GND" H 6005 2227 50  0000 C CNN
F 2 "" H 6000 2400 50  0001 C CNN
F 3 "" H 6000 2400 50  0001 C CNN
	1    6000 2400
	1    0    0    -1  
$EndComp
$Comp
L Isolator:LTV-357T U7
U 1 1 5DB8A799
P 6500 1500
F 0 "U7" H 6500 1825 50  0000 C CNN
F 1 "TPC817S1B RAG" H 6500 1734 50  0000 C CNN
F 2 "Package_SO:SO-4_4.4x3.6mm_P2.54mm" H 6300 1300 50  0001 L CIN
F 3 "https://www.taiwansemi.com/products/datasheet/TPC817%20SERIES_C1612.pdf" H 6500 1500 50  0001 L CNN
F 4 "TPC817S1B RAG" H 6500 1500 50  0001 C CNN "mpn"
F 5 "TPC817S1BRAGCT-ND" H 6500 1500 50  0001 C CNN "digikey"
	1    6500 1500
	1    0    0    -1  
$EndComp
$Comp
L Device:R R17
U 1 1 5DB8A79F
P 6000 950
F 0 "R17" H 6070 996 50  0000 L CNN
F 1 "1k" H 6070 905 50  0000 L CNN
F 2 "IPC-7351-RESC:RESC_1005x015" V 5930 950 50  0001 C CNN
F 3 "~" H 6000 950 50  0001 C CNN
	1    6000 950 
	1    0    0    -1  
$EndComp
$Comp
L power:GND #PWR035
U 1 1 5DB8A7A5
P 6900 1700
F 0 "#PWR035" H 6900 1450 50  0001 C CNN
F 1 "GND" H 6905 1527 50  0000 C CNN
F 2 "" H 6900 1700 50  0001 C CNN
F 3 "" H 6900 1700 50  0001 C CNN
	1    6900 1700
	1    0    0    -1  
$EndComp
$Comp
L Device:LED D23
U 1 1 5DB8A7AB
P 7100 1750
F 0 "D23" V 7138 1633 50  0000 R CNN
F 1 "LED" V 7047 1633 50  0000 R CNN
F 2 "IPC-7351-LEDSC:LEDSC_1608x020" H 7100 1750 50  0001 C CNN
F 3 "~" H 7100 1750 50  0001 C CNN
	1    7100 1750
	0    -1   -1   0   
$EndComp
$Comp
L Device:R R22
U 1 1 5DB8A7B1
P 7100 2100
F 0 "R22" H 7170 2146 50  0000 L CNN
F 1 "270" H 7170 2055 50  0000 L CNN
F 2 "IPC-7351-RESC:RESC_1005x015" V 7030 2100 50  0001 C CNN
F 3 "~" H 7100 2100 50  0001 C CNN
	1    7100 2100
	1    0    0    -1  
$EndComp
$Comp
L power:GND #PWR038
U 1 1 5DB8A7B7
P 7100 2300
F 0 "#PWR038" H 7100 2050 50  0001 C CNN
F 1 "GND" H 7105 2127 50  0000 C CNN
F 2 "" H 7100 2300 50  0001 C CNN
F 3 "" H 7100 2300 50  0001 C CNN
	1    7100 2300
	1    0    0    -1  
$EndComp
Wire Wire Line
	7100 2250 7100 2300
$Comp
L Device:R R21
U 1 1 5DB8A7BE
P 7100 950
F 0 "R21" H 7170 996 50  0000 L CNN
F 1 "1k" H 7170 905 50  0000 L CNN
F 2 "IPC-7351-RESC:RESC_1005x015" V 7030 950 50  0001 C CNN
F 3 "~" H 7100 950 50  0001 C CNN
	1    7100 950 
	1    0    0    -1  
$EndComp
$Comp
L power:+3.3V #PWR037
U 1 1 5DB8A7C4
P 7100 700
F 0 "#PWR037" H 7100 550 50  0001 C CNN
F 1 "+3.3V" H 7115 873 50  0000 C CNN
F 2 "" H 7100 700 50  0001 C CNN
F 3 "" H 7100 700 50  0001 C CNN
	1    7100 700 
	1    0    0    -1  
$EndComp
Wire Wire Line
	7100 700  7100 800 
$Comp
L unlockoslo:Vin #PWR028
U 1 1 5DB8A7CB
P 6000 700
F 0 "#PWR028" H 6000 550 50  0001 C CNN
F 1 "Vin" H 6015 873 50  0000 C CNN
F 2 "" H 6000 700 50  0001 C CNN
F 3 "" H 6000 700 50  0001 C CNN
	1    6000 700 
	1    0    0    -1  
$EndComp
$Comp
L Device:Jumper_NO_Small JP14
U 1 1 5DB8A7D1
P 6000 2200
F 0 "JP14" V 5900 2000 50  0000 L CNN
F 1 "Jumper_NO_Small" V 6100 1500 50  0000 L CNN
F 2 "Jumper:SolderJumper-2_P1.3mm_Open_Pad1.0x1.5mm" H 6000 2200 50  0001 C CNN
F 3 "~" H 6000 2200 50  0001 C CNN
	1    6000 2200
	0    1    1    0   
$EndComp
$Comp
L Device:Jumper_NO_Small JP13
U 1 1 5DB8A7D7
P 6000 1300
F 0 "JP13" V 5800 1100 50  0000 L CNN
F 1 "Jumper_NO_Small" V 5900 600 50  0000 L CNN
F 2 "Jumper:SolderJumper-2_P1.3mm_Open_Pad1.0x1.5mm" H 6000 1300 50  0001 C CNN
F 3 "~" H 6000 1300 50  0001 C CNN
	1    6000 1300
	0    1    1    0   
$EndComp
Wire Wire Line
	6000 2300 6000 2400
Wire Wire Line
	6800 1600 6900 1600
Wire Wire Line
	6900 1600 6900 1700
Text Label 7500 1400 0    50   ~ 0
Input_6
Wire Wire Line
	6800 1400 7100 1400
Wire Wire Line
	7100 1100 7100 1400
Connection ~ 7100 1400
Wire Wire Line
	7100 1400 7500 1400
Wire Wire Line
	7100 1400 7100 1600
Wire Wire Line
	7100 1900 7100 1950
Wire Wire Line
	6000 700  6000 800 
Wire Wire Line
	6000 1100 6000 1200
Text Label 5100 1400 0    50   ~ 0
Ext_Input_6_P
Wire Wire Line
	5100 1400 6000 1400
Connection ~ 6000 1400
Wire Wire Line
	6000 1400 6200 1400
Wire Wire Line
	6200 1600 6100 1600
Text Label 5100 1800 0    50   ~ 0
Ext_Input_6_N
$Comp
L power:GND #PWR08
U 1 1 5DBE8F07
P 2900 6700
F 0 "#PWR08" H 2900 6450 50  0001 C CNN
F 1 "GND" H 2905 6527 50  0000 C CNN
F 2 "" H 2900 6700 50  0001 C CNN
F 3 "" H 2900 6700 50  0001 C CNN
	1    2900 6700
	1    0    0    -1  
$EndComp
$Comp
L Isolator:LTV-357T U4
U 1 1 5DBE8F0D
P 3400 5800
F 0 "U4" H 3400 6125 50  0000 C CNN
F 1 "TPC817S1B RAG" H 3400 6034 50  0000 C CNN
F 2 "Package_SO:SO-4_4.4x3.6mm_P2.54mm" H 3200 5600 50  0001 L CIN
F 3 "https://www.taiwansemi.com/products/datasheet/TPC817%20SERIES_C1612.pdf" H 3400 5800 50  0001 L CNN
F 4 "TPC817S1B RAG" H 3400 5800 50  0001 C CNN "mpn"
F 5 "TPC817S1BRAGCT-ND" H 3400 5800 50  0001 C CNN "digikey"
	1    3400 5800
	1    0    0    -1  
$EndComp
$Comp
L Device:R R4
U 1 1 5DBE8F13
P 2900 5250
F 0 "R4" H 2970 5296 50  0000 L CNN
F 1 "1k" H 2970 5205 50  0000 L CNN
F 2 "IPC-7351-RESC:RESC_1005x015" V 2830 5250 50  0001 C CNN
F 3 "~" H 2900 5250 50  0001 C CNN
	1    2900 5250
	1    0    0    -1  
$EndComp
$Comp
L power:GND #PWR017
U 1 1 5DBE8F19
P 3800 6000
F 0 "#PWR017" H 3800 5750 50  0001 C CNN
F 1 "GND" H 3805 5827 50  0000 C CNN
F 2 "" H 3800 6000 50  0001 C CNN
F 3 "" H 3800 6000 50  0001 C CNN
	1    3800 6000
	1    0    0    -1  
$EndComp
$Comp
L Device:LED D17
U 1 1 5DBE8F1F
P 4000 6050
F 0 "D17" V 4038 5933 50  0000 R CNN
F 1 "LED" V 3947 5933 50  0000 R CNN
F 2 "IPC-7351-LEDSC:LEDSC_1608x020" H 4000 6050 50  0001 C CNN
F 3 "~" H 4000 6050 50  0001 C CNN
	1    4000 6050
	0    -1   -1   0   
$EndComp
$Comp
L Device:R R13
U 1 1 5DBE8F25
P 4000 6400
F 0 "R13" H 4070 6446 50  0000 L CNN
F 1 "270" H 4070 6355 50  0000 L CNN
F 2 "IPC-7351-RESC:RESC_1005x015" V 3930 6400 50  0001 C CNN
F 3 "~" H 4000 6400 50  0001 C CNN
	1    4000 6400
	1    0    0    -1  
$EndComp
$Comp
L power:GND #PWR023
U 1 1 5DBE8F2B
P 4000 6600
F 0 "#PWR023" H 4000 6350 50  0001 C CNN
F 1 "GND" H 4005 6427 50  0000 C CNN
F 2 "" H 4000 6600 50  0001 C CNN
F 3 "" H 4000 6600 50  0001 C CNN
	1    4000 6600
	1    0    0    -1  
$EndComp
Wire Wire Line
	4000 6550 4000 6600
$Comp
L Device:R R12
U 1 1 5DBE8F32
P 4000 5250
F 0 "R12" H 4070 5296 50  0000 L CNN
F 1 "1k" H 4070 5205 50  0000 L CNN
F 2 "IPC-7351-RESC:RESC_1005x015" V 3930 5250 50  0001 C CNN
F 3 "~" H 4000 5250 50  0001 C CNN
	1    4000 5250
	1    0    0    -1  
$EndComp
$Comp
L power:+3.3V #PWR020
U 1 1 5DBE8F38
P 4000 5000
F 0 "#PWR020" H 4000 4850 50  0001 C CNN
F 1 "+3.3V" H 4015 5173 50  0000 C CNN
F 2 "" H 4000 5000 50  0001 C CNN
F 3 "" H 4000 5000 50  0001 C CNN
	1    4000 5000
	1    0    0    -1  
$EndComp
Wire Wire Line
	4000 5000 4000 5100
$Comp
L unlockoslo:Vin #PWR05
U 1 1 5DBE8F3F
P 2900 5000
F 0 "#PWR05" H 2900 4850 50  0001 C CNN
F 1 "Vin" H 2915 5173 50  0000 C CNN
F 2 "" H 2900 5000 50  0001 C CNN
F 3 "" H 2900 5000 50  0001 C CNN
	1    2900 5000
	1    0    0    -1  
$EndComp
$Comp
L Device:Jumper_NO_Small JP8
U 1 1 5DBE8F45
P 2900 6500
F 0 "JP8" V 2800 6300 50  0000 L CNN
F 1 "Jumper_NO_Small" V 3000 5800 50  0000 L CNN
F 2 "Jumper:SolderJumper-2_P1.3mm_Open_Pad1.0x1.5mm" H 2900 6500 50  0001 C CNN
F 3 "~" H 2900 6500 50  0001 C CNN
	1    2900 6500
	0    1    1    0   
$EndComp
$Comp
L Device:Jumper_NO_Small JP7
U 1 1 5DBE8F4B
P 2900 5600
F 0 "JP7" V 2700 5400 50  0000 L CNN
F 1 "Jumper_NO_Small" V 2800 4900 50  0000 L CNN
F 2 "Jumper:SolderJumper-2_P1.3mm_Open_Pad1.0x1.5mm" H 2900 5600 50  0001 C CNN
F 3 "~" H 2900 5600 50  0001 C CNN
	1    2900 5600
	0    1    1    0   
$EndComp
Wire Wire Line
	2900 6600 2900 6700
Wire Wire Line
	3700 5900 3800 5900
Wire Wire Line
	3800 5900 3800 6000
Text Label 4400 5700 0    50   ~ 0
Input_3
Wire Wire Line
	3700 5700 4000 5700
Wire Wire Line
	4000 5400 4000 5700
Connection ~ 4000 5700
Wire Wire Line
	4000 5700 4400 5700
Wire Wire Line
	4000 5700 4000 5900
Wire Wire Line
	4000 6200 4000 6250
Wire Wire Line
	2900 5000 2900 5100
Wire Wire Line
	2900 5400 2900 5500
Text Label 2000 5700 0    50   ~ 0
Ext_Input_3_P
Wire Wire Line
	2000 5700 2900 5700
Connection ~ 2900 5700
Wire Wire Line
	2900 5700 3100 5700
Wire Wire Line
	3100 5900 3000 5900
Wire Wire Line
	2900 6100 2900 6400
Text Label 2000 6100 0    50   ~ 0
Ext_Input_3_N
$Comp
L power:GND #PWR031
U 1 1 5DC4FEC9
P 6000 6700
F 0 "#PWR031" H 6000 6450 50  0001 C CNN
F 1 "GND" H 6005 6527 50  0000 C CNN
F 2 "" H 6000 6700 50  0001 C CNN
F 3 "" H 6000 6700 50  0001 C CNN
	1    6000 6700
	1    0    0    -1  
$EndComp
$Comp
L Isolator:LTV-357T U8
U 1 1 5DC4FECF
P 6500 5800
F 0 "U8" H 6500 6125 50  0000 C CNN
F 1 "TPC817S1B RAG" H 6500 6034 50  0000 C CNN
F 2 "Package_SO:SO-4_4.4x3.6mm_P2.54mm" H 6300 5600 50  0001 L CIN
F 3 "https://www.taiwansemi.com/products/datasheet/TPC817%20SERIES_C1612.pdf" H 6500 5800 50  0001 L CNN
F 4 "TPC817S1B RAG" H 6500 5800 50  0001 C CNN "mpn"
F 5 "TPC817S1BRAGCT-ND" H 6500 5800 50  0001 C CNN "digikey"
	1    6500 5800
	1    0    0    -1  
$EndComp
$Comp
L Device:R R18
U 1 1 5DC4FED5
P 6000 5250
F 0 "R18" H 6070 5296 50  0000 L CNN
F 1 "1k" H 6070 5205 50  0000 L CNN
F 2 "IPC-7351-RESC:RESC_1005x015" V 5930 5250 50  0001 C CNN
F 3 "~" H 6000 5250 50  0001 C CNN
	1    6000 5250
	1    0    0    -1  
$EndComp
$Comp
L power:GND #PWR036
U 1 1 5DC4FEDB
P 6900 6000
F 0 "#PWR036" H 6900 5750 50  0001 C CNN
F 1 "GND" H 6905 5827 50  0000 C CNN
F 2 "" H 6900 6000 50  0001 C CNN
F 3 "" H 6900 6000 50  0001 C CNN
	1    6900 6000
	1    0    0    -1  
$EndComp
$Comp
L Device:LED D24
U 1 1 5DC4FEE1
P 7100 6050
F 0 "D24" V 7138 5933 50  0000 R CNN
F 1 "LED" V 7047 5933 50  0000 R CNN
F 2 "IPC-7351-LEDSC:LEDSC_1608x020" H 7100 6050 50  0001 C CNN
F 3 "~" H 7100 6050 50  0001 C CNN
	1    7100 6050
	0    -1   -1   0   
$EndComp
$Comp
L Device:R R24
U 1 1 5DC4FEE7
P 7100 6400
F 0 "R24" H 7170 6446 50  0000 L CNN
F 1 "270" H 7170 6355 50  0000 L CNN
F 2 "IPC-7351-RESC:RESC_1005x015" V 7030 6400 50  0001 C CNN
F 3 "~" H 7100 6400 50  0001 C CNN
	1    7100 6400
	1    0    0    -1  
$EndComp
$Comp
L power:GND #PWR040
U 1 1 5DC4FEED
P 7100 6600
F 0 "#PWR040" H 7100 6350 50  0001 C CNN
F 1 "GND" H 7105 6427 50  0000 C CNN
F 2 "" H 7100 6600 50  0001 C CNN
F 3 "" H 7100 6600 50  0001 C CNN
	1    7100 6600
	1    0    0    -1  
$EndComp
Wire Wire Line
	7100 6550 7100 6600
$Comp
L Device:R R23
U 1 1 5DC4FEF4
P 7100 5250
F 0 "R23" H 7170 5296 50  0000 L CNN
F 1 "1k" H 7170 5205 50  0000 L CNN
F 2 "IPC-7351-RESC:RESC_1005x015" V 7030 5250 50  0001 C CNN
F 3 "~" H 7100 5250 50  0001 C CNN
	1    7100 5250
	1    0    0    -1  
$EndComp
$Comp
L power:+3.3V #PWR039
U 1 1 5DC4FEFA
P 7100 5000
F 0 "#PWR039" H 7100 4850 50  0001 C CNN
F 1 "+3.3V" H 7115 5173 50  0000 C CNN
F 2 "" H 7100 5000 50  0001 C CNN
F 3 "" H 7100 5000 50  0001 C CNN
	1    7100 5000
	1    0    0    -1  
$EndComp
Wire Wire Line
	7100 5000 7100 5100
$Comp
L unlockoslo:Vin #PWR030
U 1 1 5DC4FF01
P 6000 5000
F 0 "#PWR030" H 6000 4850 50  0001 C CNN
F 1 "Vin" H 6015 5173 50  0000 C CNN
F 2 "" H 6000 5000 50  0001 C CNN
F 3 "" H 6000 5000 50  0001 C CNN
	1    6000 5000
	1    0    0    -1  
$EndComp
$Comp
L Device:Jumper_NO_Small JP16
U 1 1 5DC4FF07
P 6000 6500
F 0 "JP16" V 5900 6300 50  0000 L CNN
F 1 "Jumper_NO_Small" V 6100 5800 50  0000 L CNN
F 2 "Jumper:SolderJumper-2_P1.3mm_Open_Pad1.0x1.5mm" H 6000 6500 50  0001 C CNN
F 3 "~" H 6000 6500 50  0001 C CNN
	1    6000 6500
	0    1    1    0   
$EndComp
$Comp
L Device:Jumper_NO_Small JP15
U 1 1 5DC4FF0D
P 6000 5600
F 0 "JP15" V 5800 5400 50  0000 L CNN
F 1 "Jumper_NO_Small" V 5900 4900 50  0000 L CNN
F 2 "Jumper:SolderJumper-2_P1.3mm_Open_Pad1.0x1.5mm" H 6000 5600 50  0001 C CNN
F 3 "~" H 6000 5600 50  0001 C CNN
	1    6000 5600
	0    1    1    0   
$EndComp
Wire Wire Line
	6000 6600 6000 6700
Wire Wire Line
	6800 5900 6900 5900
Wire Wire Line
	6900 5900 6900 6000
Text Label 7500 5700 0    50   ~ 0
Input_8
Wire Wire Line
	6800 5700 7100 5700
Wire Wire Line
	7100 5400 7100 5700
Connection ~ 7100 5700
Wire Wire Line
	7100 5700 7500 5700
Wire Wire Line
	7100 5700 7100 5900
Wire Wire Line
	7100 6200 7100 6250
Wire Wire Line
	6000 5000 6000 5100
Wire Wire Line
	6000 5400 6000 5500
Text Label 5100 5700 0    50   ~ 0
Ext_Input_8_P
Wire Wire Line
	5100 5700 6000 5700
Connection ~ 6000 5700
Wire Wire Line
	6000 5700 6200 5700
Wire Wire Line
	6200 5900 6100 5900
Wire Wire Line
	6000 6100 6000 6400
Text Label 5100 6100 0    50   ~ 0
Ext_Input_8_N
$Comp
L Isolator:LTV-357T U2
U 1 1 5DCBE9EE
P 2800 8100
F 0 "U2" H 2800 8425 50  0000 C CNN
F 1 "TPC817S1B RAG" H 2800 8334 50  0000 C CNN
F 2 "Package_SO:SO-4_4.4x3.6mm_P2.54mm" H 2600 7900 50  0001 L CIN
F 3 "https://www.taiwansemi.com/products/datasheet/TPC817%20SERIES_C1612.pdf" H 2800 8100 50  0001 L CNN
F 4 "TPC817S1B RAG" H 2800 8100 50  0001 C CNN "mpn"
F 5 "TPC817S1BRAGCT-ND" H 2800 8100 50  0001 C CNN "digikey"
	1    2800 8100
	1    0    0    -1  
$EndComp
$Comp
L power:GND #PWR012
U 1 1 5DCBE9FA
P 3200 8300
F 0 "#PWR012" H 3200 8050 50  0001 C CNN
F 1 "GND" H 3205 8127 50  0000 C CNN
F 2 "" H 3200 8300 50  0001 C CNN
F 3 "" H 3200 8300 50  0001 C CNN
	1    3200 8300
	1    0    0    -1  
$EndComp
$Comp
L Device:LED D8
U 1 1 5DCBEA00
P 3400 8250
F 0 "D8" V 3438 8133 50  0000 R CNN
F 1 "LED" V 3347 8133 50  0000 R CNN
F 2 "IPC-7351-LEDSC:LEDSC_1608x020" H 3400 8250 50  0001 C CNN
F 3 "~" H 3400 8250 50  0001 C CNN
	1    3400 8250
	0    -1   -1   0   
$EndComp
$Comp
L Device:R R9
U 1 1 5DCBEA06
P 3400 8650
F 0 "R9" H 3470 8696 50  0000 L CNN
F 1 "270" H 3470 8605 50  0000 L CNN
F 2 "IPC-7351-RESC:RESC_1005x015" V 3330 8650 50  0001 C CNN
F 3 "~" H 3400 8650 50  0001 C CNN
	1    3400 8650
	1    0    0    -1  
$EndComp
$Comp
L power:GND #PWR016
U 1 1 5DCBEA0C
P 3400 8900
F 0 "#PWR016" H 3400 8650 50  0001 C CNN
F 1 "GND" H 3405 8727 50  0000 C CNN
F 2 "" H 3400 8900 50  0001 C CNN
F 3 "" H 3400 8900 50  0001 C CNN
	1    3400 8900
	1    0    0    -1  
$EndComp
Wire Wire Line
	3400 8800 3400 8900
$Comp
L Device:R R8
U 1 1 5DCBEA13
P 3400 7450
F 0 "R8" H 3470 7496 50  0000 L CNN
F 1 "1k" H 3470 7405 50  0000 L CNN
F 2 "IPC-7351-RESC:RESC_1005x015" V 3330 7450 50  0001 C CNN
F 3 "~" H 3400 7450 50  0001 C CNN
	1    3400 7450
	1    0    0    -1  
$EndComp
$Comp
L power:+3.3V #PWR015
U 1 1 5DCBEA19
P 3400 7200
F 0 "#PWR015" H 3400 7050 50  0001 C CNN
F 1 "+3.3V" H 3415 7373 50  0000 C CNN
F 2 "" H 3400 7200 50  0001 C CNN
F 3 "" H 3400 7200 50  0001 C CNN
	1    3400 7200
	1    0    0    -1  
$EndComp
Wire Wire Line
	3400 7200 3400 7300
Wire Wire Line
	3100 8200 3200 8200
Text Label 3800 8000 0    50   ~ 0
Input_4
Wire Wire Line
	3100 8000 3400 8000
Wire Wire Line
	3400 7600 3400 8000
Connection ~ 3400 8000
Wire Wire Line
	3400 8000 3800 8000
Wire Wire Line
	3400 8400 3400 8500
Text Label 1400 7900 0    50   ~ 0
Ext_Input_4_P
Text Label 1400 8300 0    50   ~ 0
Ext_Input_4_N
$Comp
L power:GND #PWR010
U 1 1 5DD2ECD7
P 2900 11000
F 0 "#PWR010" H 2900 10750 50  0001 C CNN
F 1 "GND" H 2905 10827 50  0000 C CNN
F 2 "" H 2900 11000 50  0001 C CNN
F 3 "" H 2900 11000 50  0001 C CNN
	1    2900 11000
	1    0    0    -1  
$EndComp
$Comp
L Isolator:LTV-357T U5
U 1 1 5DD2ECDD
P 3400 10100
F 0 "U5" H 3400 10425 50  0000 C CNN
F 1 "TPC817S1B RAG" H 3400 10334 50  0000 C CNN
F 2 "Package_SO:SO-4_4.4x3.6mm_P2.54mm" H 3200 9900 50  0001 L CIN
F 3 "https://www.taiwansemi.com/products/datasheet/TPC817%20SERIES_C1612.pdf" H 3400 10100 50  0001 L CNN
F 4 "TPC817S1B RAG" H 3400 10100 50  0001 C CNN "mpn"
F 5 "TPC817S1BRAGCT-ND" H 3400 10100 50  0001 C CNN "digikey"
	1    3400 10100
	1    0    0    -1  
$EndComp
$Comp
L Device:R R5
U 1 1 5DD2ECE3
P 2900 9550
F 0 "R5" H 2970 9596 50  0000 L CNN
F 1 "1k" H 2970 9505 50  0000 L CNN
F 2 "IPC-7351-RESC:RESC_1005x015" V 2830 9550 50  0001 C CNN
F 3 "~" H 2900 9550 50  0001 C CNN
	1    2900 9550
	1    0    0    -1  
$EndComp
$Comp
L power:GND #PWR019
U 1 1 5DD2ECE9
P 3800 10300
F 0 "#PWR019" H 3800 10050 50  0001 C CNN
F 1 "GND" H 3805 10127 50  0000 C CNN
F 2 "" H 3800 10300 50  0001 C CNN
F 3 "" H 3800 10300 50  0001 C CNN
	1    3800 10300
	1    0    0    -1  
$EndComp
$Comp
L Device:LED D18
U 1 1 5DD2ECEF
P 4000 10350
F 0 "D18" V 4038 10233 50  0000 R CNN
F 1 "LED" V 3947 10233 50  0000 R CNN
F 2 "IPC-7351-LEDSC:LEDSC_1608x020" H 4000 10350 50  0001 C CNN
F 3 "~" H 4000 10350 50  0001 C CNN
	1    4000 10350
	0    -1   -1   0   
$EndComp
$Comp
L Device:R R15
U 1 1 5DD2ECF5
P 4000 10700
F 0 "R15" H 4070 10746 50  0000 L CNN
F 1 "270" H 4070 10655 50  0000 L CNN
F 2 "IPC-7351-RESC:RESC_1005x015" V 3930 10700 50  0001 C CNN
F 3 "~" H 4000 10700 50  0001 C CNN
	1    4000 10700
	1    0    0    -1  
$EndComp
$Comp
L power:GND #PWR025
U 1 1 5DD2ECFB
P 4000 10900
F 0 "#PWR025" H 4000 10650 50  0001 C CNN
F 1 "GND" H 4005 10727 50  0000 C CNN
F 2 "" H 4000 10900 50  0001 C CNN
F 3 "" H 4000 10900 50  0001 C CNN
	1    4000 10900
	1    0    0    -1  
$EndComp
Wire Wire Line
	4000 10850 4000 10900
$Comp
L Device:R R14
U 1 1 5DD2ED02
P 4000 9550
F 0 "R14" H 4070 9596 50  0000 L CNN
F 1 "1k" H 4070 9505 50  0000 L CNN
F 2 "IPC-7351-RESC:RESC_1005x015" V 3930 9550 50  0001 C CNN
F 3 "~" H 4000 9550 50  0001 C CNN
	1    4000 9550
	1    0    0    -1  
$EndComp
$Comp
L power:+3.3V #PWR024
U 1 1 5DD2ED08
P 4000 9300
F 0 "#PWR024" H 4000 9150 50  0001 C CNN
F 1 "+3.3V" H 4015 9473 50  0000 C CNN
F 2 "" H 4000 9300 50  0001 C CNN
F 3 "" H 4000 9300 50  0001 C CNN
	1    4000 9300
	1    0    0    -1  
$EndComp
Wire Wire Line
	4000 9300 4000 9400
$Comp
L unlockoslo:Vin #PWR09
U 1 1 5DD2ED0F
P 2900 9300
F 0 "#PWR09" H 2900 9150 50  0001 C CNN
F 1 "Vin" H 2915 9473 50  0000 C CNN
F 2 "" H 2900 9300 50  0001 C CNN
F 3 "" H 2900 9300 50  0001 C CNN
	1    2900 9300
	1    0    0    -1  
$EndComp
$Comp
L Device:Jumper_NO_Small JP10
U 1 1 5DD2ED15
P 2900 10800
F 0 "JP10" V 2800 10600 50  0000 L CNN
F 1 "Jumper_NO_Small" V 3000 10100 50  0000 L CNN
F 2 "Jumper:SolderJumper-2_P1.3mm_Open_Pad1.0x1.5mm" H 2900 10800 50  0001 C CNN
F 3 "~" H 2900 10800 50  0001 C CNN
	1    2900 10800
	0    1    1    0   
$EndComp
$Comp
L Device:Jumper_NO_Small JP9
U 1 1 5DD2ED1B
P 2900 9900
F 0 "JP9" V 2700 9700 50  0000 L CNN
F 1 "Jumper_NO_Small" V 2800 9200 50  0000 L CNN
F 2 "Jumper:SolderJumper-2_P1.3mm_Open_Pad1.0x1.5mm" H 2900 9900 50  0001 C CNN
F 3 "~" H 2900 9900 50  0001 C CNN
	1    2900 9900
	0    1    1    0   
$EndComp
Wire Wire Line
	2900 10900 2900 11000
Wire Wire Line
	3700 10200 3800 10200
Wire Wire Line
	3800 10200 3800 10300
Text Label 4400 10000 0    50   ~ 0
Input_5
Wire Wire Line
	3700 10000 4000 10000
Wire Wire Line
	4000 9700 4000 10000
Connection ~ 4000 10000
Wire Wire Line
	4000 10000 4400 10000
Wire Wire Line
	4000 10000 4000 10200
Wire Wire Line
	4000 10500 4000 10550
Wire Wire Line
	2900 9300 2900 9400
Wire Wire Line
	2900 9700 2900 9800
Text Label 2000 10000 0    50   ~ 0
Ext_Input_5_P
Wire Wire Line
	2000 10000 2900 10000
Connection ~ 2900 10000
Wire Wire Line
	2900 10000 3100 10000
Wire Wire Line
	3100 10200 3000 10200
Wire Wire Line
	2900 10400 2900 10700
Text Label 2000 10400 0    50   ~ 0
Ext_Input_5_N
Wire Wire Line
	800  2100 1000 2100
$Comp
L relay1:1462042-8 K1
U 1 1 5D82F913
P 10800 1300
F 0 "K1" H 10850 1767 50  0000 C CNN
F 1 "1462042-8" H 10850 1676 50  0000 C CNN
F 2 "1462042-8:RELAY_1462042-8" H 10800 1300 50  0001 L BNN
F 3 "None" H 10800 1300 50  0001 L BNN
F 4 "TE Connectivity" H 10800 1300 50  0001 L BNN "Field4"
F 5 "1462042-8" H 10800 1300 50  0001 L BNN "Field5"
F 6 "https://www.te.com/usa-en/product-1462042-8.html?te_bu=Cor&te_type=disp&te_campaign=seda_glo_cor-seda-global-disp-prtnr-fy19-seda-model-bom-cta_sma-317_1&elqCampaignId=32493" H 10800 1300 50  0001 L BNN "Field6"
F 7 "Signal Relay 5VDC 2A SPDT __ 10mm 7.5mm 5.65mm__ Surface Mount Automotive" H 10800 1300 50  0001 L BNN "Field7"
F 8 "PB1249CT-ND" H 10800 1300 50  0001 L BNN "Field8"
F 9 "Compliant" H 10800 1300 50  0001 L BNN "Field9"
F 10 "1462042-8" H 10800 1300 50  0001 L BNN "Field10"
F 11 "https://www.digikey.no/product-detail/en/te-connectivity-potter-brumfield-relays/1462042-8/PB1249CT-ND/2126955?utm_source=snapeda&utm_medium=aggregator&utm_campaign=symbol" H 10800 1300 50  0001 L BNN "Field11"
	1    10800 1300
	1    0    0    -1  
$EndComp
Wire Wire Line
	10500 700  10500 1100
Wire Wire Line
	10500 1500 10400 1500
Wire Wire Line
	10400 1500 10400 1150
Wire Wire Line
	9700 1150 10400 1150
Wire Wire Line
	11200 1300 11350 1300
$Comp
L power:GND #PWR044
U 1 1 5DCBBDF5
P 9800 3250
F 0 "#PWR044" H 9800 3000 50  0001 C CNN
F 1 "GND" H 9805 3077 50  0000 C CNN
F 2 "" H 9800 3250 50  0001 C CNN
F 3 "" H 9800 3250 50  0001 C CNN
	1    9800 3250
	1    0    0    -1  
$EndComp
$Comp
L Device:R R36
U 1 1 5DCBBDFB
P 9350 3000
F 0 "R36" H 9420 3046 50  0000 L CNN
F 1 "10k" H 9420 2955 50  0000 L CNN
F 2 "IPC-7351-RESC:RESC_1005x015" V 9280 3000 50  0001 C CNN
F 3 "~" H 9350 3000 50  0001 C CNN
	1    9350 3000
	1    0    0    -1  
$EndComp
$Comp
L Device:R R31
U 1 1 5DCBBE02
P 9200 3250
F 0 "R31" V 8993 3250 50  0000 C CNN
F 1 "270" V 9084 3250 50  0000 C CNN
F 2 "IPC-7351-RESC:RESC_1005x015" V 9130 3250 50  0001 C CNN
F 3 "~" H 9200 3250 50  0001 C CNN
	1    9200 3250
	0    1    1    0   
$EndComp
$Comp
L Device:LED D12
U 1 1 5DCBBE09
P 8950 3000
F 0 "D12" V 9000 3150 50  0000 R CNN
F 1 "LED" V 8900 3200 50  0000 R CNN
F 2 "IPC-7351-LEDSC:LEDSC_1608x020" H 8950 3000 50  0001 C CNN
F 3 "~" H 8950 3000 50  0001 C CNN
	1    8950 3000
	0    -1   -1   0   
$EndComp
Wire Wire Line
	8950 3150 8950 3250
Wire Wire Line
	8950 3250 9050 3250
Text Label 8350 2850 0    50   ~ 0
Switch_2
Wire Wire Line
	8350 2850 8950 2850
Wire Wire Line
	8950 2850 9350 2850
Connection ~ 8950 2850
$Comp
L Device:Q_NMOS_GSD Q4
U 1 1 5DCBBE16
P 9700 2850
F 0 "Q4" H 9905 2896 50  0000 L CNN
F 1 "DMN2041L-7" H 9905 2805 50  0000 L CNN
F 2 "Package_TO_SOT_SMD:SOT-23" H 9900 2950 50  0001 C CNN
F 3 "~" H 9700 2850 50  0001 C CNN
F 4 "DMN2041L-7" H 9700 2850 50  0001 C CNN "mpn"
F 5 "DMN2041L-7DICT-ND" H 9700 2850 50  0001 C CNN "digikey"
	1    9700 2850
	1    0    0    -1  
$EndComp
Wire Wire Line
	9500 2850 9350 2850
Connection ~ 9350 2850
Wire Wire Line
	9350 3150 9350 3250
Connection ~ 9350 3250
Wire Wire Line
	9350 3250 9800 3250
Wire Wire Line
	9800 3050 9800 3250
Connection ~ 9800 3250
Text Label 11450 2600 0    50   ~ 0
Output_2_NC
Text Label 11450 3000 0    50   ~ 0
Output_2_NO
Text Label 11450 2800 0    50   ~ 0
Output_2_C
Wire Wire Line
	11300 2600 11450 2600
Wire Wire Line
	11300 3000 11450 3000
$Comp
L relay1:1462042-8 K4
U 1 1 5DCBBE37
P 10900 2800
F 0 "K4" H 10950 3267 50  0000 C CNN
F 1 "1462042-8" H 10950 3176 50  0000 C CNN
F 2 "1462042-8:RELAY_1462042-8" H 10900 2800 50  0001 L BNN
F 3 "None" H 10900 2800 50  0001 L BNN
F 4 "TE Connectivity" H 10900 2800 50  0001 L BNN "Field4"
F 5 "1462042-8" H 10900 2800 50  0001 L BNN "Field5"
F 6 "https://www.te.com/usa-en/product-1462042-8.html?te_bu=Cor&te_type=disp&te_campaign=seda_glo_cor-seda-global-disp-prtnr-fy19-seda-model-bom-cta_sma-317_1&elqCampaignId=32493" H 10900 2800 50  0001 L BNN "Field6"
F 7 "Signal Relay 5VDC 2A SPDT __ 10mm 7.5mm 5.65mm__ Surface Mount Automotive" H 10900 2800 50  0001 L BNN "Field7"
F 8 "PB1249CT-ND" H 10900 2800 50  0001 L BNN "Field8"
F 9 "Compliant" H 10900 2800 50  0001 L BNN "Field9"
F 10 "1462042-8" H 10900 2800 50  0001 L BNN "Field10"
F 11 "https://www.digikey.no/product-detail/en/te-connectivity-potter-brumfield-relays/1462042-8/PB1249CT-ND/2126955?utm_source=snapeda&utm_medium=aggregator&utm_campaign=symbol" H 10900 2800 50  0001 L BNN "Field11"
	1    10900 2800
	1    0    0    -1  
$EndComp
Wire Wire Line
	10600 2200 10600 2600
Wire Wire Line
	10600 3000 10500 3000
Wire Wire Line
	10500 3000 10500 2650
Wire Wire Line
	9800 2650 10500 2650
Wire Wire Line
	11300 2800 11450 2800
$Comp
L power:GND #PWR045
U 1 1 5DCDBB2F
P 9800 4650
F 0 "#PWR045" H 9800 4400 50  0001 C CNN
F 1 "GND" H 9805 4477 50  0000 C CNN
F 2 "" H 9800 4650 50  0001 C CNN
F 3 "" H 9800 4650 50  0001 C CNN
	1    9800 4650
	1    0    0    -1  
$EndComp
$Comp
L Device:R R37
U 1 1 5DCDBB35
P 9350 4400
F 0 "R37" H 9420 4446 50  0000 L CNN
F 1 "10k" H 9420 4355 50  0000 L CNN
F 2 "IPC-7351-RESC:RESC_1005x015" V 9280 4400 50  0001 C CNN
F 3 "~" H 9350 4400 50  0001 C CNN
	1    9350 4400
	1    0    0    -1  
$EndComp
$Comp
L Device:R R32
U 1 1 5DCDBB3C
P 9200 4650
F 0 "R32" V 8993 4650 50  0000 C CNN
F 1 "270" V 9084 4650 50  0000 C CNN
F 2 "IPC-7351-RESC:RESC_1005x015" V 9130 4650 50  0001 C CNN
F 3 "~" H 9200 4650 50  0001 C CNN
	1    9200 4650
	0    1    1    0   
$EndComp
$Comp
L Device:LED D15
U 1 1 5DCDBB43
P 8950 4400
F 0 "D15" V 9000 4550 50  0000 R CNN
F 1 "LED" V 8900 4600 50  0000 R CNN
F 2 "IPC-7351-LEDSC:LEDSC_1608x020" H 8950 4400 50  0001 C CNN
F 3 "~" H 8950 4400 50  0001 C CNN
	1    8950 4400
	0    -1   -1   0   
$EndComp
Wire Wire Line
	8950 4550 8950 4650
Wire Wire Line
	8950 4650 9050 4650
Text Label 8350 4250 0    50   ~ 0
Switch_3
Wire Wire Line
	8350 4250 8950 4250
Wire Wire Line
	8950 4250 9350 4250
Connection ~ 8950 4250
$Comp
L Device:Q_NMOS_GSD Q5
U 1 1 5DCDBB50
P 9700 4250
F 0 "Q5" H 9905 4296 50  0000 L CNN
F 1 "DMN2041L-7" H 9905 4205 50  0000 L CNN
F 2 "Package_TO_SOT_SMD:SOT-23" H 9900 4350 50  0001 C CNN
F 3 "~" H 9700 4250 50  0001 C CNN
F 4 "DMN2041L-7" H 9700 4250 50  0001 C CNN "mpn"
F 5 "DMN2041L-7DICT-ND" H 9700 4250 50  0001 C CNN "digikey"
	1    9700 4250
	1    0    0    -1  
$EndComp
Wire Wire Line
	9500 4250 9350 4250
Connection ~ 9350 4250
Wire Wire Line
	9350 4550 9350 4650
Connection ~ 9350 4650
Wire Wire Line
	9350 4650 9800 4650
Wire Wire Line
	9800 4450 9800 4650
Connection ~ 9800 4650
Text Label 11450 4000 0    50   ~ 0
Output_3_NC
Text Label 11450 4400 0    50   ~ 0
Output_3_NO
Text Label 11450 4200 0    50   ~ 0
Output_3_C
Wire Wire Line
	11300 4000 11450 4000
Wire Wire Line
	11300 4400 11450 4400
$Comp
L relay1:1462042-8 K5
U 1 1 5DCDBB71
P 10900 4200
F 0 "K5" H 10950 4667 50  0000 C CNN
F 1 "1462042-8" H 10950 4576 50  0000 C CNN
F 2 "1462042-8:RELAY_1462042-8" H 10900 4200 50  0001 L BNN
F 3 "None" H 10900 4200 50  0001 L BNN
F 4 "TE Connectivity" H 10900 4200 50  0001 L BNN "Field4"
F 5 "1462042-8" H 10900 4200 50  0001 L BNN "Field5"
F 6 "https://www.te.com/usa-en/product-1462042-8.html?te_bu=Cor&te_type=disp&te_campaign=seda_glo_cor-seda-global-disp-prtnr-fy19-seda-model-bom-cta_sma-317_1&elqCampaignId=32493" H 10900 4200 50  0001 L BNN "Field6"
F 7 "Signal Relay 5VDC 2A SPDT __ 10mm 7.5mm 5.65mm__ Surface Mount Automotive" H 10900 4200 50  0001 L BNN "Field7"
F 8 "PB1249CT-ND" H 10900 4200 50  0001 L BNN "Field8"
F 9 "Compliant" H 10900 4200 50  0001 L BNN "Field9"
F 10 "1462042-8" H 10900 4200 50  0001 L BNN "Field10"
F 11 "https://www.digikey.no/product-detail/en/te-connectivity-potter-brumfield-relays/1462042-8/PB1249CT-ND/2126955?utm_source=snapeda&utm_medium=aggregator&utm_campaign=symbol" H 10900 4200 50  0001 L BNN "Field11"
	1    10900 4200
	1    0    0    -1  
$EndComp
Wire Wire Line
	10600 3600 10600 4000
Wire Wire Line
	10600 4400 10500 4400
Wire Wire Line
	10500 4400 10500 4050
Wire Wire Line
	9800 4050 10500 4050
Wire Wire Line
	11300 4200 11450 4200
$Comp
L power:GND #PWR047
U 1 1 5DD00B54
P 9800 6050
F 0 "#PWR047" H 9800 5800 50  0001 C CNN
F 1 "GND" H 9805 5877 50  0000 C CNN
F 2 "" H 9800 6050 50  0001 C CNN
F 3 "" H 9800 6050 50  0001 C CNN
	1    9800 6050
	1    0    0    -1  
$EndComp
$Comp
L Device:R R38
U 1 1 5DD00B5A
P 9350 5800
F 0 "R38" H 9420 5846 50  0000 L CNN
F 1 "10k" H 9420 5755 50  0000 L CNN
F 2 "IPC-7351-RESC:RESC_1005x015" V 9280 5800 50  0001 C CNN
F 3 "~" H 9350 5800 50  0001 C CNN
	1    9350 5800
	1    0    0    -1  
$EndComp
$Comp
L Device:R R35
U 1 1 5DD00B61
P 9200 6050
F 0 "R35" V 8993 6050 50  0000 C CNN
F 1 "270" V 9084 6050 50  0000 C CNN
F 2 "IPC-7351-RESC:RESC_1005x015" V 9130 6050 50  0001 C CNN
F 3 "~" H 9200 6050 50  0001 C CNN
	1    9200 6050
	0    1    1    0   
$EndComp
$Comp
L Device:LED D16
U 1 1 5DD00B68
P 8950 5800
F 0 "D16" V 9000 5950 50  0000 R CNN
F 1 "LED" V 8900 6000 50  0000 R CNN
F 2 "IPC-7351-LEDSC:LEDSC_1608x020" H 8950 5800 50  0001 C CNN
F 3 "~" H 8950 5800 50  0001 C CNN
	1    8950 5800
	0    -1   -1   0   
$EndComp
Wire Wire Line
	8950 5950 8950 6050
Wire Wire Line
	8950 6050 9050 6050
Text Label 8350 5650 0    50   ~ 0
Switch_4
Wire Wire Line
	8350 5650 8950 5650
Wire Wire Line
	8950 5650 9350 5650
Connection ~ 8950 5650
$Comp
L Device:Q_NMOS_GSD Q6
U 1 1 5DD00B75
P 9700 5650
F 0 "Q6" H 9905 5696 50  0000 L CNN
F 1 "DMN2041L-7" H 9905 5605 50  0000 L CNN
F 2 "Package_TO_SOT_SMD:SOT-23" H 9900 5750 50  0001 C CNN
F 3 "~" H 9700 5650 50  0001 C CNN
F 4 "DMN2041L-7" H 9700 5650 50  0001 C CNN "mpn"
F 5 "DMN2041L-7DICT-ND" H 9700 5650 50  0001 C CNN "digikey"
	1    9700 5650
	1    0    0    -1  
$EndComp
Wire Wire Line
	9500 5650 9350 5650
Connection ~ 9350 5650
Wire Wire Line
	9350 5950 9350 6050
Connection ~ 9350 6050
Wire Wire Line
	9350 6050 9800 6050
Wire Wire Line
	9800 5850 9800 6050
Connection ~ 9800 6050
Text Label 11450 5400 0    50   ~ 0
Output_4_NC
Text Label 11450 5800 0    50   ~ 0
Output_4_NO
Text Label 11450 5600 0    50   ~ 0
Output_4_C
Wire Wire Line
	11300 5400 11450 5400
Wire Wire Line
	11300 5800 11450 5800
$Comp
L relay1:1462042-8 K6
U 1 1 5DD00B96
P 10900 5600
F 0 "K6" H 10950 6067 50  0000 C CNN
F 1 "1462042-8" H 10950 5976 50  0000 C CNN
F 2 "1462042-8:RELAY_1462042-8" H 10900 5600 50  0001 L BNN
F 3 "None" H 10900 5600 50  0001 L BNN
F 4 "TE Connectivity" H 10900 5600 50  0001 L BNN "Field4"
F 5 "1462042-8" H 10900 5600 50  0001 L BNN "Field5"
F 6 "https://www.te.com/usa-en/product-1462042-8.html?te_bu=Cor&te_type=disp&te_campaign=seda_glo_cor-seda-global-disp-prtnr-fy19-seda-model-bom-cta_sma-317_1&elqCampaignId=32493" H 10900 5600 50  0001 L BNN "Field6"
F 7 "Signal Relay 5VDC 2A SPDT __ 10mm 7.5mm 5.65mm__ Surface Mount Automotive" H 10900 5600 50  0001 L BNN "Field7"
F 8 "PB1249CT-ND" H 10900 5600 50  0001 L BNN "Field8"
F 9 "Compliant" H 10900 5600 50  0001 L BNN "Field9"
F 10 "1462042-8" H 10900 5600 50  0001 L BNN "Field10"
F 11 "https://www.digikey.no/product-detail/en/te-connectivity-potter-brumfield-relays/1462042-8/PB1249CT-ND/2126955?utm_source=snapeda&utm_medium=aggregator&utm_campaign=symbol" H 10900 5600 50  0001 L BNN "Field11"
	1    10900 5600
	1    0    0    -1  
$EndComp
Wire Wire Line
	10600 5000 10600 5400
Wire Wire Line
	10600 5800 10500 5800
Wire Wire Line
	10500 5800 10500 5450
Wire Wire Line
	9800 5450 10500 5450
Wire Wire Line
	11300 5600 11450 5600
$Comp
L power:GND #PWR041
U 1 1 5DDAB693
P 9300 7650
F 0 "#PWR041" H 9300 7400 50  0001 C CNN
F 1 "GND" H 9305 7477 50  0000 C CNN
F 2 "" H 9300 7650 50  0001 C CNN
F 3 "" H 9300 7650 50  0001 C CNN
	1    9300 7650
	1    0    0    -1  
$EndComp
$Comp
L Device:R R28
U 1 1 5DDAB699
P 8850 7400
F 0 "R28" H 8920 7446 50  0000 L CNN
F 1 "10k" H 8920 7355 50  0000 L CNN
F 2 "IPC-7351-RESC:RESC_1005x015" V 8780 7400 50  0001 C CNN
F 3 "~" H 8850 7400 50  0001 C CNN
	1    8850 7400
	1    0    0    -1  
$EndComp
$Comp
L Device:R R26
U 1 1 5DDAB6A0
P 8700 7650
F 0 "R26" V 8493 7650 50  0000 C CNN
F 1 "270" V 8584 7650 50  0000 C CNN
F 2 "IPC-7351-RESC:RESC_1005x015" V 8630 7650 50  0001 C CNN
F 3 "~" H 8700 7650 50  0001 C CNN
	1    8700 7650
	0    1    1    0   
$EndComp
$Comp
L Device:LED D10
U 1 1 5DDAB6A7
P 8450 7400
F 0 "D10" V 8500 7550 50  0000 R CNN
F 1 "LED" V 8400 7600 50  0000 R CNN
F 2 "IPC-7351-LEDSC:LEDSC_1608x020" H 8450 7400 50  0001 C CNN
F 3 "~" H 8450 7400 50  0001 C CNN
	1    8450 7400
	0    -1   -1   0   
$EndComp
Wire Wire Line
	8450 7550 8450 7650
Wire Wire Line
	8450 7650 8550 7650
Text Label 7850 7250 0    50   ~ 0
Switch_5
Wire Wire Line
	7850 7250 8450 7250
Wire Wire Line
	8450 7250 8850 7250
Connection ~ 8450 7250
$Comp
L Device:Q_NMOS_GSD Q2
U 1 1 5DDAB6B4
P 9200 7250
F 0 "Q2" H 9405 7296 50  0000 L CNN
F 1 "DMN2041L-7" H 9405 7205 50  0000 L CNN
F 2 "Package_TO_SOT_SMD:SOT-23" H 9400 7350 50  0001 C CNN
F 3 "~" H 9200 7250 50  0001 C CNN
F 4 "DMN2041L-7" H 9200 7250 50  0001 C CNN "mpn"
F 5 "DMN2041L-7DICT-ND" H 9200 7250 50  0001 C CNN "digikey"
	1    9200 7250
	1    0    0    -1  
$EndComp
Wire Wire Line
	9000 7250 8850 7250
Connection ~ 8850 7250
Wire Wire Line
	8850 7550 8850 7650
Connection ~ 8850 7650
Wire Wire Line
	8850 7650 9300 7650
Wire Wire Line
	9300 7450 9300 7650
Connection ~ 9300 7650
Text Label 10950 7000 0    50   ~ 0
Output_5_NC
Text Label 10950 7400 0    50   ~ 0
Output_5_NO
Text Label 10950 7200 0    50   ~ 0
Output_5_C
Wire Wire Line
	10800 7000 10950 7000
Wire Wire Line
	10800 7400 10950 7400
$Comp
L relay1:1462042-8 K2
U 1 1 5DDAB6D5
P 10400 7200
F 0 "K2" H 10450 7667 50  0000 C CNN
F 1 "1462042-8" H 10450 7576 50  0000 C CNN
F 2 "1462042-8:RELAY_1462042-8" H 10400 7200 50  0001 L BNN
F 3 "None" H 10400 7200 50  0001 L BNN
F 4 "TE Connectivity" H 10400 7200 50  0001 L BNN "Field4"
F 5 "1462042-8" H 10400 7200 50  0001 L BNN "Field5"
F 6 "https://www.te.com/usa-en/product-1462042-8.html?te_bu=Cor&te_type=disp&te_campaign=seda_glo_cor-seda-global-disp-prtnr-fy19-seda-model-bom-cta_sma-317_1&elqCampaignId=32493" H 10400 7200 50  0001 L BNN "Field6"
F 7 "Signal Relay 5VDC 2A SPDT __ 10mm 7.5mm 5.65mm__ Surface Mount Automotive" H 10400 7200 50  0001 L BNN "Field7"
F 8 "PB1249CT-ND" H 10400 7200 50  0001 L BNN "Field8"
F 9 "Compliant" H 10400 7200 50  0001 L BNN "Field9"
F 10 "1462042-8" H 10400 7200 50  0001 L BNN "Field10"
F 11 "https://www.digikey.no/product-detail/en/te-connectivity-potter-brumfield-relays/1462042-8/PB1249CT-ND/2126955?utm_source=snapeda&utm_medium=aggregator&utm_campaign=symbol" H 10400 7200 50  0001 L BNN "Field11"
	1    10400 7200
	1    0    0    -1  
$EndComp
Wire Wire Line
	10100 6600 10100 7000
Wire Wire Line
	10100 7400 10000 7400
Wire Wire Line
	10000 7400 10000 7050
Wire Wire Line
	9300 7050 10000 7050
Wire Wire Line
	10800 7200 10950 7200
$Comp
L power:GND #PWR043
U 1 1 5DDCE3C1
P 9300 9050
F 0 "#PWR043" H 9300 8800 50  0001 C CNN
F 1 "GND" H 9305 8877 50  0000 C CNN
F 2 "" H 9300 9050 50  0001 C CNN
F 3 "" H 9300 9050 50  0001 C CNN
	1    9300 9050
	1    0    0    -1  
$EndComp
$Comp
L Device:R R30
U 1 1 5DDCE3C7
P 8850 8800
F 0 "R30" H 8920 8846 50  0000 L CNN
F 1 "10k" H 8920 8755 50  0000 L CNN
F 2 "IPC-7351-RESC:RESC_1005x015" V 8780 8800 50  0001 C CNN
F 3 "~" H 8850 8800 50  0001 C CNN
	1    8850 8800
	1    0    0    -1  
$EndComp
$Comp
L Device:R R27
U 1 1 5DDCE3CE
P 8700 9050
F 0 "R27" V 8493 9050 50  0000 C CNN
F 1 "270" V 8584 9050 50  0000 C CNN
F 2 "IPC-7351-RESC:RESC_1005x015" V 8630 9050 50  0001 C CNN
F 3 "~" H 8700 9050 50  0001 C CNN
	1    8700 9050
	0    1    1    0   
$EndComp
$Comp
L Device:LED D11
U 1 1 5DDCE3D5
P 8450 8800
F 0 "D11" V 8500 8950 50  0000 R CNN
F 1 "LED" V 8400 9000 50  0000 R CNN
F 2 "IPC-7351-LEDSC:LEDSC_1608x020" H 8450 8800 50  0001 C CNN
F 3 "~" H 8450 8800 50  0001 C CNN
	1    8450 8800
	0    -1   -1   0   
$EndComp
Wire Wire Line
	8450 8950 8450 9050
Wire Wire Line
	8450 9050 8550 9050
Text Label 7850 8650 0    50   ~ 0
Switch_6
Wire Wire Line
	7850 8650 8450 8650
Wire Wire Line
	8450 8650 8850 8650
Connection ~ 8450 8650
$Comp
L Device:Q_NMOS_GSD Q3
U 1 1 5DDCE3E2
P 9200 8650
F 0 "Q3" H 9405 8696 50  0000 L CNN
F 1 "DMN2041L-7" H 9405 8605 50  0000 L CNN
F 2 "Package_TO_SOT_SMD:SOT-23" H 9400 8750 50  0001 C CNN
F 3 "~" H 9200 8650 50  0001 C CNN
F 4 "DMN2041L-7" H 9200 8650 50  0001 C CNN "mpn"
F 5 "DMN2041L-7DICT-ND" H 9200 8650 50  0001 C CNN "digikey"
	1    9200 8650
	1    0    0    -1  
$EndComp
Wire Wire Line
	9000 8650 8850 8650
Connection ~ 8850 8650
Wire Wire Line
	8850 8950 8850 9050
Connection ~ 8850 9050
Wire Wire Line
	8850 9050 9300 9050
Wire Wire Line
	9300 8850 9300 9050
Connection ~ 9300 9050
Text Label 10950 8400 0    50   ~ 0
Output_6_NC
Text Label 10950 8800 0    50   ~ 0
Output_6_NO
Text Label 10950 8600 0    50   ~ 0
Output_6_C
Wire Wire Line
	10800 8400 10950 8400
Wire Wire Line
	10800 8800 10950 8800
$Comp
L relay1:1462042-8 K3
U 1 1 5DDCE403
P 10400 8600
F 0 "K3" H 10450 9067 50  0000 C CNN
F 1 "1462042-8" H 10450 8976 50  0000 C CNN
F 2 "1462042-8:RELAY_1462042-8" H 10400 8600 50  0001 L BNN
F 3 "None" H 10400 8600 50  0001 L BNN
F 4 "TE Connectivity" H 10400 8600 50  0001 L BNN "Field4"
F 5 "1462042-8" H 10400 8600 50  0001 L BNN "Field5"
F 6 "https://www.te.com/usa-en/product-1462042-8.html?te_bu=Cor&te_type=disp&te_campaign=seda_glo_cor-seda-global-disp-prtnr-fy19-seda-model-bom-cta_sma-317_1&elqCampaignId=32493" H 10400 8600 50  0001 L BNN "Field6"
F 7 "Signal Relay 5VDC 2A SPDT __ 10mm 7.5mm 5.65mm__ Surface Mount Automotive" H 10400 8600 50  0001 L BNN "Field7"
F 8 "PB1249CT-ND" H 10400 8600 50  0001 L BNN "Field8"
F 9 "Compliant" H 10400 8600 50  0001 L BNN "Field9"
F 10 "1462042-8" H 10400 8600 50  0001 L BNN "Field10"
F 11 "https://www.digikey.no/product-detail/en/te-connectivity-potter-brumfield-relays/1462042-8/PB1249CT-ND/2126955?utm_source=snapeda&utm_medium=aggregator&utm_campaign=symbol" H 10400 8600 50  0001 L BNN "Field11"
	1    10400 8600
	1    0    0    -1  
$EndComp
Wire Wire Line
	10100 8000 10100 8400
Wire Wire Line
	10100 8800 10000 8800
Wire Wire Line
	10000 8800 10000 8450
Wire Wire Line
	9300 8450 10000 8450
Wire Wire Line
	10800 8600 10950 8600
$Comp
L Mechanical:MountingHole H1
U 1 1 5D9D48DE
P 11100 10100
F 0 "H1" H 11200 10146 50  0000 L CNN
F 1 "MountingHole" H 11200 10055 50  0000 L CNN
F 2 "MountingHole:MountingHole_2.5mm" H 11100 10100 50  0001 C CNN
F 3 "~" H 11100 10100 50  0001 C CNN
	1    11100 10100
	1    0    0    -1  
$EndComp
$Comp
L Mechanical:MountingHole H2
U 1 1 5D9D4A43
P 11100 10400
F 0 "H2" H 11200 10446 50  0000 L CNN
F 1 "MountingHole" H 11200 10355 50  0000 L CNN
F 2 "MountingHole:MountingHole_2.5mm" H 11100 10400 50  0001 C CNN
F 3 "~" H 11100 10400 50  0001 C CNN
	1    11100 10400
	1    0    0    -1  
$EndComp
$Comp
L Mechanical:MountingHole H3
U 1 1 5D9D4BA3
P 11100 10700
F 0 "H3" H 11200 10746 50  0000 L CNN
F 1 "MountingHole" H 11200 10655 50  0000 L CNN
F 2 "MountingHole:MountingHole_2.5mm" H 11100 10700 50  0001 C CNN
F 3 "~" H 11100 10700 50  0001 C CNN
	1    11100 10700
	1    0    0    -1  
$EndComp
$Comp
L Mechanical:MountingHole H4
U 1 1 5D9D4D06
P 11100 11000
F 0 "H4" H 11200 11046 50  0000 L CNN
F 1 "MountingHole" H 11200 10955 50  0000 L CNN
F 2 "MountingHole:MountingHole_2.5mm" H 11100 11000 50  0001 C CNN
F 3 "~" H 11100 11000 50  0001 C CNN
	1    11100 11000
	1    0    0    -1  
$EndComp
$Comp
L LM317DCYR:LM317DCYR U9
U 1 1 5D90E22F
P 6400 9800
F 0 "U9" H 6400 10042 50  0000 C CNN
F 1 "LM317_TO39" H 6400 9951 50  0000 C CNN
F 2 "LM317DCYR:SOT230P700X180-4N" H 6400 10025 50  0001 C CIN
F 3 "http://www.ti.com/lit/ds/symlink/lm317.pdf" H 6400 9800 50  0001 C CNN
F 4 "LM317DCYR" H 6400 9800 50  0001 C CNN "mpn"
F 5 "296-12602-1-ND" H 6400 9800 50  0001 C CNN "digikey"
	1    6400 9800
	1    0    0    -1  
$EndComp
$Comp
L power:GND #PWR064
U 1 1 5D90E667
P 7000 10900
F 0 "#PWR064" H 7000 10650 50  0001 C CNN
F 1 "GND" H 7005 10727 50  0000 C CNN
F 2 "" H 7000 10900 50  0001 C CNN
F 3 "" H 7000 10900 50  0001 C CNN
	1    7000 10900
	1    0    0    -1  
$EndComp
$Comp
L Device:C C1
U 1 1 5D90E920
P 5000 10500
F 0 "C1" H 5115 10546 50  0000 L CNN
F 1 "0.1uF" H 5115 10455 50  0000 L CNN
F 2 "IPC-7351-CAPC:CAPC_1005x015" H 5038 10350 50  0001 C CNN
F 3 "~" H 5000 10500 50  0001 C CNN
	1    5000 10500
	1    0    0    -1  
$EndComp
$Comp
L power:+12V #PWR063
U 1 1 5D90EC42
P 5000 9700
F 0 "#PWR063" H 5000 9550 50  0001 C CNN
F 1 "+12V" H 5015 9873 50  0000 C CNN
F 2 "" H 5000 9700 50  0001 C CNN
F 3 "" H 5000 9700 50  0001 C CNN
	1    5000 9700
	1    0    0    -1  
$EndComp
Wire Wire Line
	5000 9700 5000 9800
Wire Wire Line
	5000 10650 5000 10900
$Comp
L Device:R R40
U 1 1 5D981DAE
P 7400 10600
F 0 "R40" H 7470 10646 50  0000 L CNN
F 1 "680" H 7470 10555 50  0000 L CNN
F 2 "IPC-7351-RESC:RESC_1005x015" V 7330 10600 50  0001 C CNN
F 3 "~" H 7400 10600 50  0001 C CNN
	1    7400 10600
	1    0    0    -1  
$EndComp
$Comp
L Device:R R39
U 1 1 5D981F3B
P 7400 10100
F 0 "R39" H 7470 10146 50  0000 L CNN
F 1 "220" H 7470 10055 50  0000 L CNN
F 2 "IPC-7351-RESC:RESC_1005x015" V 7330 10100 50  0001 C CNN
F 3 "~" H 7400 10100 50  0001 C CNN
	1    7400 10100
	1    0    0    -1  
$EndComp
Wire Wire Line
	7400 10750 7400 10900
Wire Wire Line
	7400 10900 7000 10900
Connection ~ 7000 10900
Wire Wire Line
	7200 9900 7400 9900
$Comp
L power:+5V #PWR067
U 1 1 5DA202F2
P 7700 9700
F 0 "#PWR067" H 7700 9550 50  0001 C CNN
F 1 "+5V" H 7715 9873 50  0000 C CNN
F 2 "" H 7700 9700 50  0001 C CNN
F 3 "" H 7700 9700 50  0001 C CNN
	1    7700 9700
	1    0    0    -1  
$EndComp
Wire Wire Line
	7400 9950 7400 9900
Connection ~ 7400 9900
$Comp
L Device:C C2
U 1 1 5DA711B1
P 7700 10500
F 0 "C2" H 7815 10546 50  0000 L CNN
F 1 "1uF" H 7815 10455 50  0000 L CNN
F 2 "IPC-7351-CAPC:CAPC_1005x015" H 7738 10350 50  0001 C CNN
F 3 "~" H 7700 10500 50  0001 C CNN
	1    7700 10500
	1    0    0    -1  
$EndComp
Wire Wire Line
	7700 10650 7700 10900
Wire Wire Line
	7700 10900 7400 10900
Connection ~ 7400 10900
Wire Wire Line
	7700 10350 7700 9900
Wire Wire Line
	7700 9700 7700 9900
Connection ~ 7700 9900
Wire Wire Line
	7400 9900 7700 9900
Text Notes 8000 9900 0    50   ~ 0
Vout = 1.25 x (1 + R40 / R39)
Text Notes 7800 10100 0    50   ~ 0
5.11 Vout = 1.25 x (1 + 680 / 220)
$Comp
L power:+5V #PWR0102
U 1 1 5DB1E30E
P 10500 700
F 0 "#PWR0102" H 10500 550 50  0001 C CNN
F 1 "+5V" H 10515 873 50  0000 C CNN
F 2 "" H 10500 700 50  0001 C CNN
F 3 "" H 10500 700 50  0001 C CNN
	1    10500 700 
	1    0    0    -1  
$EndComp
$Comp
L power:+5V #PWR0103
U 1 1 5DB1E63A
P 10600 2200
F 0 "#PWR0103" H 10600 2050 50  0001 C CNN
F 1 "+5V" H 10615 2373 50  0000 C CNN
F 2 "" H 10600 2200 50  0001 C CNN
F 3 "" H 10600 2200 50  0001 C CNN
	1    10600 2200
	1    0    0    -1  
$EndComp
$Comp
L power:+5V #PWR0104
U 1 1 5DB1F281
P 10600 3600
F 0 "#PWR0104" H 10600 3450 50  0001 C CNN
F 1 "+5V" H 10615 3773 50  0000 C CNN
F 2 "" H 10600 3600 50  0001 C CNN
F 3 "" H 10600 3600 50  0001 C CNN
	1    10600 3600
	1    0    0    -1  
$EndComp
$Comp
L power:+5V #PWR0105
U 1 1 5DB1FD0C
P 10600 5000
F 0 "#PWR0105" H 10600 4850 50  0001 C CNN
F 1 "+5V" H 10615 5173 50  0000 C CNN
F 2 "" H 10600 5000 50  0001 C CNN
F 3 "" H 10600 5000 50  0001 C CNN
	1    10600 5000
	1    0    0    -1  
$EndComp
$Comp
L power:+5V #PWR0106
U 1 1 5DB20A31
P 10100 6600
F 0 "#PWR0106" H 10100 6450 50  0001 C CNN
F 1 "+5V" H 10115 6773 50  0000 C CNN
F 2 "" H 10100 6600 50  0001 C CNN
F 3 "" H 10100 6600 50  0001 C CNN
	1    10100 6600
	1    0    0    -1  
$EndComp
$Comp
L power:+5V #PWR0107
U 1 1 5DB20C10
P 10100 8000
F 0 "#PWR0107" H 10100 7850 50  0001 C CNN
F 1 "+5V" H 10115 8173 50  0000 C CNN
F 2 "" H 10100 8000 50  0001 C CNN
F 3 "" H 10100 8000 50  0001 C CNN
	1    10100 8000
	1    0    0    -1  
$EndComp
$Comp
L Connector:TestPoint TP1
U 1 1 5DB2398E
P 15300 7800
F 0 "TP1" H 15358 7920 50  0000 L CNN
F 1 "TestPoint" H 15358 7829 50  0000 L CNN
F 2 "TestPoint:TestPoint_Pad_D1.0mm" H 15500 7800 50  0001 C CNN
F 3 "~" H 15500 7800 50  0001 C CNN
	1    15300 7800
	1    0    0    -1  
$EndComp
$Comp
L power:GND #PWR046
U 1 1 5DB23B5F
P 15300 8000
F 0 "#PWR046" H 15300 7750 50  0001 C CNN
F 1 "GND" H 15305 7827 50  0000 C CNN
F 2 "" H 15300 8000 50  0001 C CNN
F 3 "" H 15300 8000 50  0001 C CNN
	1    15300 8000
	1    0    0    -1  
$EndComp
Wire Wire Line
	15300 8000 15300 7800
$Comp
L 1N4148X-TP:1N4148X-TP D4
U 1 1 5D9C8ECF
P 2900 1600
F 0 "D4" V 2946 1680 50  0000 L CNN
F 1 "1N4148X-TP" V 2855 1680 50  0000 L CNN
F 2 "1N4148X-TP:SODFL16080X77N" H 2900 1600 50  0001 L BNN
F 3 "Micro Commercial" H 2900 1600 50  0001 L BNN
F 4 "SOD-523 MCC" H 2900 1600 50  0001 L BNN "Field4"
F 5 "1N4148X Series 100 V 300 mA 4 ns SMT High Speed Switching Diode - SOD-523" H 2900 1600 50  0001 L BNN "Field5"
F 6 "1N4148XTPMSCT-ND" H 2900 1600 50  0001 L BNN "Field6"
F 7 "1N4148X-TP" H 2900 1600 50  0001 L BNN "Field7"
F 8 "https://www.digikey.no/product-detail/en/micro-commercial-co/1N4148X-TP/1N4148XTPMSCT-ND/789335?utm_source=snapeda&utm_medium=aggregator&utm_campaign=symbol" H 2900 1600 50  0001 L BNN "Field8"
	1    2900 1600
	0    -1   -1   0   
$EndComp
Connection ~ 2900 1800
Wire Wire Line
	2900 1800 2900 2100
Wire Wire Line
	2000 1800 2900 1800
Wire Wire Line
	2900 1800 3000 1800
Wire Wire Line
	3000 1600 3000 1800
$Comp
L 1N4148X-TP:1N4148X-TP D20
U 1 1 5DAC3CDE
P 6000 1600
F 0 "D20" V 6046 1680 50  0000 L CNN
F 1 "1N4148X-TP" V 5955 1680 50  0000 L CNN
F 2 "1N4148X-TP:SODFL16080X77N" H 6000 1600 50  0001 L BNN
F 3 "Micro Commercial" H 6000 1600 50  0001 L BNN
F 4 "SOD-523 MCC" H 6000 1600 50  0001 L BNN "Field4"
F 5 "1N4148X Series 100 V 300 mA 4 ns SMT High Speed Switching Diode - SOD-523" H 6000 1600 50  0001 L BNN "Field5"
F 6 "1N4148XTPMSCT-ND" H 6000 1600 50  0001 L BNN "Field6"
F 7 "1N4148X-TP" H 6000 1600 50  0001 L BNN "Field7"
F 8 "https://www.digikey.no/product-detail/en/micro-commercial-co/1N4148X-TP/1N4148XTPMSCT-ND/789335?utm_source=snapeda&utm_medium=aggregator&utm_campaign=symbol" H 6000 1600 50  0001 L BNN "Field8"
	1    6000 1600
	0    -1   -1   0   
$EndComp
Wire Wire Line
	6000 1800 6000 2100
Wire Wire Line
	5100 1800 6000 1800
Connection ~ 6000 1800
Wire Wire Line
	6000 1800 6100 1800
Wire Wire Line
	6100 1600 6100 1800
$Comp
L 1N4148X-TP:1N4148X-TP D1
U 1 1 5DB9416F
P 2300 3800
F 0 "D1" V 2346 3880 50  0000 L CNN
F 1 "1N4148X-TP" V 2255 3880 50  0000 L CNN
F 2 "1N4148X-TP:SODFL16080X77N" H 2300 3800 50  0001 L BNN
F 3 "Micro Commercial" H 2300 3800 50  0001 L BNN
F 4 "SOD-523 MCC" H 2300 3800 50  0001 L BNN "Field4"
F 5 "1N4148X Series 100 V 300 mA 4 ns SMT High Speed Switching Diode - SOD-523" H 2300 3800 50  0001 L BNN "Field5"
F 6 "1N4148XTPMSCT-ND" H 2300 3800 50  0001 L BNN "Field6"
F 7 "1N4148X-TP" H 2300 3800 50  0001 L BNN "Field7"
F 8 "https://www.digikey.no/product-detail/en/micro-commercial-co/1N4148X-TP/1N4148XTPMSCT-ND/789335?utm_source=snapeda&utm_medium=aggregator&utm_campaign=symbol" H 2300 3800 50  0001 L BNN "Field8"
	1    2300 3800
	0    -1   -1   0   
$EndComp
Wire Wire Line
	1400 4000 2300 4000
Connection ~ 2300 4000
Wire Wire Line
	2300 4000 2400 4000
Wire Wire Line
	2400 3800 2400 4000
$Comp
L 1N4148X-TP:1N4148X-TP D19
U 1 1 5DC3B0CC
P 5600 3800
F 0 "D19" V 5646 3880 50  0000 L CNN
F 1 "1N4148X-TP" V 5555 3880 50  0000 L CNN
F 2 "1N4148X-TP:SODFL16080X77N" H 5600 3800 50  0001 L BNN
F 3 "Micro Commercial" H 5600 3800 50  0001 L BNN
F 4 "SOD-523 MCC" H 5600 3800 50  0001 L BNN "Field4"
F 5 "1N4148X Series 100 V 300 mA 4 ns SMT High Speed Switching Diode - SOD-523" H 5600 3800 50  0001 L BNN "Field5"
F 6 "1N4148XTPMSCT-ND" H 5600 3800 50  0001 L BNN "Field6"
F 7 "1N4148X-TP" H 5600 3800 50  0001 L BNN "Field7"
F 8 "https://www.digikey.no/product-detail/en/micro-commercial-co/1N4148X-TP/1N4148XTPMSCT-ND/789335?utm_source=snapeda&utm_medium=aggregator&utm_campaign=symbol" H 5600 3800 50  0001 L BNN "Field8"
	1    5600 3800
	0    -1   -1   0   
$EndComp
Wire Wire Line
	4700 4000 5600 4000
Connection ~ 5600 4000
Wire Wire Line
	5600 4000 5700 4000
Wire Wire Line
	5700 3800 5700 4000
$Comp
L 1N4148X-TP:1N4148X-TP D5
U 1 1 5DCE30A1
P 2900 5900
F 0 "D5" V 2946 5980 50  0000 L CNN
F 1 "1N4148X-TP" V 2855 5980 50  0000 L CNN
F 2 "1N4148X-TP:SODFL16080X77N" H 2900 5900 50  0001 L BNN
F 3 "Micro Commercial" H 2900 5900 50  0001 L BNN
F 4 "SOD-523 MCC" H 2900 5900 50  0001 L BNN "Field4"
F 5 "1N4148X Series 100 V 300 mA 4 ns SMT High Speed Switching Diode - SOD-523" H 2900 5900 50  0001 L BNN "Field5"
F 6 "1N4148XTPMSCT-ND" H 2900 5900 50  0001 L BNN "Field6"
F 7 "1N4148X-TP" H 2900 5900 50  0001 L BNN "Field7"
F 8 "https://www.digikey.no/product-detail/en/micro-commercial-co/1N4148X-TP/1N4148XTPMSCT-ND/789335?utm_source=snapeda&utm_medium=aggregator&utm_campaign=symbol" H 2900 5900 50  0001 L BNN "Field8"
	1    2900 5900
	0    -1   -1   0   
$EndComp
Wire Wire Line
	2000 6100 2900 6100
Connection ~ 2900 6100
Wire Wire Line
	2900 6100 3000 6100
Wire Wire Line
	3000 5900 3000 6100
$Comp
L 1N4148X-TP:1N4148X-TP D21
U 1 1 5DD8AEB1
P 6000 5900
F 0 "D21" V 6046 5980 50  0000 L CNN
F 1 "1N4148X-TP" V 5955 5980 50  0000 L CNN
F 2 "1N4148X-TP:SODFL16080X77N" H 6000 5900 50  0001 L BNN
F 3 "Micro Commercial" H 6000 5900 50  0001 L BNN
F 4 "SOD-523 MCC" H 6000 5900 50  0001 L BNN "Field4"
F 5 "1N4148X Series 100 V 300 mA 4 ns SMT High Speed Switching Diode - SOD-523" H 6000 5900 50  0001 L BNN "Field5"
F 6 "1N4148XTPMSCT-ND" H 6000 5900 50  0001 L BNN "Field6"
F 7 "1N4148X-TP" H 6000 5900 50  0001 L BNN "Field7"
F 8 "https://www.digikey.no/product-detail/en/micro-commercial-co/1N4148X-TP/1N4148XTPMSCT-ND/789335?utm_source=snapeda&utm_medium=aggregator&utm_campaign=symbol" H 6000 5900 50  0001 L BNN "Field8"
	1    6000 5900
	0    -1   -1   0   
$EndComp
Wire Wire Line
	5100 6100 6000 6100
Connection ~ 6000 6100
Wire Wire Line
	6000 6100 6100 6100
Wire Wire Line
	6100 5900 6100 6100
$Comp
L 1N4148X-TP:1N4148X-TP D6
U 1 1 5DEE2A5F
P 2900 10200
F 0 "D6" V 2946 10280 50  0000 L CNN
F 1 "1N4148X-TP" V 2855 10280 50  0000 L CNN
F 2 "1N4148X-TP:SODFL16080X77N" H 2900 10200 50  0001 L BNN
F 3 "Micro Commercial" H 2900 10200 50  0001 L BNN
F 4 "SOD-523 MCC" H 2900 10200 50  0001 L BNN "Field4"
F 5 "1N4148X Series 100 V 300 mA 4 ns SMT High Speed Switching Diode - SOD-523" H 2900 10200 50  0001 L BNN "Field5"
F 6 "1N4148XTPMSCT-ND" H 2900 10200 50  0001 L BNN "Field6"
F 7 "1N4148X-TP" H 2900 10200 50  0001 L BNN "Field7"
F 8 "https://www.digikey.no/product-detail/en/micro-commercial-co/1N4148X-TP/1N4148XTPMSCT-ND/789335?utm_source=snapeda&utm_medium=aggregator&utm_campaign=symbol" H 2900 10200 50  0001 L BNN "Field8"
	1    2900 10200
	0    -1   -1   0   
$EndComp
Wire Wire Line
	2000 10400 2900 10400
Connection ~ 2900 10400
Wire Wire Line
	2900 10400 3000 10400
Wire Wire Line
	3000 10200 3000 10400
$Comp
L Device:R R2
U 1 1 5DCBE9F4
P 2100 7350
F 0 "R2" H 2170 7396 50  0000 L CNN
F 1 "1k" H 2170 7305 50  0000 L CNN
F 2 "IPC-7351-RESC:RESC_1005x015" V 2030 7350 50  0001 C CNN
F 3 "~" H 2100 7350 50  0001 C CNN
	1    2100 7350
	1    0    0    -1  
$EndComp
$Comp
L Device:Jumper_NO_Small JP3
U 1 1 5DCBEA2C
P 2100 7700
F 0 "JP3" V 2100 7652 50  0000 R CNN
F 1 "Jumper_NO_Small" V 2000 7000 50  0001 L CNN
F 2 "Jumper:SolderJumper-2_P1.3mm_Open_Pad1.0x1.5mm" H 2100 7700 50  0001 C CNN
F 3 "~" H 2100 7700 50  0001 C CNN
	1    2100 7700
	0    -1   -1   0   
$EndComp
Wire Wire Line
	2100 7100 2100 7200
Wire Wire Line
	2100 7500 2100 7600
$Comp
L unlockoslo:Vin #PWR03
U 1 1 5DCBEA20
P 2100 7100
F 0 "#PWR03" H 2100 6950 50  0001 C CNN
F 1 "Vin" H 2115 7273 50  0000 C CNN
F 2 "" H 2100 7100 50  0001 C CNN
F 3 "" H 2100 7100 50  0001 C CNN
	1    2100 7100
	1    0    0    -1  
$EndComp
Wire Wire Line
	1400 7900 2100 7900
Connection ~ 2100 7900
$Comp
L Device:Jumper_NO_Small JP4
U 1 1 5DCBEA26
P 2100 8500
F 0 "JP4" V 2100 8548 50  0000 L CNN
F 1 "Jumper_NO_Small" V 2200 7800 50  0001 L CNN
F 2 "Jumper:SolderJumper-2_P1.3mm_Open_Pad1.0x1.5mm" H 2100 8500 50  0001 C CNN
F 3 "~" H 2100 8500 50  0001 C CNN
	1    2100 8500
	0    1    1    0   
$EndComp
Connection ~ 2100 8300
Wire Wire Line
	1400 8300 2100 8300
Wire Wire Line
	2100 8300 2100 8400
Wire Wire Line
	2100 8600 2100 8700
$Comp
L power:GND #PWR04
U 1 1 5DCBE9E8
P 2100 8700
F 0 "#PWR04" H 2100 8450 50  0001 C CNN
F 1 "GND" H 2105 8527 50  0000 C CNN
F 2 "" H 2100 8700 50  0001 C CNN
F 3 "" H 2100 8700 50  0001 C CNN
	1    2100 8700
	1    0    0    -1  
$EndComp
Wire Wire Line
	2500 8200 2400 8200
Wire Wire Line
	2100 8300 2400 8300
Wire Wire Line
	2400 8200 2400 8300
Wire Wire Line
	3400 8000 3400 8100
Wire Wire Line
	2100 7900 2400 7900
Wire Wire Line
	2400 7900 2400 8000
Wire Wire Line
	2400 8000 2500 8000
Wire Wire Line
	3200 8200 3200 8300
Wire Wire Line
	2100 7800 2100 7900
$Comp
L TB001-500-10BE:TB001-500-10BE J5
U 1 1 5D8CAAA2
P 11800 8100
F 0 "J5" H 11695 8867 50  0000 C CNN
F 1 "Outputs-1" H 11695 8776 50  0000 C CNN
F 2 "TB001-500-10BE:CUI_TB001-500-10BE" H 11800 8100 50  0001 L BNN
F 3 "CUI" H 11800 8100 50  0001 L BNN
F 4 "Manufacturer Recommendations" H 11800 8100 50  0001 L BNN "Field4"
F 5 "102-6142-ND" H 11800 8100 50  0001 C CNN "digikey"
F 6 "TB001-500-10BE" H 11800 8100 50  0001 C CNN "mpn"
	1    11800 8100
	-1   0    0    -1  
$EndComp
$Comp
L TB001-500-10BE:TB001-500-10BE J6
U 1 1 5D8CACFA
P 11800 9100
F 0 "J6" H 12030 9196 50  0000 L CNN
F 1 "Outputs-2" H 12030 9105 50  0000 L CNN
F 2 "TB001-500-10BE:CUI_TB001-500-10BE" H 11800 9100 50  0001 L BNN
F 3 "CUI" H 11800 9100 50  0001 L BNN
F 4 "Manufacturer Recommendations" H 11800 9100 50  0001 L BNN "Field4"
F 5 "102-6142-ND" H 11800 9100 50  0001 C CNN "digikey"
F 6 "TB001-500-10BE" H 11800 9100 50  0001 C CNN "mpn"
	1    11800 9100
	-1   0    0    -1  
$EndComp
$Comp
L 1N4148X-TP:1N4148X-TP D2
U 1 1 5DC59CDF
P 2100 8100
F 0 "D2" V 2146 8180 50  0000 L CNN
F 1 "1N4148X-TP" V 2055 8180 50  0000 L CNN
F 2 "1N4148X-TP:SODFL16080X77N" H 2100 8100 50  0001 L BNN
F 3 "Micro Commercial" H 2100 8100 50  0001 L BNN
F 4 "SOD-523 MCC" H 2100 8100 50  0001 L BNN "Field4"
F 5 "1N4148X Series 100 V 300 mA 4 ns SMT High Speed Switching Diode - SOD-523" H 2100 8100 50  0001 L BNN "Field5"
F 6 "1N4148XTPMSCT-ND" H 2100 8100 50  0001 L BNN "Field6"
F 7 "1N4148X-TP" H 2100 8100 50  0001 L BNN "Field7"
F 8 "https://www.digikey.no/product-detail/en/micro-commercial-co/1N4148X-TP/1N4148XTPMSCT-ND/789335?utm_source=snapeda&utm_medium=aggregator&utm_campaign=symbol" H 2100 8100 50  0001 L BNN "Field8"
	1    2100 8100
	0    -1   -1   0   
$EndComp
Wire Wire Line
	5600 10100 5600 10400
Wire Wire Line
	5600 10400 7400 10400
Connection ~ 7400 10400
Wire Wire Line
	7400 10400 7400 10450
Wire Wire Line
	7400 10250 7400 10400
NoConn ~ 7200 10000
Wire Wire Line
	5000 10900 7000 10900
Wire Wire Line
	5600 9800 5000 9800
Connection ~ 5000 9800
Wire Wire Line
	5000 9800 5000 10350
$EndSCHEMATC
