PCBNEW-LibModule-V1  
# encoding utf-8
Units mm
$INDEX
RELAY_1462042-8
$EndINDEX
$MODULE RELAY_1462042-8
Po 0 0 0 15 00000000 00000000 ~~
Li RELAY_1462042-8
Cd 
Sc 00000000
At SMD
Op 0 0 0
.SolderMask 0
.SolderPaste 0
T0 -1.62311 -5.52061 1.00192 1.00192 0 0.05 N V 21 "RELAY_1462042-8"
T1 -2.15565 6.03679 1.0003 1.0003 0 0.05 N V 21 "VAL**"
DS -5 -3 -5 3 0.127 21
DS 5 3 5 -3 0.127 21
DC -4 4.56 -3.8 4.56 0.4 21
DS -5 -3 -5 3 0.127 27
DS -5 3 5 3 0.127 27
DS 5 3 5 -3 0.127 27
DC -4 4.56 -3.8 4.56 0.4 27
DS 5 -3 -5 -3 0.127 27
DS -5.25 -4.25 -5.25 4.25 0.05 26
DS -5.25 4.25 5.25 4.25 0.05 26
DS 5.25 4.25 5.25 -4.25 0.05 26
DS 5.25 -4.25 -5.25 -4.25 0.05 26
DS -3.4 -3 -1.4 -3 0.127 21
DS -0.1 -3 2.9 -3 0.127 21
DS 4.2 -3 5 -3 0.127 21
DS -4.6 -3 -5 -3 0.127 21
DS -5 3 -4.6 3 0.127 21
DS -3.4 3 0.8 3 0.127 21
DS 2 3 5 3 0.127 21
$PAD
Sh "1" R 0.7 2 0 0 0
At SMD N 00888000
.SolderMask 0
.SolderPaste 0
Ne 0 ""
Po -4 3
$EndPAD
$PAD
Sh "8" R 0.7 2 0 0 0
At SMD N 00888000
.SolderMask 0
.SolderPaste 0
Ne 0 ""
Po -4 -3
$EndPAD
$PAD
Sh "7" R 0.7 2 0 0 0
At SMD N 00888000
.SolderMask 0
.SolderPaste 0
Ne 0 ""
Po -0.8 -3
$EndPAD
$PAD
Sh "5" R 0.7 2 0 0 0
At SMD N 00888000
.SolderMask 0
.SolderPaste 0
Ne 0 ""
Po 3.6 -3
$EndPAD
$PAD
Sh "3" R 0.7 2 0 0 0
At SMD N 00888000
.SolderMask 0
.SolderPaste 0
Ne 0 ""
Po 1.4 3
$EndPAD
$EndMODULE RELAY_1462042-8
