PCBNEW-LibModule-V1  
# encoding utf-8
Units mm
$INDEX
SODFL16080X77N
$EndINDEX
$MODULE SODFL16080X77N
Po 0 0 0 15 00000000 00000000 ~~
Li SODFL16080X77N
Cd 
Sc 00000000
At SMD
Op 0 0 0
.SolderMask 0
.SolderPaste 0
T0 -0.64143 -0.803691 0.240386 0.240386 0 0.05 N V 21 "SODFL16080X77N"
T1 -0.48839 0.898318 0.240192 0.240192 0 0.05 N V 21 "VAL**"
DS 0.6 0.43 0.6 -0.43 0.127 27
DS -0.6 0.43 -0.6 -0.43 0.127 27
DS -1.215 -0.58 1.215 -0.58 0.05 26
DS 1.215 -0.58 1.215 0.58 0.05 26
DS 1.215 0.58 -1.215 0.58 0.05 26
DS -1.215 0.58 -1.215 -0.58 0.05 26
DC -1.5 0 -1.375 0 0 21
$PAD
Sh "C" R 0.58 0.4 0 0 0
At SMD N 00888000
.SolderMask 0
.SolderPaste 0
Ne 0 ""
Po -0.77 0
$EndPAD
$PAD
Sh "A" R 0.58 0.4 0 0 0
At SMD N 00888000
.SolderMask 0
.SolderPaste 0
Ne 0 ""
Po 0.77 0
$EndPAD
$EndMODULE SODFL16080X77N
