PCBNEW-LibModule-V1  
# encoding utf-8
Units mm
$INDEX
SOT230P700X180-4N
$EndINDEX
$MODULE SOT230P700X180-4N
Po 0 0 0 15 00000000 00000000 ~~
Li SOT230P700X180-4N
Cd 
Sc 00000000
At SMD
Op 0 0 0
.SolderMask 0
.SolderPaste 0
T0 -0.63553 -4.60124 1.64137 1.64137 0 0.05 N V 21 "SOT230P700X180-4N"
T1 -0.508745 4.83315 1.64243 1.64243 0 0.05 N V 21 "VAL**"
DS -1.8542 -1.8796 -1.8542 -2.7432 0.1524 27
DS -1.8542 -2.7432 -3.6576 -2.7432 0.1524 27
DS -3.6576 -2.7432 -3.6576 -1.8796 0.1524 27
DS -3.6576 -1.8796 -1.8542 -1.8796 0.1524 27
DS -1.8542 0.4318 -1.8542 -0.4318 0.1524 27
DS -1.8542 -0.4318 -3.6576 -0.4318 0.1524 27
DS -3.6576 -0.4318 -3.6576 0.4318 0.1524 27
DS -3.6576 0.4318 -1.8542 0.4318 0.1524 27
DS -1.8542 2.7432 -1.8542 1.8796 0.1524 27
DS -1.8542 1.8796 -3.6576 1.8796 0.1524 27
DS -3.6576 1.8796 -3.6576 2.7432 0.1524 27
DS -3.6576 2.7432 -1.8542 2.7432 0.1524 27
DS 1.8542 -1.5748 1.8542 1.5748 0.1524 27
DS 1.8542 1.5748 3.6576 1.5748 0.1524 27
DS 3.6576 1.5748 3.6576 -1.6002 0.1524 27
DS 3.6576 -1.6002 1.8542 -1.5748 0.1524 27
DS -1.8542 3.3528 1.8542 3.3528 0.1524 27
DS 1.8542 3.3528 1.8542 -3.3528 0.1524 27
DS 1.8542 -3.3528 -1.8542 -3.3528 0.1524 27
DS -1.8542 -3.3528 -1.8542 3.3528 0.1524 27
DS -1.8542 3.3528 1.8542 3.3528 0.1524 21
DS 1.8542 3.3528 1.8542 -3.3528 0.1524 21
DS 1.8542 -3.3528 -1.8542 -3.3528 0.1524 21
DS -1.8542 -3.3528 -1.8542 3.3528 0.1524 21
$PAD
Sh "1" R 1.6256 0.889 0 0 0
At SMD N 00888000
.SolderMask 0
.SolderPaste 0
Ne 0 ""
Po -3.2004 -2.3114
$EndPAD
$PAD
Sh "2" R 1.6256 0.889 0 0 0
At SMD N 00888000
.SolderMask 0
.SolderPaste 0
Ne 0 ""
Po -3.2004 0
$EndPAD
$PAD
Sh "3" R 1.6256 0.889 0 0 0
At SMD N 00888000
.SolderMask 0
.SolderPaste 0
Ne 0 ""
Po -3.2004 2.3114
$EndPAD
$PAD
Sh "4" R 1.6256 3.175 0 0 0
At SMD N 00888000
.SolderMask 0
.SolderPaste 0
Ne 0 ""
Po 3.2004 0
$EndPAD
$EndMODULE SOT230P700X180-4N
