PCBNEW-LibModule-V1  
# encoding utf-8
Units mm
$INDEX
CUI_TB001-500-10BE
$EndINDEX
$MODULE CUI_TB001-500-10BE
Po 0 0 0 15 00000000 00000000 ~~
Li CUI_TB001-500-10BE
Cd 
Sc 00000000
At STD
Op 0 0 0
.SolderMask 0
.SolderPaste 0
T0 0.056 -6.889 1.4 1.4 0 0.05 N V 21 "CUI_TB001-500-10BE"
T1 0.945 5.361 1.4 1.4 0 0.05 N V 21 "VAL**"
DS -2.5 4 -2.5 -5 0.127 27
DS -2.5 -5 47.5 -5 0.127 27
DS 47.5 -5 47.5 4 0.127 27
DS 47.5 4 -2.5 4 0.127 27
DS -2.5 4 -2.5 -5 0.127 21
DS 47.5 -5 47.5 4 0.127 21
DS -2.5 -5 47.5 -5 0.127 21
DS 47.5 4 -2.5 4 0.127 21
DS -2.75 -5.25 47.75 -5.25 0.05 26
DS 47.75 4.25 -2.75 4.25 0.05 26
DS -2.75 4.25 -2.75 -5.25 0.05 26
DS 47.75 -5.25 47.75 4.25 0.05 26
DC 0 5 0.1 5 0.2 21
DC 0 5 0.1 5 0.2 27
$PAD
Sh "1" R 1.95 1.95 0 0 0
Dr 1.3 0 0
At STD N 00C0FFFF
.SolderMask 0
Ne 0 ""
Po 0 0
$EndPAD
$PAD
Sh "2" C 1.95 1.95 0 0 0
Dr 1.3 0 0
At STD N 00C0FFFF
.SolderMask 0
Ne 0 ""
Po 5 0
$EndPAD
$PAD
Sh "3" C 1.95 1.95 0 0 0
Dr 1.3 0 0
At STD N 00C0FFFF
.SolderMask 0
Ne 0 ""
Po 10 0
$EndPAD
$PAD
Sh "4" C 1.95 1.95 0 0 0
Dr 1.3 0 0
At STD N 00C0FFFF
.SolderMask 0
Ne 0 ""
Po 15 0
$EndPAD
$PAD
Sh "5" C 1.95 1.95 0 0 0
Dr 1.3 0 0
At STD N 00C0FFFF
.SolderMask 0
Ne 0 ""
Po 20 0
$EndPAD
$PAD
Sh "6" C 1.95 1.95 0 0 0
Dr 1.3 0 0
At STD N 00C0FFFF
.SolderMask 0
Ne 0 ""
Po 25 0
$EndPAD
$PAD
Sh "7" C 1.95 1.95 0 0 0
Dr 1.3 0 0
At STD N 00C0FFFF
.SolderMask 0
Ne 0 ""
Po 30 0
$EndPAD
$PAD
Sh "8" C 1.95 1.95 0 0 0
Dr 1.3 0 0
At STD N 00C0FFFF
.SolderMask 0
Ne 0 ""
Po 35 0
$EndPAD
$PAD
Sh "9" C 1.95 1.95 0 0 0
Dr 1.3 0 0
At STD N 00C0FFFF
.SolderMask 0
Ne 0 ""
Po 40 0
$EndPAD
$PAD
Sh "10" C 1.95 1.95 0 0 0
Dr 1.3 0 0
At STD N 00C0FFFF
.SolderMask 0
Ne 0 ""
Po 45 0
$EndPAD
$EndMODULE CUI_TB001-500-10BE
