(module TerminalBlock_Phoenix_PT-1,5-2-3.81-H_1x02_P3.81mm_Horizontal (layer F.Cu) (tedit 5DF3AD2C)
  (descr "Terminal Block Phoenix PT-1,5-2-3.5-H, 2 pins, pitch 3.5mm, size 7x7.6mm^2, drill diamater 1.2mm, pad diameter 2.4mm, see , script-generated using https://github.com/pointhi/kicad-footprint-generator/scripts/TerminalBlock_Phoenix")
  (tags "THT Terminal Block Phoenix PT-1,5-2-3.5-H pitch 3.5mm size 7x7.6mm^2 drill 1.2mm pad 2.4mm")
  (fp_text reference REF** (at 1.75 -4.16) (layer F.SilkS)
    (effects (font (size 1 1) (thickness 0.15)))
  )
  (fp_text value TerminalBlock_Phoenix_PT-1,5-2-3.81-H_1x02_P3.81mm_Horizontal (at 1.75 5.56) (layer F.Fab)
    (effects (font (size 1 1) (thickness 0.15)))
  )
  (fp_arc (start 0 0) (end 0 1.68) (angle -32) (layer F.SilkS) (width 0.12))
  (fp_arc (start 0 0) (end 1.425 0.891) (angle -64) (layer F.SilkS) (width 0.12))
  (fp_arc (start 0 0) (end 0.866 -1.44) (angle -63) (layer F.SilkS) (width 0.12))
  (fp_arc (start 0 0) (end -1.44 -0.866) (angle -63) (layer F.SilkS) (width 0.12))
  (fp_arc (start 0 0) (end -0.866 1.44) (angle -32) (layer F.SilkS) (width 0.12))
  (fp_circle (center 0 0) (end 1.5 0) (layer F.Fab) (width 0.1))
  (fp_circle (center 3.81 0) (end 5.31 0) (layer F.Fab) (width 0.1))
  (fp_circle (center 3.81 0) (end 5.49 0) (layer F.SilkS) (width 0.12))
  (fp_line (start -1.75 -3.1) (end 5.25 -3.1) (layer F.Fab) (width 0.1))
  (fp_line (start 5.25 -3.1) (end 5.25 4.5) (layer F.Fab) (width 0.1))
  (fp_line (start 5.25 4.5) (end -1.35 4.5) (layer F.Fab) (width 0.1))
  (fp_line (start -1.35 4.5) (end -1.75 4.1) (layer F.Fab) (width 0.1))
  (fp_line (start -1.75 4.1) (end -1.75 -3.1) (layer F.Fab) (width 0.1))
  (fp_line (start -1.75 4.1) (end 5.25 4.1) (layer F.Fab) (width 0.1))
  (fp_line (start -1.81 4.1) (end 5.31 4.1) (layer F.SilkS) (width 0.12))
  (fp_line (start -1.75 3) (end 5.25 3) (layer F.Fab) (width 0.1))
  (fp_line (start -1.81 3) (end 5.31 3) (layer F.SilkS) (width 0.12))
  (fp_line (start -1.81 -3.16) (end 5.31 -3.16) (layer F.SilkS) (width 0.12))
  (fp_line (start -1.81 4.56) (end 5.31 4.56) (layer F.SilkS) (width 0.12))
  (fp_line (start -1.81 -3.16) (end -1.81 4.56) (layer F.SilkS) (width 0.12))
  (fp_line (start 5.31 -3.16) (end 5.31 4.56) (layer F.SilkS) (width 0.12))
  (fp_line (start 1.138 -0.955) (end -0.955 1.138) (layer F.Fab) (width 0.1))
  (fp_line (start 0.955 -1.138) (end -1.138 0.955) (layer F.Fab) (width 0.1))
  (fp_line (start 4.938 -0.955) (end 2.846 1.138) (layer F.Fab) (width 0.1))
  (fp_line (start 4.755 -1.138) (end 2.663 0.955) (layer F.Fab) (width 0.1))
  (fp_line (start 5.075 -1.069) (end 4.946 -0.941) (layer F.SilkS) (width 0.12))
  (fp_line (start 2.825 1.181) (end 2.731 1.274) (layer F.SilkS) (width 0.12))
  (fp_line (start 4.87 -1.275) (end 4.776 -1.181) (layer F.SilkS) (width 0.12))
  (fp_line (start 2.655 0.941) (end 2.526 1.069) (layer F.SilkS) (width 0.12))
  (fp_line (start -2.05 4.16) (end -2.05 4.8) (layer F.SilkS) (width 0.12))
  (fp_line (start -2.05 4.8) (end -1.65 4.8) (layer F.SilkS) (width 0.12))
  (fp_line (start -2.25 -3.6) (end -2.25 5) (layer F.CrtYd) (width 0.05))
  (fp_line (start -2.25 5) (end 5.75 5) (layer F.CrtYd) (width 0.05))
  (fp_line (start 5.75 5) (end 5.75 -3.6) (layer F.CrtYd) (width 0.05))
  (fp_line (start 5.75 -3.6) (end -2.25 -3.6) (layer F.CrtYd) (width 0.05))
  (fp_text user %R (at 1.75 2.4) (layer F.Fab)
    (effects (font (size 1 1) (thickness 0.15)))
  )
  (pad 1 thru_hole rect (at 0 0) (size 2.4 2.4) (drill 1.2) (layers *.Cu *.Mask))
  (pad 2 thru_hole circle (at 3.81 0) (size 2.4 2.4) (drill 1.2) (layers *.Cu *.Mask))
  (model ${KISYS3DMOD}/TerminalBlock_Phoenix.3dshapes/TerminalBlock_Phoenix_PT-1,5-2-3.5-H_1x02_P3.50mm_Horizontal.wrl
    (at (xyz 0 0 0))
    (scale (xyz 1 1 1))
    (rotate (xyz 0 0 0))
  )
)
