EESchema Schematic File Version 4
LIBS:base-1.0-cache
EELAYER 30 0
EELAYER END
$Descr A2 23386 16535
encoding utf-8
Sheet 1 3
Title "Unlock Oslo v2"
Date "2019-04-15"
Rev ""
Comp ""
Comment1 ""
Comment2 ""
Comment3 ""
Comment4 ""
$EndDescr
Text Notes 150  -50  0    50   ~ 0
TODO:\n  * LED polarities\n* ORing\n  * Add valid LEDs. Note that they're biased against Vout.\n* Test points:\n  * Power in\n  * Important data signals\n* Connectors\n  * UEXT (x2?)\n\n
Text Notes 800  800  0    60   ~ 12
USB to UART interface
Text Notes 3700 850  2    50   ~ 0
Vin
$Comp
L Interface_Ethernet:LAN8720A U102
U 1 1 5D296D5F
P 4900 9600
F 0 "U102" H 5500 10900 50  0000 R CNN
F 1 "LAN8720A" H 5500 10800 50  0000 R CNN
F 2 "Package_DFN_QFN:QFN-24-1EP_4x4mm_P0.5mm_EP2.6x2.6mm_ThermalVias" H 4950 8550 50  0001 L CNN
F 3 "http://ww1.microchip.com/downloads/en/DeviceDoc/8720a.pdf" H 4700 8650 50  0001 C CNN
F 4 "LAN8720A-CP-TR" H 4900 9600 50  0001 C CNN "mpn"
	1    4900 9600
	-1   0    0    -1  
$EndComp
$Comp
L Device:C C104
U 1 1 5DBE189D
P 1900 10450
F 0 "C104" H 2015 10541 50  0000 L CNN
F 1 "1nF" H 2015 10450 50  0000 L CNN
F 2 "IPC-7351-CAPC:CAPC_4532x040" H 1938 10300 50  0001 C CNN
F 3 "~" H 1900 10450 50  0001 C CNN
F 4 "2kV" H 2015 10359 50  0000 L CNN "Voltage"
F 5 "C1812C102KGRACAUTO" H 1900 10450 50  0001 C CNN "mpn"
	1    1900 10450
	1    0    0    -1  
$EndComp
$Comp
L power:Earth #PWR0134
U 1 1 5DC0575A
P 1900 10700
F 0 "#PWR0134" H 1900 10450 50  0001 C CNN
F 1 "Earth" H 1900 10550 50  0001 C CNN
F 2 "" H 1900 10700 50  0001 C CNN
F 3 "~" H 1900 10700 50  0001 C CNN
	1    1900 10700
	1    0    0    -1  
$EndComp
Wire Wire Line
	1900 10600 1900 10700
$Sheet
S 1300 6000 1100 850 
U 5CD16E32
F0 "PoE" 50
F1 "poe.sch" 50
F2 "Vout" O R 2400 6100 50 
F3 "Vin_A1" I L 1300 6100 50 
F4 "Vin_A2" I L 1300 6200 50 
F5 "Vin_B1" I L 1300 6300 50 
F6 "Vin_B2" I L 1300 6400 50 
$EndSheet
Text Label 4100 9100 2    50   ~ 0
ETH_TD+
Text Label 4100 9200 2    50   ~ 0
ETH_TD-
Text Label 4100 9300 2    50   ~ 0
ETH_RD+
Wire Wire Line
	1900 9500 1900 10300
Text Label 2600 9800 2    50   ~ 0
ETH_GREEN_P
Text Label 2600 9900 2    50   ~ 0
ETH_GREEN_N
Text Label 2600 10000 2    50   ~ 0
ETH_YELLOW_P
Text Label 2600 10100 2    50   ~ 0
ETH_YELLOW_N
$Comp
L power:GND #PWR0139
U 1 1 5DD5E593
P 4900 10800
F 0 "#PWR0139" H 4900 10550 50  0001 C CNN
F 1 "GND" H 4905 10627 50  0000 C CNN
F 2 "" H 4900 10800 50  0001 C CNN
F 3 "" H 4900 10800 50  0001 C CNN
	1    4900 10800
	1    0    0    -1  
$EndComp
Wire Wire Line
	4900 10800 4900 10700
$Comp
L Device:C C108
U 1 1 5DD6D7BD
P 8300 7050
F 0 "C108" H 8415 7096 50  0000 L CNN
F 1 "4.7uF" H 8415 7005 50  0000 L CNN
F 2 "IPC-7351-CAPC:CAPC_1005x015" H 8338 6900 50  0001 C CNN
F 3 "~" H 8300 7050 50  0001 C CNN
F 4 "CL05A475MQ5NRNC" H 8300 7050 50  0001 C CNN "mpn"
	1    8300 7050
	-1   0    0    -1  
$EndComp
$Comp
L Device:C C107
U 1 1 5DD6DC29
P 5500 7850
F 0 "C107" H 5615 7896 50  0000 L CNN
F 1 "100nF" H 5615 7805 50  0000 L CNN
F 2 "IPC-7351-CAPC:CAPC_1005x015" H 5538 7700 50  0001 C CNN
F 3 "~" H 5500 7850 50  0001 C CNN
F 4 "CL05B104KO5NNNC" H 5500 7850 50  0001 C CNN "mpn"
	1    5500 7850
	-1   0    0    -1  
$EndComp
$Comp
L power:GND #PWR0142
U 1 1 5DD74E30
P 5500 8100
F 0 "#PWR0142" H 5500 7850 50  0001 C CNN
F 1 "GND" H 5505 7927 50  0000 C CNN
F 2 "" H 5500 8100 50  0001 C CNN
F 3 "" H 5500 8100 50  0001 C CNN
	1    5500 8100
	-1   0    0    -1  
$EndComp
Wire Wire Line
	5500 8100 5500 8000
Wire Wire Line
	5500 7700 5500 7600
Connection ~ 4600 7500
Wire Wire Line
	5000 7500 4600 7500
Wire Wire Line
	4600 7500 4600 7600
Wire Wire Line
	4100 7500 4600 7500
Wire Wire Line
	4100 7600 4100 7500
Wire Wire Line
	4600 7900 4600 8000
Wire Wire Line
	4100 8000 4100 7900
$Comp
L power:GND #PWR0141
U 1 1 5DD3E22A
P 4100 8000
F 0 "#PWR0141" H 4100 7750 50  0001 C CNN
F 1 "GND" H 4105 7827 50  0000 C CNN
F 2 "" H 4100 8000 50  0001 C CNN
F 3 "" H 4100 8000 50  0001 C CNN
	1    4100 8000
	-1   0    0    -1  
$EndComp
$Comp
L power:GND #PWR0140
U 1 1 5DD3E0FB
P 4600 8000
F 0 "#PWR0140" H 4600 7750 50  0001 C CNN
F 1 "GND" H 4605 7827 50  0000 C CNN
F 2 "" H 4600 8000 50  0001 C CNN
F 3 "" H 4600 8000 50  0001 C CNN
	1    4600 8000
	-1   0    0    -1  
$EndComp
$Comp
L Device:C C106
U 1 1 5DD3D6D1
P 4100 7750
F 0 "C106" H 4215 7841 50  0000 L CNN
F 1 "1uF" H 4215 7750 50  0000 L CNN
F 2 "IPC-7351-CAPC:CAPC_1005x015" H 4138 7600 50  0001 C CNN
F 3 "~" H 4100 7750 50  0001 C CNN
F 4 "1 Ω" H 4215 7659 50  0000 L CNN "ESR_max"
F 5 "CL05A105MQ5NNNC" H 4100 7750 50  0001 C CNN "mpn"
	1    4100 7750
	-1   0    0    -1  
$EndComp
$Comp
L Device:C C105
U 1 1 5DD3D560
P 4600 7750
F 0 "C105" H 4715 7796 50  0000 L CNN
F 1 "470pF" H 4715 7705 50  0000 L CNN
F 2 "IPC-7351-CAPC:CAPC_1005x015" H 4638 7600 50  0001 C CNN
F 3 "~" H 4600 7750 50  0001 C CNN
F 4 "CL05B471JB5NNNC" H 4600 7750 50  0001 C CNN "mpn"
	1    4600 7750
	-1   0    0    -1  
$EndComp
Wire Wire Line
	5700 9000 8600 9000
Wire Wire Line
	5700 9100 8600 9100
Wire Wire Line
	5700 9200 8600 9200
Text Label 8600 9800 2    50   ~ 0
PHY_MDC
Text Label 8600 9700 2    50   ~ 0
PHY_MDIO
$Comp
L Device:R R117
U 1 1 5DF27334
P 6500 8650
F 0 "R117" H 6570 8696 50  0000 L CNN
F 1 "4.75k" H 6570 8605 50  0000 L CNN
F 2 "IPC-7351-RESC:RESC_1005x015" V 6430 8650 50  0001 C CNN
F 3 "~" H 6500 8650 50  0001 C CNN
	1    6500 8650
	1    0    0    -1  
$EndComp
$Comp
L Device:R R118
U 1 1 5DF27E44
P 6900 8650
F 0 "R118" H 6970 8696 50  0000 L CNN
F 1 "4.75k" H 6970 8605 50  0000 L CNN
F 2 "IPC-7351-RESC:RESC_1005x015" V 6830 8650 50  0001 C CNN
F 3 "~" H 6900 8650 50  0001 C CNN
	1    6900 8650
	1    0    0    -1  
$EndComp
$Comp
L Device:R R119
U 1 1 5DF282A0
P 7300 8650
F 0 "R119" H 7370 8696 50  0000 L CNN
F 1 "4.75k" H 7370 8605 50  0000 L CNN
F 2 "IPC-7351-RESC:RESC_1005x015" V 7230 8650 50  0001 C CNN
F 3 "~" H 7300 8650 50  0001 C CNN
	1    7300 8650
	1    0    0    -1  
$EndComp
Wire Wire Line
	6500 9300 6500 8800
Wire Wire Line
	6900 9400 6900 8800
Wire Wire Line
	7300 9600 7300 8800
Wire Wire Line
	7900 9700 7900 8800
$Comp
L Device:R R120
U 1 1 5DF55BBE
P 7900 8650
F 0 "R120" H 7970 8696 50  0000 L CNN
F 1 "1.5k" H 7970 8605 50  0000 L CNN
F 2 "IPC-7351-RESC:RESC_1005x015" V 7830 8650 50  0001 C CNN
F 3 "~" H 7900 8650 50  0001 C CNN
	1    7900 8650
	1    0    0    -1  
$EndComp
$Comp
L Device:Q_PMOS_DGS Q103
U 1 1 5CE28C4B
P 7900 6900
F 0 "Q103" V 8243 6900 50  0000 C CNN
F 1 "DMP2305U-7" V 8152 6900 50  0000 C CNN
F 2 "Package_TO_SOT_SMD:SOT-23" H 8100 7000 50  0001 C CNN
F 3 "https://www.diodes.com/assets/Datasheets/ds31737.pdf" H 7900 6900 50  0001 C CNN
F 4 "DMP2305U-7" H 7900 6900 50  0001 C CNN "mpn"
	1    7900 6900
	0    -1   -1   0   
$EndComp
$Comp
L unlockoslo:+3.3V_PHY #PWR0145
U 1 1 5CE52055
P 7500 6700
F 0 "#PWR0145" H 7500 6550 50  0001 C CNN
F 1 "+3.3V_PHY" H 7515 6873 50  0000 C CNN
F 2 "" H 7500 6700 50  0001 C CNN
F 3 "" H 7500 6700 50  0001 C CNN
	1    7500 6700
	-1   0    0    -1  
$EndComp
Wire Wire Line
	7700 6800 7600 6800
Wire Wire Line
	7500 6800 7500 6700
Connection ~ 7500 6800
Wire Wire Line
	8100 6800 8300 6800
Wire Wire Line
	8300 6800 8300 6900
Wire Wire Line
	8300 6800 8500 6800
Connection ~ 8300 6800
$Comp
L power:GND #PWR0144
U 1 1 5CE7C1AF
P 8300 7300
F 0 "#PWR0144" H 8300 7050 50  0001 C CNN
F 1 "GND" H 8305 7127 50  0000 C CNN
F 2 "" H 8300 7300 50  0001 C CNN
F 3 "" H 8300 7300 50  0001 C CNN
	1    8300 7300
	-1   0    0    -1  
$EndComp
Wire Wire Line
	8300 7300 8300 7200
Wire Wire Line
	7900 7100 7900 7200
Wire Wire Line
	7900 7200 7400 7200
$Comp
L power:+3.3V #PWR0138
U 1 1 5CE9B262
P 8500 6700
F 0 "#PWR0138" H 8500 6550 50  0001 C CNN
F 1 "+3.3V" H 8515 6873 50  0000 C CNN
F 2 "" H 8500 6700 50  0001 C CNN
F 3 "" H 8500 6700 50  0001 C CNN
	1    8500 6700
	-1   0    0    -1  
$EndComp
Wire Wire Line
	8500 6700 8500 6800
Text Label 8600 9000 2    50   ~ 0
PHY_TXD0
Text Label 8600 9100 2    50   ~ 0
PHY_TXD1
Text Label 8600 9200 2    50   ~ 0
PHY_TX_EN
Text Label 8600 9300 2    50   ~ 0
PHY_RXD0
Text Label 8600 9400 2    50   ~ 0
PHY_RXD1
Wire Wire Line
	5700 10300 6350 10300
Text Label 6350 10300 2    50   ~ 0
PHY_REF_CLK
Text Notes 5700 11050 0    50   ~ 0
VDDCR: output from LAN8720 internal 1.2V regulator.\nLED 1: link activity, green\nLED 2: Link speed, yellow
$Comp
L power:GND #PWR0146
U 1 1 5CFC7163
P 4100 10800
F 0 "#PWR0146" H 4100 10550 50  0001 C CNN
F 1 "GND" H 4105 10627 50  0000 C CNN
F 2 "" H 4100 10800 50  0001 C CNN
F 3 "" H 4100 10800 50  0001 C CNN
	1    4100 10800
	1    0    0    -1  
$EndComp
$Comp
L Device:R R108
U 1 1 5CFBD746
P 4100 10550
F 0 "R108" H 4030 10641 50  0000 R CNN
F 1 "12.1k" H 4030 10550 50  0000 R CNN
F 2 "IPC-7351-RESC:RESC_1005x015" V 4030 10550 50  0001 C CNN
F 3 "~" H 4100 10550 50  0001 C CNN
F 4 "1%" H 4030 10459 50  0000 R CNN "Tolerance"
	1    4100 10550
	1    0    0    -1  
$EndComp
Wire Wire Line
	4100 10800 4100 10700
Wire Wire Line
	4100 10400 4100 9700
NoConn ~ 5700 10100
NoConn ~ 5700 10400
$Comp
L Device:R R109
U 1 1 5D05D0F5
P 5900 8650
F 0 "R109" H 5970 8696 50  0000 L CNN
F 1 "4.75k" H 5970 8605 50  0000 L CNN
F 2 "IPC-7351-RESC:RESC_1005x015" V 5830 8650 50  0001 C CNN
F 3 "~" H 5900 8650 50  0001 C CNN
	1    5900 8650
	1    0    0    -1  
$EndComp
Wire Wire Line
	5900 8800 5900 10000
Wire Wire Line
	5900 10000 5700 10000
$Comp
L unlockoslo:+3.3V_PHY #PWR0150
U 1 1 5D067673
P 7900 8300
F 0 "#PWR0150" H 7900 8150 50  0001 C CNN
F 1 "+3.3V_PHY" H 7915 8473 50  0000 C CNN
F 2 "" H 7900 8300 50  0001 C CNN
F 3 "" H 7900 8300 50  0001 C CNN
	1    7900 8300
	1    0    0    -1  
$EndComp
$Comp
L Device:R R110
U 1 1 5D075056
P 6500 10050
F 0 "R110" H 6570 10096 50  0000 L CNN
F 1 "4.75k" H 6570 10005 50  0000 L CNN
F 2 "IPC-7351-RESC:RESC_1005x015" V 6430 10050 50  0001 C CNN
F 3 "~" H 6500 10050 50  0001 C CNN
	1    6500 10050
	1    0    0    -1  
$EndComp
$Comp
L power:GND #PWR0151
U 1 1 5D088E10
P 6500 10300
F 0 "#PWR0151" H 6500 10050 50  0001 C CNN
F 1 "GND" H 6505 10127 50  0000 C CNN
F 2 "" H 6500 10300 50  0001 C CNN
F 3 "" H 6500 10300 50  0001 C CNN
	1    6500 10300
	1    0    0    -1  
$EndComp
Wire Wire Line
	6500 10300 6500 10200
Wire Wire Line
	6900 8400 6900 8500
Wire Wire Line
	6900 8400 7300 8400
Wire Wire Line
	7300 8400 7300 8500
Connection ~ 6900 8400
Wire Wire Line
	7300 8400 7900 8400
Wire Wire Line
	7900 8400 7900 8500
Connection ~ 7300 8400
Wire Wire Line
	6500 8500 6500 8400
Connection ~ 6500 8400
Wire Wire Line
	6500 8400 6900 8400
Wire Wire Line
	8600 9700 7900 9700
Connection ~ 7900 9700
Wire Wire Line
	6500 9800 8600 9800
Wire Wire Line
	7900 8300 7900 8400
Wire Wire Line
	5700 9300 6500 9300
Wire Wire Line
	5700 9400 6900 9400
Wire Wire Line
	5700 9500 6500 9500
Wire Wire Line
	5700 9600 7300 9600
Wire Wire Line
	5700 9700 7900 9700
Wire Wire Line
	5700 9800 6500 9800
Wire Wire Line
	5900 8400 6500 8400
Wire Wire Line
	5900 8400 5900 8500
Wire Wire Line
	4900 8300 4900 8400
$Comp
L Device:Ferrite_Bead FB101
U 1 1 5D1E7600
P 6850 6800
F 0 "FB101" V 6668 6800 50  0000 C CNN
F 1 "FBMJ2125HS250NT" V 6667 6800 50  0001 C CNN
F 2 "Inductor_SMD:L_0805_2012Metric" V 6780 6800 50  0001 C CNN
F 3 "~" H 6850 6800 50  0001 C CNN
F 4 "2A" V 6850 6800 50  0001 C CNN "I"
F 5 "50mOhm" V 6850 6800 50  0001 C CNN "DCR"
F 6 "FBMJ2125HS250NT" V 6850 6800 50  0001 C CNN "mpn"
	1    6850 6800
	0    -1   1    0   
$EndComp
$Comp
L Device:C C110
U 1 1 5D3D4B20
P 6500 7050
F 0 "C110" H 6615 7096 50  0000 L CNN
F 1 "100nF" H 6615 7005 50  0000 L CNN
F 2 "IPC-7351-CAPC:CAPC_1005x015" H 6538 6900 50  0001 C CNN
F 3 "~" H 6500 7050 50  0001 C CNN
F 4 "CL05B104KO5NNNC" H 6500 7050 50  0001 C CNN "mpn"
	1    6500 7050
	-1   0    0    -1  
$EndComp
$Comp
L power:GND #PWR0147
U 1 1 5D40B4F0
P 6500 7300
F 0 "#PWR0147" H 6500 7050 50  0001 C CNN
F 1 "GND" H 6505 7127 50  0000 C CNN
F 2 "" H 6500 7300 50  0001 C CNN
F 3 "" H 6500 7300 50  0001 C CNN
	1    6500 7300
	-1   0    0    -1  
$EndComp
Wire Wire Line
	6500 7200 6500 7300
$Comp
L Device:C C111
U 1 1 5D432520
P 6000 7050
F 0 "C111" H 6115 7096 50  0000 L CNN
F 1 "100nF" H 6115 7005 50  0000 L CNN
F 2 "IPC-7351-CAPC:CAPC_1005x015" H 6038 6900 50  0001 C CNN
F 3 "~" H 6000 7050 50  0001 C CNN
F 4 "CL05B104KO5NNNC" H 6000 7050 50  0001 C CNN "mpn"
	1    6000 7050
	-1   0    0    -1  
$EndComp
$Comp
L power:GND #PWR0148
U 1 1 5D43252A
P 6000 7300
F 0 "#PWR0148" H 6000 7050 50  0001 C CNN
F 1 "GND" H 6005 7127 50  0000 C CNN
F 2 "" H 6000 7300 50  0001 C CNN
F 3 "" H 6000 7300 50  0001 C CNN
	1    6000 7300
	-1   0    0    -1  
$EndComp
Wire Wire Line
	6000 7200 6000 7300
$Comp
L Device:C C112
U 1 1 5D4414FC
P 5500 7050
F 0 "C112" H 5615 7096 50  0000 L CNN
F 1 "100nF" H 5615 7005 50  0000 L CNN
F 2 "IPC-7351-CAPC:CAPC_1005x015" H 5538 6900 50  0001 C CNN
F 3 "~" H 5500 7050 50  0001 C CNN
F 4 "CL05B104KO5NNNC" H 5500 7050 50  0001 C CNN "mpn"
	1    5500 7050
	-1   0    0    -1  
$EndComp
$Comp
L power:GND #PWR0149
U 1 1 5D441506
P 5500 7300
F 0 "#PWR0149" H 5500 7050 50  0001 C CNN
F 1 "GND" H 5505 7127 50  0000 C CNN
F 2 "" H 5500 7300 50  0001 C CNN
F 3 "" H 5500 7300 50  0001 C CNN
	1    5500 7300
	-1   0    0    -1  
$EndComp
Wire Wire Line
	5500 7200 5500 7300
Wire Wire Line
	6500 6800 6000 6800
Wire Wire Line
	5500 6800 5500 6900
Wire Wire Line
	6000 6800 6000 6900
Connection ~ 6000 6800
Wire Wire Line
	6000 6800 5500 6800
Wire Wire Line
	6500 6800 6500 6900
Connection ~ 5500 7600
Wire Wire Line
	4800 8300 4800 8400
Wire Wire Line
	4800 8300 4900 8300
Connection ~ 5500 6800
Wire Wire Line
	6700 6800 6500 6800
Connection ~ 6500 6800
Wire Wire Line
	7000 6800 7200 6800
Wire Wire Line
	7200 7600 7200 6800
Text Label 6000 7600 2    50   ~ 0
PHY_VDDIO
Wire Wire Line
	4600 7400 4600 7500
Text Label 6400 6800 2    50   ~ 0
PHY_VDDA
Text Label 4100 7500 0    50   ~ 0
PHY_VDDCR
$Comp
L power:PWR_FLAG #FLG0102
U 1 1 5D0467F3
P 6000 6700
F 0 "#FLG0102" H 6000 6775 50  0001 C CNN
F 1 "PWR_FLAG" H 6000 6873 50  0001 C CNN
F 2 "" H 6000 6700 50  0001 C CNN
F 3 "~" H 6000 6700 50  0001 C CNN
	1    6000 6700
	-1   0    0    -1  
$EndComp
Wire Wire Line
	6000 6800 6000 6700
$Comp
L power:PWR_FLAG #FLG0103
U 1 1 5D079965
P 5000 7400
F 0 "#FLG0103" H 5000 7475 50  0001 C CNN
F 1 "PWR_FLAG" H 5000 7573 50  0001 C CNN
F 2 "" H 5000 7400 50  0001 C CNN
F 3 "~" H 5000 7400 50  0001 C CNN
	1    5000 7400
	1    0    0    -1  
$EndComp
Text Label 8600 9600 2    50   ~ 0
PHY_RX_CRS_DV
Wire Wire Line
	8600 9600 7300 9600
Connection ~ 7300 9600
Wire Wire Line
	6900 9400 8600 9400
Connection ~ 6900 9400
Wire Wire Line
	8600 9300 6500 9300
Connection ~ 6500 9300
$Comp
L Connector:Jack-DC J104
U 1 1 5D1E158B
P 1000 4400
F 0 "J104" H 1057 4725 50  0000 C CNN
F 1 "Jack-DC" H 1057 4634 50  0000 C CNN
F 2 "Connector_BarrelJack:BarrelJack_CUI_PJ-063AH_Horizontal" H 1050 4360 50  0001 C CNN
F 3 "https://www.cui.com/product/resource/pj-037ah-smt-tr.pdf" H 1050 4360 50  0001 C CNN
F 4 "PJ-037AH-SMT-TR" H 1000 4400 50  0001 C CNN "mpn"
	1    1000 4400
	1    0    0    -1  
$EndComp
$Comp
L power:GND #PWR0155
U 1 1 5D1E1938
P 1400 4600
F 0 "#PWR0155" H 1400 4350 50  0001 C CNN
F 1 "GND" H 1405 4427 50  0000 C CNN
F 2 "" H 1400 4600 50  0001 C CNN
F 3 "" H 1400 4600 50  0001 C CNN
	1    1400 4600
	1    0    0    -1  
$EndComp
Wire Wire Line
	1300 4500 1400 4500
Wire Wire Line
	1400 4500 1400 4600
$Comp
L Device:R R104
U 1 1 5CC4A6E7
P 4500 1150
F 0 "R104" H 4570 1196 50  0000 L CNN
F 1 "1k" H 4570 1105 50  0000 L CNN
F 2 "IPC-7351-RESC:RESC_1005x015" V 4430 1150 50  0001 C CNN
F 3 "~" H 4500 1150 50  0001 C CNN
	1    4500 1150
	1    0    0    -1  
$EndComp
Wire Wire Line
	4500 1300 4500 1500
Wire Wire Line
	4500 1500 4600 1500
Wire Wire Line
	4500 1000 4500 900 
$Comp
L power:GND #PWR0105
U 1 1 5CC9F9A3
P 2900 2700
F 0 "#PWR0105" H 2900 2450 50  0001 C CNN
F 1 "GND" H 2905 2527 50  0000 C CNN
F 2 "" H 2900 2700 50  0001 C CNN
F 3 "" H 2900 2700 50  0001 C CNN
	1    2900 2700
	1    0    0    -1  
$EndComp
Wire Wire Line
	2900 1200 2900 1400
Connection ~ 2900 1850
Wire Wire Line
	2900 1700 2900 1850
$Comp
L Device:R R101
U 1 1 5CC96E82
P 2900 1550
F 0 "R101" H 2970 1596 50  0000 L CNN
F 1 "22.1k" H 2970 1505 50  0000 L CNN
F 2 "IPC-7351-RESC:RESC_1005x015" V 2830 1550 50  0001 C CNN
F 3 "~" H 2900 1550 50  0001 C CNN
	1    2900 1550
	1    0    0    -1  
$EndComp
Text Label 7000 1700 2    50   ~ 0
RTS
Text Label 7000 1800 2    50   ~ 0
MCU_TX
Text Label 7000 1900 2    50   ~ 0
MCU_RX
$Comp
L power:GND #PWR0108
U 1 1 5CD1D0AC
P 6450 1100
F 0 "#PWR0108" H 6450 850 50  0001 C CNN
F 1 "GND" H 6455 927 50  0000 C CNN
F 2 "" H 6450 1100 50  0001 C CNN
F 3 "" H 6450 1100 50  0001 C CNN
	1    6450 1100
	1    0    0    -1  
$EndComp
Wire Wire Line
	6450 1100 6450 1000
Wire Wire Line
	6250 1800 6250 1000
Wire Wire Line
	6350 1900 6350 1000
$Comp
L Device:Net-Tie_2 NT101
U 1 1 5CD8EC79
P 6600 1800
F 0 "NT101" H 6600 1889 50  0001 C CNN
F 1 "Net-Tie_2" H 6600 1890 50  0001 C CNN
F 2 "UnlockOslo:NetTie-2_SMD_Pad0.15mm" H 6600 1800 50  0001 C CNN
F 3 "~" H 6600 1800 50  0001 C CNN
	1    6600 1800
	1    0    0    -1  
$EndComp
Wire Wire Line
	6700 1900 7000 1900
Wire Wire Line
	6700 1800 7000 1800
$Comp
L Device:Net-Tie_2 NT102
U 1 1 5CDF28F1
P 6600 1900
F 0 "NT102" H 6600 1811 50  0001 C CNN
F 1 "Net-Tie_2" H 6600 1990 50  0001 C CNN
F 2 "UnlockOslo:NetTie-2_SMD_Pad0.15mm" H 6600 1900 50  0001 C CNN
F 3 "~" H 6600 1900 50  0001 C CNN
	1    6600 1900
	1    0    0    -1  
$EndComp
Text Label 6150 1800 2    50   ~ 0
USB_RX
Text Label 6150 1900 2    50   ~ 0
USB_TX
Wire Wire Line
	4300 1200 4300 2100
Wire Wire Line
	4300 2100 4600 2100
Wire Wire Line
	2900 2700 2900 2250
Wire Wire Line
	2900 1850 2900 1950
$Comp
L Device:R R102
U 1 1 5CC9725C
P 2900 2100
F 0 "R102" H 2970 2146 50  0000 L CNN
F 1 "47.5k" H 2970 2055 50  0000 L CNN
F 2 "IPC-7351-RESC:RESC_1005x015" V 2830 2100 50  0001 C CNN
F 3 "~" H 2900 2100 50  0001 C CNN
	1    2900 2100
	1    0    0    -1  
$EndComp
Wire Wire Line
	2300 3400 4300 3400
Wire Wire Line
	4300 3400 4300 2100
Connection ~ 4300 2100
NoConn ~ 5800 1600
NoConn ~ 5800 1500
NoConn ~ 5800 2200
NoConn ~ 5800 2000
Text Label 7000 2100 2    50   ~ 0
DTR
Wire Wire Line
	5200 3100 5200 3200
Connection ~ 5200 3100
Wire Wire Line
	5300 3100 5300 3000
Wire Wire Line
	5200 3100 5300 3100
Wire Wire Line
	5200 3000 5200 3100
$Comp
L power:GND #PWR0107
U 1 1 5CCFBBE1
P 5200 3200
F 0 "#PWR0107" H 5200 2950 50  0001 C CNN
F 1 "GND" H 5205 3027 50  0000 C CNN
F 2 "" H 5200 3200 50  0001 C CNN
F 3 "" H 5200 3200 50  0001 C CNN
	1    5200 3200
	1    0    0    -1  
$EndComp
Text Label 5800 2600 0    50   ~ 0
RXT
Text Label 5800 2700 0    50   ~ 0
TXT
Wire Wire Line
	7300 2200 7300 2100
Wire Wire Line
	4500 900  5100 900 
Wire Wire Line
	5200 900  5200 1200
$Comp
L Interface_USB:CP2102N-A01-GQFN24 U101
U 1 1 5CC257BA
P 5200 2100
F 0 "U101" H 4850 2950 50  0000 C CNN
F 1 "CP2102N-A01-GQFN24" H 5300 2950 50  0000 L CNN
F 2 "Package_DFN_QFN:QFN-24-1EP_4x4mm_P0.5mm_EP2.6x2.6mm" H 5650 1300 50  0001 L CNN
F 3 "https://www.silabs.com/documents/public/data-sheets/cp2102n-datasheet.pdf" H 5250 1050 50  0001 C CNN
F 4 "3.0-3.6V" H 3750 3350 50  0000 L BNN "Vin"
	1    5200 2100
	1    0    0    -1  
$EndComp
Wire Wire Line
	5800 1800 6250 1800
Connection ~ 6250 1800
Wire Wire Line
	6250 1800 6500 1800
Wire Wire Line
	5800 1900 6350 1900
Connection ~ 6350 1900
Wire Wire Line
	6350 1900 6500 1900
NoConn ~ 4600 1800
NoConn ~ 4600 1900
Wire Wire Line
	5800 2100 7000 2100
NoConn ~ 6550 1000
Wire Wire Line
	5800 1700 7000 1700
NoConn ~ 6150 1000
$Comp
L Device:C C115
U 1 1 5D168E7B
P 3900 1450
F 0 "C115" H 4015 1496 50  0000 L CNN
F 1 "100nF" H 4015 1405 50  0000 L CNN
F 2 "IPC-7351-CAPC:CAPC_1005x015" H 3938 1300 50  0001 C CNN
F 3 "~" H 3900 1450 50  0001 C CNN
F 4 "CL05B104KO5NNNC" H 3900 1450 50  0001 C CNN "mpn"
	1    3900 1450
	1    0    0    -1  
$EndComp
$Comp
L Connector:USB_B_Micro J101
U 1 1 5CC3462A
P 800 2000
F 0 "J101" H 857 2467 50  0000 C CNN
F 1 "USB_B_Micro" H 857 2376 50  0000 C CNN
F 2 "10118194:10118194" H 950 1950 50  0001 C CNN
F 3 "https://www.amphenol-icc.com/media/wysiwyg/files/drawing/10118194.pdf" H 950 1950 50  0001 C CNN
F 4 "10118194-0001LF" H 800 2000 50  0001 C CNN "mpn"
	1    800  2000
	1    0    0    -1  
$EndComp
$Comp
L power:GND #PWR0106
U 1 1 5CCE6CE8
P 1400 2100
F 0 "#PWR0106" H 1400 1850 50  0001 C CNN
F 1 "GND" H 1405 1927 50  0000 C CNN
F 2 "" H 1400 2100 50  0001 C CNN
F 3 "" H 1400 2100 50  0001 C CNN
	1    1400 2100
	1    0    0    -1  
$EndComp
$Comp
L power:GND #PWR0101
U 1 1 5CE1A90F
P 1100 3000
F 0 "#PWR0101" H 1100 2750 50  0001 C CNN
F 1 "GND" H 1105 2827 50  0000 C CNN
F 2 "" H 1100 3000 50  0001 C CNN
F 3 "" H 1100 3000 50  0001 C CNN
	1    1100 3000
	1    0    0    -1  
$EndComp
Wire Wire Line
	700  2500 700  2400
Wire Wire Line
	700  2800 700  2900
Wire Wire Line
	700  2900 1100 2900
Wire Wire Line
	1100 2900 1100 2500
Wire Wire Line
	1100 2500 800  2500
Wire Wire Line
	800  2500 800  2400
Wire Wire Line
	1100 2900 1100 3000
Connection ~ 1100 2900
$Comp
L Device:C C113
U 1 1 5CEB2CA9
P 700 2650
F 0 "C113" H 815 2696 50  0000 L CNN
F 1 "~" H 815 2650 50  0000 L CNN
F 2 "IPC-7351-CAPC:CAPC_1005x015" H 738 2500 50  0001 C CNN
F 3 "~" H 700 2650 50  0001 C CNN
F 4 "DNP" H 815 2605 50  0000 L CNN "populate"
	1    700  2650
	1    0    0    -1  
$EndComp
NoConn ~ 1100 2200
$Comp
L Device:Ferrite_Bead_Small FB102
U 1 1 5CEB3AD9
P 2700 1200
F 0 "FB102" V 2555 1200 50  0000 C CNN
F 1 "FBMJ2125HS250NT" V 2554 1200 50  0001 C CNN
F 2 "Inductor_SMD:L_0805_2012Metric" V 2630 1200 50  0001 C CNN
F 3 "~" H 2700 1200 50  0001 C CNN
F 4 "FBMJ2125HS250NT" V 2700 1200 50  0001 C CNN "mpn"
	1    2700 1200
	0    1    1    0   
$EndComp
$Comp
L power:PWR_FLAG #FLG0106
U 1 1 5D235135
P 3900 1100
F 0 "#FLG0106" H 3900 1175 50  0001 C CNN
F 1 "PWR_FLAG" H 3900 1273 50  0001 C CNN
F 2 "" H 3900 1100 50  0001 C CNN
F 3 "~" H 3900 1100 50  0001 C CNN
	1    3900 1100
	1    0    0    -1  
$EndComp
Wire Wire Line
	3900 1100 3900 1200
Wire Wire Line
	5100 1200 5100 900 
Connection ~ 5100 900 
Wire Wire Line
	5100 900  5200 900 
Connection ~ 2900 1200
Wire Wire Line
	2600 2500 4600 2500
Wire Wire Line
	2900 1200 3600 1200
$Comp
L Device:C C103
U 1 1 5D35653F
P 3600 1450
F 0 "C103" H 3486 1404 50  0000 R CNN
F 1 "4.7uF" H 3486 1495 50  0000 R CNN
F 2 "IPC-7351-CAPC:CAPC_1005x015" H 3638 1300 50  0001 C CNN
F 3 "~" H 3600 1450 50  0001 C CNN
F 4 "CL05A475MQ5NRNC" H 3600 1450 50  0001 C CNN "mpn"
	1    3600 1450
	1    0    0    1   
$EndComp
Wire Wire Line
	1200 1800 1200 1200
$Comp
L power:GND #PWR0133
U 1 1 5D40C073
P 3600 1700
F 0 "#PWR0133" H 3600 1450 50  0001 C CNN
F 1 "GND" H 3605 1527 50  0000 C CNN
F 2 "" H 3600 1700 50  0001 C CNN
F 3 "" H 3600 1700 50  0001 C CNN
	1    3600 1700
	1    0    0    -1  
$EndComp
$Comp
L power:GND #PWR0156
U 1 1 5D40C453
P 3900 1700
F 0 "#PWR0156" H 3900 1450 50  0001 C CNN
F 1 "GND" H 3905 1527 50  0000 C CNN
F 2 "" H 3900 1700 50  0001 C CNN
F 3 "" H 3900 1700 50  0001 C CNN
	1    3900 1700
	1    0    0    -1  
$EndComp
Wire Wire Line
	3900 1700 3900 1600
Wire Wire Line
	3600 1700 3600 1600
Wire Wire Line
	3600 1300 3600 1200
Connection ~ 3600 1200
Wire Wire Line
	3600 1200 3900 1200
Wire Wire Line
	3900 1300 3900 1200
Connection ~ 3900 1200
Wire Wire Line
	3900 1200 4300 1200
Wire Wire Line
	3300 1850 3300 2400
Wire Wire Line
	3300 2400 4600 2400
Wire Wire Line
	2900 1850 3300 1850
Wire Wire Line
	7300 1600 7300 1700
Connection ~ 7300 1700
Wire Wire Line
	7300 1700 7300 1800
Wire Wire Line
	5800 2500 6350 2500
Wire Wire Line
	6350 2400 5800 2400
$Comp
L unlockoslo:+3.3V_USB #PWR0157
U 1 1 5D5FF927
P 5100 800
F 0 "#PWR0157" H 5100 650 50  0001 C CNN
F 1 "+3.3V_USB" H 5115 973 50  0000 C CNN
F 2 "" H 5100 800 50  0001 C CNN
F 3 "" H 5100 800 50  0001 C CNN
	1    5100 800 
	1    0    0    -1  
$EndComp
Wire Wire Line
	5100 800  5100 900 
$Comp
L power:PWR_FLAG #FLG0107
U 1 1 5D6178C8
P 1600 10550
F 0 "#FLG0107" H 1600 10625 50  0001 C CNN
F 1 "PWR_FLAG" H 1600 10723 50  0001 C CNN
F 2 "" H 1600 10550 50  0001 C CNN
F 3 "~" H 1600 10550 50  0001 C CNN
	1    1600 10550
	1    0    0    -1  
$EndComp
$Comp
L power:Earth #PWR0158
U 1 1 5D61811C
P 1600 10700
F 0 "#PWR0158" H 1600 10450 50  0001 C CNN
F 1 "Earth" H 1600 10550 50  0001 C CNN
F 2 "" H 1600 10700 50  0001 C CNN
F 3 "~" H 1600 10700 50  0001 C CNN
	1    1600 10700
	1    0    0    -1  
$EndComp
Wire Wire Line
	1600 10700 1600 10550
$Comp
L unlockoslo:+3.3V_USB #PWR0109
U 1 1 5D64632A
P 7300 1600
F 0 "#PWR0109" H 7300 1450 50  0001 C CNN
F 1 "+3.3V_USB" H 7315 1773 50  0000 C CNN
F 2 "" H 7300 1600 50  0001 C CNN
F 3 "" H 7300 1600 50  0001 C CNN
	1    7300 1600
	1    0    0    -1  
$EndComp
$Comp
L Connector:Raspberry_Pi_2_3 J106
U 1 1 5D702ED7
P 20700 2600
F 0 "J106" H 21200 1300 50  0000 L CNN
F 1 "RPI_HEADER" H 21200 1200 50  0000 L CNN
F 2 "Connector_PinHeader_2.54mm:PinHeader_2x20_P2.54mm_Vertical" H 20700 2600 50  0001 C CNN
F 3 "https://www.raspberrypi.org/documentation/hardware/raspberrypi/schematics/rpi_SCH_3bplus_1p0_reduced.pdf" H 20700 2600 50  0001 C CNN
F 4 "PPPC202LFBN-RC" H 20700 2600 50  0001 C CNN "mpn"
	1    20700 2600
	1    0    0    -1  
$EndComp
$Comp
L Device:R R115
U 1 1 5DCFC5BF
P 2900 10100
F 0 "R115" H 2970 10146 50  0000 L CNN
F 1 "2.2k" H 2970 10055 50  0000 L CNN
F 2 "IPC-7351-RESC:RESC_1005x015" V 2830 10100 50  0001 C CNN
F 3 "~" H 2900 10100 50  0001 C CNN
	1    2900 10100
	0    -1   1    0   
$EndComp
$Comp
L power:GND #PWR0135
U 1 1 5DD08B40
P 3450 10200
F 0 "#PWR0135" H 3450 9950 50  0001 C CNN
F 1 "GND" H 3455 10027 50  0000 C CNN
F 2 "" H 3450 10200 50  0001 C CNN
F 3 "" H 3450 10200 50  0001 C CNN
	1    3450 10200
	-1   0    0    -1  
$EndComp
Wire Wire Line
	3450 10200 3450 10100
$Comp
L Device:R R116
U 1 1 5DD2E6DC
P 2900 9800
F 0 "R116" H 2970 9846 50  0000 L CNN
F 1 "2.2k" H 2970 9755 50  0000 L CNN
F 2 "IPC-7351-RESC:RESC_1005x015" V 2830 9800 50  0001 C CNN
F 3 "~" H 2900 9800 50  0001 C CNN
	1    2900 9800
	0    -1   -1   0   
$EndComp
Wire Wire Line
	3050 10100 3450 10100
$Comp
L power:GND #PWR0159
U 1 1 5D9D3BD4
P 20300 4100
F 0 "#PWR0159" H 20300 3850 50  0001 C CNN
F 1 "GND" H 20305 3927 50  0000 C CNN
F 2 "" H 20300 4100 50  0001 C CNN
F 3 "" H 20300 4100 50  0001 C CNN
	1    20300 4100
	1    0    0    -1  
$EndComp
Wire Wire Line
	20300 3900 20300 4000
Wire Wire Line
	20300 4000 20400 4000
Wire Wire Line
	20400 4000 20400 3900
Connection ~ 20300 4000
Wire Wire Line
	20300 4000 20300 4100
Wire Wire Line
	20400 4000 20500 4000
Wire Wire Line
	20500 4000 20500 3900
Connection ~ 20400 4000
Wire Wire Line
	20500 4000 20600 4000
Wire Wire Line
	20600 4000 20600 3900
Connection ~ 20500 4000
Wire Wire Line
	20600 4000 20700 4000
Wire Wire Line
	20700 4000 20700 3900
Connection ~ 20600 4000
Wire Wire Line
	20700 4000 20800 4000
Wire Wire Line
	20800 4000 20800 3900
Connection ~ 20700 4000
Wire Wire Line
	20800 4000 20900 4000
Wire Wire Line
	20900 4000 20900 3900
Connection ~ 20800 4000
Wire Wire Line
	20900 4000 21000 4000
Wire Wire Line
	21000 4000 21000 3900
Connection ~ 20900 4000
Wire Wire Line
	5000 7400 5000 7500
Connection ~ 5000 7500
Wire Wire Line
	5000 7500 5000 8400
Wire Wire Line
	4900 6800 5500 6800
Connection ~ 4900 8300
Connection ~ 7900 8400
Wire Wire Line
	5100 7600 5100 8400
Connection ~ 7200 6800
Wire Wire Line
	4900 6800 4900 8300
Wire Wire Line
	7300 2500 7300 2600
Wire Wire Line
	5800 2600 7300 2600
$Comp
L Device:Q_NPN_BEC Q102
U 1 1 5D35866F
P 9300 2500
F 0 "Q102" H 9491 2454 50  0000 L CNN
F 1 "BC817" H 9491 2545 50  0000 L CNN
F 2 "Package_TO_SOT_SMD:SOT-23" H 9500 2425 50  0001 L CIN
F 3 "https://assets.nexperia.com/documents/data-sheet/BC817_SER.pdf" H 9300 2500 50  0001 L CNN
F 4 "BC817,235" H 9300 2500 50  0001 C CNN "mpn"
	1    9300 2500
	1    0    0    1   
$EndComp
$Comp
L Device:Q_NPN_BEC Q101
U 1 1 5D3585A1
P 9300 1800
F 0 "Q101" H 9491 1846 50  0000 L CNN
F 1 "BC817" H 9491 1755 50  0000 L CNN
F 2 "Package_TO_SOT_SMD:SOT-23" H 9500 1725 50  0001 L CIN
F 3 "https://assets.nexperia.com/documents/data-sheet/BC817_SER.pdf" H 9300 1800 50  0001 L CNN
F 4 "BC817,235" H 9300 1800 50  0001 C CNN "mpn"
	1    9300 1800
	1    0    0    -1  
$EndComp
NoConn ~ 11700 2100
NoConn ~ 11700 2000
Text Label 9900 2800 2    50   ~ 0
MCU_IO0
Wire Wire Line
	9400 2800 9900 2800
Connection ~ 10300 1500
Wire Wire Line
	10500 1500 10300 1500
Wire Wire Line
	10300 1600 10300 1500
Wire Wire Line
	9900 2100 9900 1900
Connection ~ 9900 2100
Wire Wire Line
	10300 2100 9900 2100
Wire Wire Line
	10300 2000 10300 2100
Connection ~ 9900 1500
Wire Wire Line
	10300 1500 9900 1500
Wire Wire Line
	9900 1600 9900 1500
Wire Wire Line
	9900 2200 9900 2100
$Comp
L power:GND #PWR0154
U 1 1 5CF6EF05
P 9900 2200
F 0 "#PWR0154" H 9900 1950 50  0001 C CNN
F 1 "GND" H 9905 2027 50  0000 C CNN
F 2 "" H 9900 2200 50  0001 C CNN
F 3 "" H 9900 2200 50  0001 C CNN
	1    9900 2200
	1    0    0    -1  
$EndComp
$Comp
L Device:C C114
U 1 1 5CF6E590
P 9900 1750
F 0 "C114" H 10015 1796 50  0000 L CNN
F 1 "1uF" H 10015 1705 50  0000 L CNN
F 2 "IPC-7351-CAPC:CAPC_1005x015" H 9938 1600 50  0001 C CNN
F 3 "~" H 9900 1750 50  0001 C CNN
F 4 "CL05A105MQ5NNNC" H 9900 1750 50  0001 C CNN "mpn"
	1    9900 1750
	1    0    0    -1  
$EndComp
Text Label 8300 2500 0    50   ~ 0
RTS
Connection ~ 8600 2500
Wire Wire Line
	8600 2500 8300 2500
Text Label 8300 1800 0    50   ~ 0
DTR
Connection ~ 8500 1800
Wire Wire Line
	8500 1800 8300 1800
Wire Wire Line
	11700 1800 11200 1800
Wire Wire Line
	9400 1000 9400 1100
$Comp
L power:+3.3V #PWR0111
U 1 1 5CE2B522
P 9400 1000
F 0 "#PWR0111" H 9400 850 50  0001 C CNN
F 1 "+3.3V" H 9415 1173 50  0000 C CNN
F 2 "" H 9400 1000 50  0001 C CNN
F 3 "" H 9400 1000 50  0001 C CNN
	1    9400 1000
	1    0    0    -1  
$EndComp
Wire Wire Line
	9400 1500 9400 1400
Connection ~ 9400 1500
Wire Wire Line
	9400 1500 9900 1500
$Comp
L Device:R R114
U 1 1 5CE24B18
P 9400 1250
F 0 "R114" H 9330 1204 50  0000 R CNN
F 1 "10k" H 9330 1295 50  0000 R CNN
F 2 "IPC-7351-RESC:RESC_1005x015" V 9330 1250 50  0001 C CNN
F 3 "~" H 9400 1250 50  0001 C CNN
	1    9400 1250
	-1   0    0    1   
$EndComp
$Comp
L power:+3.3V #PWR0110
U 1 1 5CDEC039
P 12300 800
F 0 "#PWR0110" H 12300 650 50  0001 C CNN
F 1 "+3.3V" H 12315 973 50  0000 C CNN
F 2 "" H 12300 800 50  0001 C CNN
F 3 "" H 12300 800 50  0001 C CNN
	1    12300 800 
	1    0    0    -1  
$EndComp
Wire Wire Line
	9400 1600 9400 1500
Text Label 10500 1500 2    50   ~ 0
MCU_RESET
Wire Wire Line
	9400 2700 9400 2800
Wire Wire Line
	9400 2200 9400 2300
Wire Wire Line
	8500 2200 9400 2200
Wire Wire Line
	8500 1800 8500 2200
Wire Wire Line
	8700 1800 8500 1800
Wire Wire Line
	8600 2500 8700 2500
Wire Wire Line
	8600 2100 8600 2500
Wire Wire Line
	9400 2100 8600 2100
Wire Wire Line
	9400 2000 9400 2100
Wire Wire Line
	9000 2500 9100 2500
Wire Wire Line
	9000 1800 9100 1800
$Comp
L Device:R R113
U 1 1 5CD6224F
P 8850 2500
F 0 "R113" V 8643 2500 50  0000 C CNN
F 1 "10k" V 8734 2500 50  0000 C CNN
F 2 "IPC-7351-RESC:RESC_1005x015" V 8780 2500 50  0001 C CNN
F 3 "~" H 8850 2500 50  0001 C CNN
	1    8850 2500
	0    1    1    0   
$EndComp
$Comp
L Device:R R112
U 1 1 5CD61EF7
P 8850 1800
F 0 "R112" V 8643 1800 50  0000 C CNN
F 1 "10k" V 8734 1800 50  0000 C CNN
F 2 "IPC-7351-RESC:RESC_1005x015" V 8780 1800 50  0001 C CNN
F 3 "~" H 8850 1800 50  0001 C CNN
	1    8850 1800
	0    1    1    0   
$EndComp
Wire Wire Line
	12900 1800 13700 1800
Text Label 13700 1800 2    50   ~ 0
MCU_IO0
Text Label 13700 1900 2    50   ~ 0
MCU_TX
Text Label 13700 2100 2    50   ~ 0
MCU_RX
Text Label 11200 1800 0    50   ~ 0
MCU_RESET
NoConn ~ 11700 3500
NoConn ~ 11700 3400
NoConn ~ 11700 3300
NoConn ~ 11700 3200
NoConn ~ 11700 3100
NoConn ~ 11700 3000
$Comp
L RF_Module:ESP32-WROOM-32D U103
U 1 1 5CB4329E
P 12300 3000
F 0 "U103" H 11900 4400 50  0000 C CNN
F 1 "ESP32-WROOM-32D" V 12300 3000 50  0000 C CNN
F 2 "RF_Module:ESP32-WROOM-32" H 12300 1500 50  0001 C CNN
F 3 "https://www.espressif.com/sites/default/files/documentation/esp32-wroom-32d_esp32-wroom-32u_datasheet_en.pdf" H 12000 3050 50  0001 C CNN
	1    12300 3000
	1    0    0    -1  
$EndComp
Wire Wire Line
	12300 900  12300 1600
Connection ~ 12300 900 
Wire Wire Line
	12700 900  12300 900 
Connection ~ 12700 900 
Wire Wire Line
	12700 900  12700 1000
Wire Wire Line
	13200 900  12700 900 
Wire Wire Line
	13200 1000 13200 900 
Wire Wire Line
	13200 1400 13200 1300
$Comp
L power:GND #PWR0104
U 1 1 5CBB224D
P 13200 1400
F 0 "#PWR0104" H 13200 1150 50  0001 C CNN
F 1 "GND" H 13205 1227 50  0000 C CNN
F 2 "" H 13200 1400 50  0001 C CNN
F 3 "" H 13200 1400 50  0001 C CNN
	1    13200 1400
	1    0    0    -1  
$EndComp
$Comp
L Device:C C101
U 1 1 5CBA750D
P 12700 1150
F 0 "C101" H 12815 1196 50  0000 L CNN
F 1 "100nF" H 12815 1105 50  0000 L CNN
F 2 "IPC-7351-CAPC:CAPC_1005x015" H 12738 1000 50  0001 C CNN
F 3 "~" H 12700 1150 50  0001 C CNN
F 4 "CL05B104KO5NNNC" H 12700 1150 50  0001 C CNN "mpn"
	1    12700 1150
	1    0    0    -1  
$EndComp
$Comp
L Device:C C102
U 1 1 5CBA7E9E
P 13200 1150
F 0 "C102" H 13315 1196 50  0000 L CNN
F 1 "10uF" H 13315 1105 50  0000 L CNN
F 2 "IPC-7351-CAPC:CAPC_2012x040" H 13238 1000 50  0001 C CNN
F 3 "~" H 13200 1150 50  0001 C CNN
F 4 "CL21B106KOQNNNE" H 13200 1150 50  0001 C CNN "mpn"
	1    13200 1150
	1    0    0    -1  
$EndComp
Wire Wire Line
	12700 1400 12700 1300
$Comp
L power:GND #PWR0103
U 1 1 5CBA8A48
P 12700 1400
F 0 "#PWR0103" H 12700 1150 50  0001 C CNN
F 1 "GND" H 12705 1227 50  0000 C CNN
F 2 "" H 12700 1400 50  0001 C CNN
F 3 "" H 12700 1400 50  0001 C CNN
	1    12700 1400
	1    0    0    -1  
$EndComp
Wire Wire Line
	12300 800  12300 900 
$Comp
L power:GND #PWR0102
U 1 1 5CBA4A88
P 12300 4500
F 0 "#PWR0102" H 12300 4250 50  0001 C CNN
F 1 "GND" H 12305 4327 50  0000 C CNN
F 2 "" H 12300 4500 50  0001 C CNN
F 3 "" H 12300 4500 50  0001 C CNN
	1    12300 4500
	1    0    0    -1  
$EndComp
Wire Wire Line
	12300 4400 12300 4500
$Comp
L Device:LED D101
U 1 1 5DDFE423
P 16800 6150
F 0 "D101" V 16892 6032 50  0000 R CNN
F 1 "POWER" V 16801 6032 50  0000 R CNN
F 2 "IPC-7351-LEDSC:LEDSC_3216x060" H 16800 6150 50  0001 C CNN
F 3 "~" H 16800 6150 50  0001 C CNN
F 4 "Green" V 16702 6032 50  0000 R CNN "color"
F 5 "CMD15-21VGD/TR8" H 16800 6150 50  0001 C CNN "mpn"
F 6 "LED" H 16800 6150 50  0001 C CNN "role"
F 7 "5 mA" H 16800 6150 50  0001 C CNN "I"
F 8 "~" H 16800 6150 50  0001 C CNN "Vf"
F 9 "3.3" H 16800 6150 50  0001 C CNN "V"
	1    16800 6150
	0    -1   -1   0   
$EndComp
$Comp
L Device:R R122
U 1 1 5DDFE42A
P 16800 6550
F 0 "R122" H 16870 6596 50  0000 L CNN
F 1 "~" H 16870 6505 50  0000 L CNN
F 2 "IPC-7351-RESC:RESC_1005x015" V 16730 6550 50  0001 C CNN
F 3 "" H 16800 6550 50  0001 C CNN
F 4 "RC1005F561CS" V 16800 6550 50  0001 C CNN "mpn"
	1    16800 6550
	1    0    0    -1  
$EndComp
$Comp
L power:GND #PWR0161
U 1 1 5DDFE430
P 16800 6800
F 0 "#PWR0161" H 16800 6550 50  0001 C CNN
F 1 "GND" H 16800 6650 50  0000 C CNN
F 2 "" H 16800 6800 50  0001 C CNN
F 3 "" H 16800 6800 50  0001 C CNN
	1    16800 6800
	1    0    0    -1  
$EndComp
$Comp
L Device:C C118
U 1 1 5DDFE439
P 12100 6150
F 0 "C118" H 12215 6241 50  0000 L CNN
F 1 "100nF" H 12215 6150 50  0000 L CNN
F 2 "IPC-7351-CAPC:CAPC_2012x040" H 12138 6000 50  0001 C CNN
F 3 "" H 12100 6150 50  0000 C CNN
F 4 "0.1u" H 12100 6150 50  0001 C CNN "ta_value"
F 5 "35V" H 12215 6059 50  0000 L CNN "Voltage"
F 6 "CL21B104MBCNNNC" H 12100 6150 50  0001 C CNN "mpn"
	1    12100 6150
	1    0    0    -1  
$EndComp
$Comp
L Device:C C124
U 1 1 5DDFE442
P 15900 6150
F 0 "C124" H 16015 6241 50  0000 L CNN
F 1 "22uF" H 16015 6150 50  0000 L CNN
F 2 "IPC-7351-CAPC:CAPC_2012x040" H 15938 6000 50  0001 C CNN
F 3 "" H 15900 6150 50  0000 C CNN
F 4 "C4" H 15900 6150 50  0001 C CNN "ta_ref"
F 5 "10V" H 16015 6059 50  0000 L CNN "Voltage"
F 6 "CL21A226MQCLQNC" H 15900 6150 50  0001 C CNN "mpn"
	1    15900 6150
	1    0    0    -1  
$EndComp
$Comp
L Device:C C126
U 1 1 5DDFE44B
P 16400 6150
F 0 "C126" H 16515 6241 50  0000 L CNN
F 1 "22uF" H 16515 6150 50  0000 L CNN
F 2 "IPC-7351-CAPC:CAPC_2012x040" H 16438 6000 50  0001 C CNN
F 3 "" H 16400 6150 50  0000 C CNN
F 4 "C5" H 16400 6150 50  0001 C CNN "ta_ref"
F 5 "10V" H 16515 6059 50  0000 L CNN "Voltage"
F 6 "CL21A226MQCLQNC" H 16400 6150 50  0001 C CNN "mpn"
	1    16400 6150
	1    0    0    -1  
$EndComp
$Comp
L Device:R R103
U 1 1 5DDFE46A
P 15400 6150
F 0 "R103" H 15470 6196 50  0000 L CNN
F 1 "100k" H 15470 6105 50  0000 L CNN
F 2 "IPC-7351-RESC:RESC_1005x015" V 15330 6150 50  0001 C CNN
F 3 "" H 15400 6150 50  0000 C CNN
F 4 "R2" V 15400 6150 50  0001 C CNN "ta_ref"
F 5 "RC0402FR-07100KL" V 15400 6150 50  0001 C CNN "mpn"
	1    15400 6150
	1    0    0    -1  
$EndComp
$Comp
L power:GND #PWR0162
U 1 1 5DDFE470
P 15400 6900
F 0 "#PWR0162" H 15400 6650 50  0001 C CNN
F 1 "GND" H 15400 6750 50  0000 C CNN
F 2 "" H 15400 6900 50  0001 C CNN
F 3 "" H 15400 6900 50  0001 C CNN
	1    15400 6900
	1    0    0    -1  
$EndComp
$Comp
L power:GND #PWR0163
U 1 1 5DDFE476
P 13200 6800
F 0 "#PWR0163" H 13200 6550 50  0001 C CNN
F 1 "GND" H 13200 6650 50  0000 C CNN
F 2 "" H 13200 6800 50  0001 C CNN
F 3 "" H 13200 6800 50  0001 C CNN
	1    13200 6800
	1    0    0    -1  
$EndComp
$Comp
L power:GND #PWR0164
U 1 1 5DDFE47C
P 12100 6400
F 0 "#PWR0164" H 12100 6150 50  0001 C CNN
F 1 "GND" H 12100 6250 50  0000 C CNN
F 2 "" H 12100 6400 50  0001 C CNN
F 3 "" H 12100 6400 50  0001 C CNN
	1    12100 6400
	1    0    0    -1  
$EndComp
$Comp
L power:GND #PWR0165
U 1 1 5DDFE482
P 11600 6400
F 0 "#PWR0165" H 11600 6150 50  0001 C CNN
F 1 "GND" H 11600 6250 50  0000 C CNN
F 2 "" H 11600 6400 50  0001 C CNN
F 3 "" H 11600 6400 50  0001 C CNN
	1    11600 6400
	1    0    0    -1  
$EndComp
$Comp
L Device:C C120
U 1 1 5DDFE491
P 14300 5650
F 0 "C120" H 14415 5741 50  0000 L CNN
F 1 "100nF" H 14415 5650 50  0000 L CNN
F 2 "IPC-7351-CAPC:CAPC_2012x040" H 14338 5500 50  0001 C CNN
F 3 "" H 14300 5650 50  0000 C CNN
F 4 "C3" H 14300 5650 50  0001 C CNN "ta_ref"
F 5 "35V" H 14415 5559 50  0000 L CNN "Voltage"
F 6 "CL21B104MBCNNNC" H 14300 5650 50  0001 C CNN "mpn"
F 7 "10V" H 14300 5650 50  0001 C CNN "req_voltage"
	1    14300 5650
	1    0    0    -1  
$EndComp
NoConn ~ 12500 6100
$Comp
L Device:R R105
U 1 1 5DDFE4AE
P 15400 6650
F 0 "R105" H 15470 6696 50  0000 L CNN
F 1 "22.1k" H 15470 6605 50  0000 L CNN
F 2 "IPC-7351-RESC:RESC_1005x015" V 15330 6650 50  0001 C CNN
F 3 "" H 15400 6650 50  0000 C CNN
F 4 "R3" V 15400 6650 50  0001 C CNN "ta_ref"
F 5 "RC0402FR-0713K3L" V 15400 6650 50  0001 C CNN "mpn"
	1    15400 6650
	1    0    0    -1  
$EndComp
$Comp
L Device:C C122
U 1 1 5DDFE4B7
P 15100 6150
F 0 "C122" H 14986 6241 50  0000 R CNN
F 1 "56pF" H 14986 6150 50  0000 R CNN
F 2 "IPC-7351-CAPC:CAPC_1005x015" H 15138 6000 50  0001 C CNN
F 3 "" H 15100 6150 50  0000 C CNN
F 4 "C6" H 15100 6150 50  0001 C CNN "ta_ref"
F 5 "10V" H 14986 6059 50  0000 R CNN "Voltage"
F 6 "CL05C560JB5NNNC" H 15100 6150 50  0001 C CNN "mpn"
	1    15100 6150
	1    0    0    -1  
$EndComp
$Comp
L Connector:TestPoint TP102
U 1 1 5DDFE4C0
P 15900 5800
F 0 "TP102" H 15900 6070 50  0000 C CNN
F 1 "+3.3V" H 15900 6000 50  0000 C CNN
F 2 "TestPoint:TestPoint_Pad_D1.0mm" H 16100 5800 50  0001 C CNN
F 3 "" H 16100 5800 50  0001 C CNN
F 4 "footprint only" H 15900 5800 60  0001 C CNN "assembly"
	1    15900 5800
	1    0    0    -1  
$EndComp
Wire Wire Line
	16900 5900 16900 5800
Wire Wire Line
	16800 6800 16800 6700
Wire Wire Line
	16800 6400 16800 6300
Wire Wire Line
	16800 5800 16800 5900
Connection ~ 16800 5900
Wire Wire Line
	11400 5900 11400 5800
Wire Wire Line
	13900 5900 14300 5900
Wire Wire Line
	14900 5900 15100 5900
Wire Wire Line
	15400 6800 15400 6900
Wire Wire Line
	13200 6800 13200 6700
Wire Wire Line
	11600 6000 11600 5900
Connection ~ 11600 5900
Wire Wire Line
	12100 6000 12100 5900
Connection ~ 12100 5900
Wire Wire Line
	12100 6300 12100 6400
Wire Wire Line
	13900 5400 14300 5400
Wire Wire Line
	14300 5400 14300 5500
Wire Wire Line
	14300 5900 14300 5800
Connection ~ 14300 5900
Wire Wire Line
	15900 5800 15900 5900
Connection ~ 15900 5900
Wire Wire Line
	16400 6000 16400 5900
Connection ~ 16400 5900
Wire Wire Line
	15400 6300 15400 6400
Wire Wire Line
	13900 6400 15100 6400
Wire Wire Line
	15100 6400 15100 6300
Connection ~ 15400 6400
Connection ~ 15100 6400
Wire Wire Line
	15100 5900 15100 6000
Wire Wire Line
	15400 5900 15400 6000
Connection ~ 15100 5900
Connection ~ 15400 5900
$Comp
L unlockoslo:Vin #PWR0167
U 1 1 5DDFE4F7
P 11400 5800
F 0 "#PWR0167" H 11400 5650 50  0001 C CNN
F 1 "Vin" H 11400 5940 50  0000 C CNN
F 2 "" H 11400 5800 50  0000 C CNN
F 3 "" H 11400 5800 50  0000 C CNN
	1    11400 5800
	1    0    0    -1  
$EndComp
$Comp
L power:PWR_FLAG #FLG0110
U 1 1 5DDFE4FD
P 16800 5800
F 0 "#FLG0110" H 16800 5875 50  0001 C CNN
F 1 "PWR_FLAG" H 16800 5950 50  0001 C CNN
F 2 "" H 16800 5800 50  0001 C CNN
F 3 "" H 16800 5800 50  0001 C CNN
	1    16800 5800
	1    0    0    -1  
$EndComp
Text Label 13900 5900 0    50   ~ 0
SW_3.3V
Text Label 13900 5400 0    50   ~ 0
BOOT_3.3V
Text Label 13900 6400 0    60   ~ 0
FB_3.3V
Wire Wire Line
	16800 5900 16800 6000
Wire Wire Line
	16800 5900 16900 5900
Wire Wire Line
	11600 5900 12100 5900
Wire Wire Line
	12100 5900 12500 5900
Wire Wire Line
	14300 5900 14600 5900
Wire Wire Line
	15900 5900 16400 5900
Wire Wire Line
	15900 5900 15900 6000
Wire Wire Line
	16400 5900 16800 5900
Wire Wire Line
	15400 6400 15400 6500
Wire Wire Line
	15100 6400 15400 6400
Wire Wire Line
	15100 5900 15400 5900
Wire Wire Line
	15400 5900 15900 5900
$Comp
L Device:LED D102
U 1 1 5DE4302B
P 16800 8250
F 0 "D102" V 16884 8132 50  0000 R CNN
F 1 "POWER" V 16793 8132 50  0000 R CNN
F 2 "IPC-7351-LEDSC:LEDSC_3216x060" H 16800 8250 50  0001 C CNN
F 3 "" H 16800 8250 50  0001 C CNN
F 4 "Green" V 16702 8132 50  0000 R CNN "color"
F 5 "CMD15-21VGD/TR8" H 16800 8250 50  0001 C CNN "mpn"
F 6 "LED" H 16800 8250 50  0001 C CNN "role"
F 7 "5 mA" H 16800 8250 50  0001 C CNN "I"
F 8 "?" H 16800 8250 50  0001 C CNN "Vf"
F 9 "?" H 16800 8250 50  0001 C CNN "Vin"
	1    16800 8250
	0    -1   -1   0   
$EndComp
$Comp
L Device:R R123
U 1 1 5DE43032
P 16800 8650
F 0 "R123" H 16870 8650 50  0000 L CNN
F 1 "~" H 16870 8605 50  0000 L CNN
F 2 "IPC-7351-RESC:RESC_1005x015" V 16730 8650 50  0001 C CNN
F 3 "" H 16800 8650 50  0001 C CNN
F 4 "RC1005F561CS" V 16800 8650 50  0001 C CNN "mpn"
	1    16800 8650
	1    0    0    -1  
$EndComp
$Comp
L power:GND #PWR0169
U 1 1 5DE43038
P 16800 8900
F 0 "#PWR0169" H 16800 8650 50  0001 C CNN
F 1 "GND" H 16800 8750 50  0000 C CNN
F 2 "" H 16800 8900 50  0001 C CNN
F 3 "" H 16800 8900 50  0001 C CNN
	1    16800 8900
	1    0    0    -1  
$EndComp
$Comp
L Device:C C119
U 1 1 5DE43041
P 12100 8250
F 0 "C119" H 12215 8341 50  0000 L CNN
F 1 "100nF" H 12215 8250 50  0000 L CNN
F 2 "IPC-7351-CAPC:CAPC_2012x040" H 12138 8100 50  0001 C CNN
F 3 "" H 12100 8250 50  0000 C CNN
F 4 "0.1u" H 12100 8250 50  0001 C CNN "ta_value"
F 5 "35V" H 12215 8159 50  0000 L CNN "Voltage"
F 6 "CL21B104MBCNNNC" H 12100 8250 50  0001 C CNN "mpn"
	1    12100 8250
	1    0    0    -1  
$EndComp
$Comp
L Device:C C125
U 1 1 5DE4304A
P 15900 8250
F 0 "C125" H 16015 8341 50  0000 L CNN
F 1 "22uF" H 16015 8250 50  0000 L CNN
F 2 "IPC-7351-CAPC:CAPC_2012x040" H 15938 8100 50  0001 C CNN
F 3 "" H 15900 8250 50  0000 C CNN
F 4 "C4" H 15900 8250 50  0001 C CNN "ta_ref"
F 5 "25V" H 16015 8159 50  0000 L CNN "Voltage"
F 6 "CL21A226MQCLQNC" H 15900 8250 50  0001 C CNN "mpn"
	1    15900 8250
	1    0    0    -1  
$EndComp
$Comp
L Device:C C127
U 1 1 5DE43053
P 16400 8250
F 0 "C127" H 16515 8341 50  0000 L CNN
F 1 "22uF" H 16515 8250 50  0000 L CNN
F 2 "IPC-7351-CAPC:CAPC_2012x040" H 16438 8100 50  0001 C CNN
F 3 "" H 16400 8250 50  0000 C CNN
F 4 "C5" H 16400 8250 50  0001 C CNN "ta_ref"
F 5 "25V" H 16515 8159 50  0000 L CNN "Voltage"
F 6 "CL21A226MQCLQNC" H 16400 8250 50  0001 C CNN "mpn"
	1    16400 8250
	1    0    0    -1  
$EndComp
$Comp
L Device:R R111
U 1 1 5DE43072
P 15400 8250
F 0 "R111" H 15470 8296 50  0000 L CNN
F 1 "100k" H 15470 8205 50  0000 L CNN
F 2 "IPC-7351-RESC:RESC_1005x015" V 15330 8250 50  0001 C CNN
F 3 "" H 15400 8250 50  0000 C CNN
F 4 "R2" V 15400 8250 50  0001 C CNN "ta_ref"
F 5 "RC0402FR-07100KL" V 15400 8250 50  0001 C CNN "mpn"
	1    15400 8250
	1    0    0    -1  
$EndComp
$Comp
L power:GND #PWR0170
U 1 1 5DE43078
P 15400 9000
F 0 "#PWR0170" H 15400 8750 50  0001 C CNN
F 1 "GND" H 15400 8850 50  0000 C CNN
F 2 "" H 15400 9000 50  0001 C CNN
F 3 "" H 15400 9000 50  0001 C CNN
	1    15400 9000
	1    0    0    -1  
$EndComp
$Comp
L power:GND #PWR0171
U 1 1 5DE4307E
P 13200 8900
F 0 "#PWR0171" H 13200 8650 50  0001 C CNN
F 1 "GND" H 13200 8750 50  0000 C CNN
F 2 "" H 13200 8900 50  0001 C CNN
F 3 "" H 13200 8900 50  0001 C CNN
	1    13200 8900
	1    0    0    -1  
$EndComp
$Comp
L power:GND #PWR0172
U 1 1 5DE43084
P 12100 8500
F 0 "#PWR0172" H 12100 8250 50  0001 C CNN
F 1 "GND" H 12100 8350 50  0000 C CNN
F 2 "" H 12100 8500 50  0001 C CNN
F 3 "" H 12100 8500 50  0001 C CNN
	1    12100 8500
	1    0    0    -1  
$EndComp
$Comp
L power:GND #PWR0173
U 1 1 5DE4308A
P 11650 8500
F 0 "#PWR0173" H 11650 8250 50  0001 C CNN
F 1 "GND" H 11650 8350 50  0000 C CNN
F 2 "" H 11650 8500 50  0001 C CNN
F 3 "" H 11650 8500 50  0001 C CNN
	1    11650 8500
	1    0    0    -1  
$EndComp
$Comp
L Device:C C121
U 1 1 5DE43099
P 14300 7750
F 0 "C121" H 14415 7841 50  0000 L CNN
F 1 "100nF" H 14415 7750 50  0000 L CNN
F 2 "IPC-7351-CAPC:CAPC_2012x040" H 14338 7600 50  0001 C CNN
F 3 "" H 14300 7750 50  0000 C CNN
F 4 "C3" H 14300 7750 50  0001 C CNN "ta_ref"
F 5 "35V" H 14415 7659 50  0000 L CNN "Voltage"
F 6 "CL21B104MBCNNNC" H 14300 7750 50  0001 C CNN "mpn"
F 7 "25V" H 14300 7750 50  0001 C CNN "req_voltage"
	1    14300 7750
	1    0    0    -1  
$EndComp
$Comp
L Device:L_Core_Ferrite L102
U 1 1 5DE430A1
P 14750 8000
F 0 "L102" V 14975 8000 50  0000 C CNN
F 1 "22uH" V 14884 8000 50  0000 C CNN
F 2 "Inductor_SMD:L_Taiyo-Yuden_NR-80xx" H 14750 8000 50  0001 C CNN
F 3 "https://ds.yuden.co.jp/TYCOMPAS/ut/detail?pn=NRS8040T220MJGJ%20%20&u=M" H 14750 8000 50  0001 C CNN
F 4 "L1" V 14750 8000 50  0001 C CNN "ta_ref"
F 5 "2A" V 14750 8000 50  0001 C CNN "Imin"
F 6 "NRS8040T220MJGJ" V 14750 8000 50  0001 C CNN "mpn"
	1    14750 8000
	0    1    -1   0   
$EndComp
$Comp
L power:GND #PWR0175
U 1 1 5DE430A7
P 16400 8500
F 0 "#PWR0175" H 16400 8250 50  0001 C CNN
F 1 "GND" H 16400 8350 50  0000 C CNN
F 2 "" H 16400 8500 50  0001 C CNN
F 3 "" H 16400 8500 50  0001 C CNN
	1    16400 8500
	1    0    0    -1  
$EndComp
$Comp
L power:GND #PWR0176
U 1 1 5DE430AD
P 15900 8500
F 0 "#PWR0176" H 15900 8250 50  0001 C CNN
F 1 "GND" H 15900 8350 50  0000 C CNN
F 2 "" H 15900 8500 50  0001 C CNN
F 3 "" H 15900 8500 50  0001 C CNN
	1    15900 8500
	1    0    0    -1  
$EndComp
NoConn ~ 12500 8200
$Comp
L Device:R R121
U 1 1 5DE430B6
P 15400 8750
F 0 "R121" H 15470 8796 50  0000 L CNN
F 1 "5.23k" H 15470 8705 50  0000 L CNN
F 2 "IPC-7351-RESC:RESC_1005x015" V 15330 8750 50  0001 C CNN
F 3 "" H 15400 8750 50  0000 C CNN
F 4 "R3" V 15400 8750 50  0001 C CNN "ta_ref"
F 5 "RC0402FR-0713K3L" V 15400 8750 50  0001 C CNN "mpn"
	1    15400 8750
	1    0    0    -1  
$EndComp
$Comp
L Device:C C123
U 1 1 5DE430BF
P 15100 8250
F 0 "C123" H 14986 8341 50  0000 R CNN
F 1 "100pF" H 14986 8250 50  0000 R CNN
F 2 "IPC-7351-CAPC:CAPC_1005x015" H 15138 8100 50  0001 C CNN
F 3 "" H 15100 8250 50  0000 C CNN
F 4 "C6" H 15100 8250 50  0001 C CNN "ta_ref"
F 5 "25V" H 14986 8159 50  0000 R CNN "Voltage"
F 6 "CL05C101JB5NNNC" H 15100 8250 50  0001 C CNN "mpn"
	1    15100 8250
	1    0    0    -1  
$EndComp
$Comp
L Connector:TestPoint TP103
U 1 1 5DE430C8
P 15900 7900
F 0 "TP103" H 15900 8170 50  0000 C CNN
F 1 "+12V" H 15900 8100 50  0000 C CNN
F 2 "TestPoint:TestPoint_Pad_D1.0mm" H 16100 7900 50  0001 C CNN
F 3 "" H 16100 7900 50  0001 C CNN
F 4 "footprint only" H 15900 7900 60  0001 C CNN "assembly"
	1    15900 7900
	1    0    0    -1  
$EndComp
Wire Wire Line
	16900 8000 16900 7900
Wire Wire Line
	16800 8900 16800 8800
Wire Wire Line
	16800 8500 16800 8400
Wire Wire Line
	16800 7900 16800 8000
Connection ~ 16800 8000
Wire Wire Line
	11450 8000 11450 7900
Wire Wire Line
	13900 8000 14300 8000
Wire Wire Line
	14900 8000 15100 8000
Wire Wire Line
	15400 8900 15400 9000
Wire Wire Line
	13200 8900 13200 8800
Wire Wire Line
	11650 8100 11650 8000
Connection ~ 11650 8000
Wire Wire Line
	12100 8100 12100 8000
Connection ~ 12100 8000
Wire Wire Line
	11650 8400 11650 8500
Wire Wire Line
	12100 8400 12100 8500
Wire Wire Line
	13900 7500 14300 7500
Wire Wire Line
	14300 7500 14300 7600
Wire Wire Line
	14300 8000 14300 7900
Connection ~ 14300 8000
Wire Wire Line
	15900 7900 15900 8000
Connection ~ 15900 8000
Wire Wire Line
	16400 8100 16400 8000
Connection ~ 16400 8000
Wire Wire Line
	16400 8500 16400 8400
Wire Wire Line
	15900 8500 15900 8400
Wire Wire Line
	15400 8400 15400 8500
Wire Wire Line
	13900 8500 15100 8500
Wire Wire Line
	15100 8500 15100 8400
Connection ~ 15400 8500
Connection ~ 15100 8500
Wire Wire Line
	15100 8000 15100 8100
Wire Wire Line
	15400 8000 15400 8100
Connection ~ 15100 8000
Connection ~ 15400 8000
$Comp
L unlockoslo:Vin #PWR0177
U 1 1 5DE430FF
P 11450 7900
F 0 "#PWR0177" H 11450 7750 50  0001 C CNN
F 1 "Vin" H 11450 8040 50  0000 C CNN
F 2 "" H 11450 7900 50  0000 C CNN
F 3 "" H 11450 7900 50  0000 C CNN
	1    11450 7900
	1    0    0    -1  
$EndComp
$Comp
L power:PWR_FLAG #FLG0113
U 1 1 5DE43105
P 16800 7900
F 0 "#FLG0113" H 16800 7975 50  0001 C CNN
F 1 "PWR_FLAG" H 16800 8050 50  0001 C CNN
F 2 "" H 16800 7900 50  0001 C CNN
F 3 "" H 16800 7900 50  0001 C CNN
	1    16800 7900
	1    0    0    -1  
$EndComp
Text Label 13900 8000 0    50   ~ 0
SW_12V
Text Label 13900 7500 0    50   ~ 0
BOOT_12V
Text Label 13900 8500 0    50   ~ 0
FB_12V
Wire Wire Line
	16800 8000 16800 8100
Wire Wire Line
	16800 8000 16900 8000
Wire Wire Line
	11650 8000 12100 8000
Wire Wire Line
	12100 8000 12500 8000
Wire Wire Line
	14300 8000 14600 8000
Wire Wire Line
	15900 8000 16400 8000
Wire Wire Line
	15900 8000 15900 8100
Wire Wire Line
	16400 8000 16800 8000
Wire Wire Line
	15400 8500 15400 8600
Wire Wire Line
	15100 8500 15400 8500
Wire Wire Line
	15100 8000 15400 8000
Wire Wire Line
	15400 8000 15900 8000
$Comp
L Device:C C117
U 1 1 5DE43120
P 11650 8250
F 0 "C117" H 11765 8341 50  0000 L CNN
F 1 "10uF" H 11765 8250 50  0000 L CNN
F 2 "IPC-7351-CAPC:CAPC_2012x040" H 11688 8100 50  0001 C CNN
F 3 "" H 11650 8250 50  0000 C CNN
F 4 "C1" H 11650 8250 50  0001 C CNN "ta_ref"
F 5 "35V" H 11765 8159 50  0000 L CNN "Voltage"
F 6 "GMK212BBJ106KG-T" H 11650 8250 50  0001 C CNN "mpn"
	1    11650 8250
	1    0    0    -1  
$EndComp
$Sheet
S 2600 4100 1200 500 
U 5CF0CD73
F0 "Power mux" 50
F1 "power-mux.sch" 50
F2 "Vout" I R 3800 4200 50 
F3 "Vin_PoE" I L 2600 4400 50 
F4 "Vin_adapter" I L 2600 4300 50 
F5 "Vin_USB" I L 2600 4200 50 
F6 "~Valid_PoE" I R 3800 4300 50 
F7 "~Valid_adapter" I R 3800 4400 50 
F8 "~Valid_USB" I R 3800 4500 50 
$EndSheet
Wire Wire Line
	6500 9500 6500 9900
Wire Wire Line
	1200 6400 1300 6400
Wire Wire Line
	1100 6300 1300 6300
Wire Wire Line
	1300 6200 1000 6200
Wire Wire Line
	2400 6100 2500 6100
Wire Wire Line
	1300 4300 1400 4300
Wire Wire Line
	15900 6400 15900 6300
Wire Wire Line
	16400 6400 16400 6300
$Comp
L power:GND #PWR0178
U 1 1 5DDFE4A5
P 15900 6400
F 0 "#PWR0178" H 15900 6150 50  0001 C CNN
F 1 "GND" H 15900 6250 50  0000 C CNN
F 2 "" H 15900 6400 50  0001 C CNN
F 3 "" H 15900 6400 50  0001 C CNN
	1    15900 6400
	1    0    0    -1  
$EndComp
$Comp
L power:GND #PWR0179
U 1 1 5DDFE49F
P 16400 6400
F 0 "#PWR0179" H 16400 6150 50  0001 C CNN
F 1 "GND" H 16400 6250 50  0000 C CNN
F 2 "" H 16400 6400 50  0001 C CNN
F 3 "" H 16400 6400 50  0001 C CNN
	1    16400 6400
	1    0    0    -1  
$EndComp
Wire Wire Line
	3800 4200 3900 4200
$Comp
L unlockoslo:Vin #PWR0160
U 1 1 5E52301B
P 3900 4100
F 0 "#PWR0160" H 3900 3950 50  0001 C CNN
F 1 "Vin" H 3915 4273 50  0000 C CNN
F 2 "" H 3900 4100 50  0001 C CNN
F 3 "" H 3900 4100 50  0001 C CNN
	1    3900 4100
	1    0    0    -1  
$EndComp
Wire Wire Line
	11400 5900 11600 5900
Wire Wire Line
	11450 8000 11650 8000
Wire Wire Line
	3900 4100 3900 4200
Wire Wire Line
	2500 4400 2600 4400
Wire Wire Line
	2300 4200 2300 3400
Wire Wire Line
	2300 4200 2600 4200
$Comp
L power:+12V #PWR0166
U 1 1 5CF31978
P 16900 7900
F 0 "#PWR0166" H 16900 7750 50  0001 C CNN
F 1 "+12V" H 16915 8073 50  0000 C CNN
F 2 "" H 16900 7900 50  0001 C CNN
F 3 "" H 16900 7900 50  0001 C CNN
	1    16900 7900
	1    0    0    -1  
$EndComp
$Comp
L Device:C C116
U 1 1 5DDFE518
P 11600 6150
F 0 "C116" H 11715 6241 50  0000 L CNN
F 1 "10uF" H 11715 6150 50  0000 L CNN
F 2 "IPC-7351-CAPC:CAPC_2012x040" H 11638 6000 50  0001 C CNN
F 3 "" H 11600 6150 50  0000 C CNN
F 4 "C1" H 11600 6150 50  0001 C CNN "ta_ref"
F 5 "35V" H 11715 6059 50  0000 L CNN "Voltage"
F 6 "GMK212BBJ106KG-T" H 11600 6150 50  0001 C CNN "mpn"
	1    11600 6150
	1    0    0    -1  
$EndComp
$Comp
L Device:LED D103
U 1 1 5CC3BC53
P 7300 1950
F 0 "D103" V 7339 1832 50  0000 R CNN
F 1 "RX" V 7248 1832 50  0000 R CNN
F 2 "IPC-7351-LEDSC:LEDSC_3216x060" H 7300 1950 50  0001 C CNN
F 3 "~" H 7300 1950 50  0001 C CNN
F 4 "SML-P12VTT86R" V 7300 1950 50  0001 C CNN "mpn"
	1    7300 1950
	0    -1   -1   0   
$EndComp
Wire Wire Line
	5800 2700 7700 2700
Wire Wire Line
	7700 2500 7700 2700
Wire Wire Line
	7700 1700 7300 1700
Wire Wire Line
	7700 1800 7700 1700
Wire Wire Line
	7700 2200 7700 2100
$Comp
L Device:LED D104
U 1 1 5CC3EC2A
P 7700 1950
F 0 "D104" V 7739 1832 50  0000 R CNN
F 1 "TX" V 7648 1832 50  0000 R CNN
F 2 "IPC-7351-LEDSC:LEDSC_3216x060" H 7700 1950 50  0001 C CNN
F 3 "~" H 7700 1950 50  0001 C CNN
F 4 "SML-P12VTT86R" V 7700 1950 50  0001 C CNN "mpn"
	1    7700 1950
	0    -1   -1   0   
$EndComp
$Comp
L Device:R R106
U 1 1 5CD8FFCC
P 7300 2350
F 0 "R106" H 7230 2304 50  0000 R CNN
F 1 "120 Ω" H 7230 2395 50  0000 R CNN
F 2 "IPC-7351-RESC:RESC_1005x015" V 7230 2350 50  0001 C CNN
F 3 "~" H 7300 2350 50  0001 C CNN
	1    7300 2350
	-1   0    0    1   
$EndComp
$Comp
L Device:R R107
U 1 1 5CD8FDB9
P 7700 2350
F 0 "R107" H 7770 2396 50  0000 L CNN
F 1 "120 Ω" H 7770 2305 50  0000 L CNN
F 2 "IPC-7351-RESC:RESC_1005x015" V 7630 2350 50  0001 C CNN
F 3 "~" H 7700 2350 50  0001 C CNN
	1    7700 2350
	1    0    0    -1  
$EndComp
$Comp
L power:+3.3V #PWR0168
U 1 1 5D366B43
P 16900 5800
F 0 "#PWR0168" H 16900 5650 50  0001 C CNN
F 1 "+3.3V" H 16915 5973 50  0000 C CNN
F 2 "" H 16900 5800 50  0001 C CNN
F 3 "" H 16900 5800 50  0001 C CNN
	1    16900 5800
	1    0    0    -1  
$EndComp
$Comp
L tps54202:TPS54202 U105
U 1 1 5CEE0940
P 13200 5900
F 0 "U105" H 13200 6700 50  0000 C CNN
F 1 "TPS54202" H 13200 6600 50  0000 C CNN
F 2 "Package_TO_SOT_SMD:SOT-23-6" H 13200 5900 50  0001 C CNN
F 3 "http://www.ti.com/lit/ds/symlink/tps54202.pdf" H 13200 5900 50  0001 C CNN
F 4 "2A" H 13500 6600 50  0000 L CNN "Iout"
F 5 "3.3V" H 13500 6700 50  0000 L CNN "Vout"
F 6 "TPS54202DDCR" H 13200 5900 50  0001 C CNN "mpn"
	1    13200 5900
	1    0    0    -1  
$EndComp
$Comp
L tps54202:TPS54202 U106
U 1 1 5CF0858B
P 13200 8000
F 0 "U106" H 13200 8800 50  0000 C CNN
F 1 "TPS54202" H 13200 8700 50  0000 C CNN
F 2 "Package_TO_SOT_SMD:SOT-23-6" H 13200 8000 50  0001 C CNN
F 3 "http://www.ti.com/lit/ds/symlink/tps54202.pdf" H 13200 8000 50  0001 C CNN
F 4 "2A" H 13500 8700 50  0000 L CNN "Iout"
F 5 "12V" H 13500 8800 50  0000 L CNN "Vout"
F 6 "TPS54202DDCR" H 13200 8000 50  0001 C CNN "mpn"
	1    13200 8000
	1    0    0    -1  
$EndComp
Wire Wire Line
	11600 6300 11600 6400
$Comp
L Device:L_Core_Ferrite L101
U 1 1 5DDFE499
P 14750 5900
F 0 "L101" V 14975 5900 50  0000 C CNN
F 1 "10uH" V 14884 5900 50  0000 C CNN
F 2 "Inductor_SMD:L_Taiyo-Yuden_NR-60xx" H 14750 5900 50  0001 C CNN
F 3 "https://www.yuden.co.jp/productdata/catalog/wound04_e.pdf" H 14750 5900 50  0001 C CNN
F 4 "L1" V 14750 5900 50  0001 C CNN "ta_ref"
F 5 "2A" V 14750 5900 50  0001 C CNN "Imin"
F 6 "NR6045T100M" V 14750 5900 50  0001 C CNN "mpn"
	1    14750 5900
	0    1    -1   0   
$EndComp
$Comp
L Connector:TestPoint TP101
U 1 1 5DDF6049
P 4600 7400
F 0 "TP101" H 4658 7518 50  0001 L CNN
F 1 "PHY_VDDCR" H 4600 7633 50  0000 C CNN
F 2 "TestPoint:TestPoint_Pad_D1.0mm" H 4800 7400 50  0001 C CNN
F 3 "~" H 4800 7400 50  0001 C CNN
	1    4600 7400
	-1   0    0    -1  
$EndComp
Wire Wire Line
	12900 3800 13700 3800
Wire Wire Line
	12900 3900 13700 3900
Wire Wire Line
	13700 4000 12900 4000
Wire Wire Line
	13700 4100 12900 4100
Text Label 13700 4100 2    50   ~ 0
MCU_IO35
Text Label 13700 4000 2    50   ~ 0
MCU_IO34
Text Label 13700 3900 2    50   ~ 0
MCU_IO33
Text Label 13700 3800 2    50   ~ 0
MCU_IO32
Wire Wire Line
	13700 1900 12900 1900
Wire Wire Line
	13700 2000 12900 2000
Wire Wire Line
	13700 2100 12900 2100
Wire Wire Line
	13700 2200 12900 2200
Wire Wire Line
	13700 2300 12900 2300
Wire Wire Line
	13700 2400 12900 2400
Wire Wire Line
	13700 2500 12900 2500
Wire Wire Line
	13700 2600 12900 2600
Wire Wire Line
	13700 2700 12900 2700
Wire Wire Line
	13700 2800 12900 2800
$Comp
L power:+3.3V #PWR0174
U 1 1 5EB67F90
P 20800 1100
F 0 "#PWR0174" H 20800 950 50  0001 C CNN
F 1 "+3.3V" H 20815 1273 50  0000 C CNN
F 2 "" H 20800 1100 50  0001 C CNN
F 3 "" H 20800 1100 50  0001 C CNN
	1    20800 1100
	1    0    0    -1  
$EndComp
Wire Wire Line
	20800 1100 20800 1200
Wire Wire Line
	20800 1200 20900 1200
Wire Wire Line
	20900 1200 20900 1300
Connection ~ 20800 1200
Wire Wire Line
	20800 1200 20800 1300
Wire Wire Line
	21500 3400 22000 3400
Wire Wire Line
	21500 3300 22000 3300
Wire Wire Line
	21500 3100 22000 3100
Wire Wire Line
	21500 3000 22000 3000
Wire Wire Line
	21500 2900 22000 2900
Wire Wire Line
	21500 2800 22000 2800
Wire Wire Line
	21500 2700 22000 2700
Wire Wire Line
	21500 2100 22000 2100
Wire Wire Line
	21500 2000 22000 2000
Wire Wire Line
	21500 1800 22000 1800
Wire Wire Line
	21500 1700 22000 1700
Wire Wire Line
	19900 1700 19400 1700
Wire Wire Line
	19400 1800 19900 1800
Wire Wire Line
	19400 2200 19900 2200
Wire Wire Line
	19400 2400 19900 2400
Wire Wire Line
	19400 2500 19900 2500
Wire Wire Line
	19400 2600 19900 2600
Text Label 13700 2000 2    50   ~ 0
MCU_IO2
Text Label 13700 2200 2    50   ~ 0
MCU_IO4
Text Label 13700 2300 2    50   ~ 0
MCU_IO5
Text Label 13700 2400 2    50   ~ 0
MCU_IO12
Text Label 13700 2500 2    50   ~ 0
MCU_IO13
Text Label 13700 2600 2    50   ~ 0
MCU_IO14
Text Label 13700 2700 2    50   ~ 0
MCU_IO15
Text Label 13700 2800 2    50   ~ 0
MCU_IO16
Wire Wire Line
	19400 2800 19900 2800
Wire Wire Line
	19400 3000 19900 3000
Wire Wire Line
	19400 2900 19900 2900
Wire Wire Line
	19400 3100 19900 3100
Wire Wire Line
	19400 3200 19900 3200
Wire Wire Line
	19400 3300 19900 3300
Wire Wire Line
	21500 2300 22000 2300
Wire Wire Line
	22000 2400 21500 2400
Wire Wire Line
	22000 2500 21500 2500
Wire Wire Line
	19400 2000 19900 2000
Wire Wire Line
	19400 2100 19900 2100
Text Label 22000 2000 2    50   ~ 0
MCU_IO12
Text Label 19400 1700 0    50   ~ 0
MCU_TX
Text Label 19400 1800 0    50   ~ 0
MCU_RX
Text Label 15700 2400 0    50   ~ 0
MCU_IO16
Text Label 19400 2200 0    50   ~ 0
MCU_IO2
Text Label 22000 3300 2    50   ~ 0
MCU_IO4
Text Label 22000 3400 2    50   ~ 0
MCU_IO5
$Comp
L Interface_Expansion:MCP23S17_ML U107
U 1 1 5F178D13
P 16900 3000
F 0 "U107" H 17000 2000 50  0000 L CNN
F 1 "MCP23S17" H 17000 1900 50  0000 L CNN
F 2 "Package_DFN_QFN:QFN-28-1EP_6x6mm_P0.65mm_EP4.25x4.25mm" H 17100 2000 50  0001 L CNN
F 3 "http://ww1.microchip.com/downloads/en/DeviceDoc/20001952C.pdf" H 17100 1900 50  0001 L CNN
F 4 "MCP23S17T-E/ML" H 16900 3000 50  0001 C CNN "mpn"
	1    16900 3000
	1    0    0    -1  
$EndComp
Wire Wire Line
	17600 2200 18100 2200
Wire Wire Line
	17600 2300 18100 2300
Wire Wire Line
	17600 2400 18100 2400
Wire Wire Line
	17600 2600 18100 2600
Wire Wire Line
	17600 2700 18100 2700
Wire Wire Line
	17600 2800 18100 2800
Wire Wire Line
	17600 2900 18100 2900
Wire Wire Line
	17600 3100 18100 3100
Wire Wire Line
	17600 3200 18100 3200
Wire Wire Line
	17600 3300 18100 3300
Wire Wire Line
	17600 3400 18100 3400
Wire Wire Line
	17600 3500 18100 3500
Wire Wire Line
	17600 3600 18100 3600
Wire Wire Line
	17600 3700 18100 3700
Wire Wire Line
	17600 3800 18100 3800
Wire Wire Line
	17600 2500 18100 2500
Text Label 18100 2300 2    50   ~ 0
EXP_B1
Text Label 18100 2400 2    50   ~ 0
EXP_B2
Text Label 18100 2500 2    50   ~ 0
EXP_B3
Text Label 18100 2600 2    50   ~ 0
EXP_B4
Text Label 18100 2700 2    50   ~ 0
EXP_B5
Text Label 18100 2900 2    50   ~ 0
EXP_B7
Text Label 18100 3400 2    50   ~ 0
EXP_A3
Text Label 18100 3600 2    50   ~ 0
EXP_A5
Text Label 18100 3800 2    50   ~ 0
EXP_A7
$Comp
L power:GND #PWR0180
U 1 1 5F4C52C0
P 16800 4300
F 0 "#PWR0180" H 16800 4050 50  0001 C CNN
F 1 "GND" H 16805 4127 50  0000 C CNN
F 2 "" H 16800 4300 50  0001 C CNN
F 3 "" H 16800 4300 50  0001 C CNN
	1    16800 4300
	1    0    0    -1  
$EndComp
Wire Wire Line
	16800 4300 16800 4200
Wire Wire Line
	16800 4200 16900 4200
Wire Wire Line
	16900 4200 16900 4100
Connection ~ 16800 4200
Wire Wire Line
	16800 4200 16800 4100
Wire Wire Line
	16200 3100 15700 3100
Text Label 15700 3100 0    50   ~ 0
MCU_RESET
Text Label 19400 3100 0    50   ~ 0
EXP_B0
Text Label 22000 2900 2    50   ~ 0
EXP_B1
Text Label 19400 3000 0    50   ~ 0
EXP_B2
Text Label 19400 2900 0    50   ~ 0
EXP_B3
Text Label 19400 2800 0    50   ~ 0
EXP_B4
Text Label 19400 3300 0    50   ~ 0
EXP_B5
Text Label 19400 2100 0    50   ~ 0
EXP_B6
Text Label 22000 2300 2    50   ~ 0
EXP_B7
Text Label 19400 3200 0    50   ~ 0
EXP_A0
Text Label 19400 2000 0    50   ~ 0
EXP_A1
Text Label 22000 2500 2    50   ~ 0
EXP_A2
Text Label 22000 2400 2    50   ~ 0
EXP_A3
Text Label 22000 1800 2    50   ~ 0
EXP_A4
Text Label 22000 1700 2    50   ~ 0
EXP_A5
Text Label 22000 2700 2    50   ~ 0
EXP_A6
Wire Wire Line
	16200 3600 16100 3600
Wire Wire Line
	16100 3600 16100 3700
Wire Wire Line
	16100 3800 16200 3800
Connection ~ 16100 3800
Wire Wire Line
	16100 3800 16100 3900
Wire Wire Line
	16200 3700 16100 3700
Connection ~ 16100 3700
Wire Wire Line
	16100 3700 16100 3800
$Comp
L power:GND #PWR0181
U 1 1 5F5C5C5E
P 16100 3900
F 0 "#PWR0181" H 16100 3650 50  0001 C CNN
F 1 "GND" H 16105 3727 50  0000 C CNN
F 2 "" H 16100 3900 50  0001 C CNN
F 3 "" H 16100 3900 50  0001 C CNN
	1    16100 3900
	1    0    0    -1  
$EndComp
Text Label 15700 2500 0    50   ~ 0
MCU_IO35
Text Label 15700 2300 0    50   ~ 0
MCU_IO33
Text Label 15700 2200 0    50   ~ 0
MCU_IO32
Wire Wire Line
	15700 2500 16200 2500
Wire Wire Line
	16200 2400 15700 2400
Wire Wire Line
	15700 2200 16200 2200
Wire Wire Line
	15700 2300 16200 2300
Text Label 15700 2900 0    50   ~ 0
MCU_IO34
Text Label 22000 2800 2    50   ~ 0
EXP_A7
$Comp
L power:+3.3V #PWR0182
U 1 1 5F697C47
P 16900 1200
F 0 "#PWR0182" H 16900 1050 50  0001 C CNN
F 1 "+3.3V" H 16915 1373 50  0000 C CNN
F 2 "" H 16900 1200 50  0001 C CNN
F 3 "" H 16900 1200 50  0001 C CNN
	1    16900 1200
	1    0    0    -1  
$EndComp
$Comp
L Device:C C128
U 1 1 5F698A35
P 17100 1550
F 0 "C128" H 17215 1596 50  0000 L CNN
F 1 "100nF" H 17215 1505 50  0000 L CNN
F 2 "IPC-7351-CAPC:CAPC_2012x040" H 17138 1400 50  0001 C CNN
F 3 "~" H 17100 1550 50  0001 C CNN
F 4 "CL05B104KO5NNNC" H 17100 1550 50  0001 C CNN "mpn"
	1    17100 1550
	1    0    0    -1  
$EndComp
Wire Wire Line
	16900 1900 16900 1300
$Comp
L power:GND #PWR0183
U 1 1 5F6C8437
P 17100 1800
F 0 "#PWR0183" H 17100 1550 50  0001 C CNN
F 1 "GND" H 17105 1627 50  0000 C CNN
F 2 "" H 17100 1800 50  0001 C CNN
F 3 "" H 17100 1800 50  0001 C CNN
	1    17100 1800
	1    0    0    -1  
$EndComp
Wire Wire Line
	16900 1300 17100 1300
Wire Wire Line
	17100 1300 17100 1400
Connection ~ 16900 1300
Wire Wire Line
	16900 1300 16900 1200
Wire Wire Line
	17100 1700 17100 1800
Wire Wire Line
	7200 6800 7500 6800
Wire Wire Line
	15700 2900 16200 2900
NoConn ~ 16200 2800
$Comp
L Mechanical:MountingHole H101
U 1 1 5F943A57
P 17900 14800
F 0 "H101" H 18000 14800 50  0000 L CNN
F 1 "MountingHole" H 18000 14755 50  0001 L CNN
F 2 "MountingHole:MountingHole_2.5mm" H 17900 14800 50  0001 C CNN
F 3 "~" H 17900 14800 50  0001 C CNN
	1    17900 14800
	1    0    0    -1  
$EndComp
$Comp
L Mechanical:MountingHole H102
U 1 1 5F9447AB
P 17900 15000
F 0 "H102" H 18000 15000 50  0000 L CNN
F 1 "MountingHole" H 18000 14955 50  0001 L CNN
F 2 "MountingHole:MountingHole_2.5mm" H 17900 15000 50  0001 C CNN
F 3 "~" H 17900 15000 50  0001 C CNN
	1    17900 15000
	1    0    0    -1  
$EndComp
$Comp
L Mechanical:MountingHole H103
U 1 1 5F94490B
P 17900 15200
F 0 "H103" H 18000 15200 50  0000 L CNN
F 1 "MountingHole" H 18000 15155 50  0001 L CNN
F 2 "MountingHole:MountingHole_2.5mm" H 17900 15200 50  0001 C CNN
F 3 "~" H 17900 15200 50  0001 C CNN
	1    17900 15200
	1    0    0    -1  
$EndComp
$Comp
L Mechanical:MountingHole H104
U 1 1 5F944EA7
P 17900 15400
F 0 "H104" H 18000 15400 50  0000 L CNN
F 1 "MountingHole" H 18000 15355 50  0001 L CNN
F 2 "MountingHole:MountingHole_2.5mm" H 17900 15400 50  0001 C CNN
F 3 "~" H 17900 15400 50  0001 C CNN
	1    17900 15400
	1    0    0    -1  
$EndComp
Text Label 19400 2600 0    50   ~ 0
MCU_IO14
Text Label 7400 7200 0    50   ~ 0
MCU_IO15
Text Label 22000 2100 2    50   ~ 0
MCU_IO13
NoConn ~ 22000 3000
NoConn ~ 22000 3100
NoConn ~ 19400 2400
NoConn ~ 19400 2500
NoConn ~ 20600 1300
NoConn ~ 20500 1300
Wire Wire Line
	1100 1800 1200 1800
Text Label 2100 1400 0    50   ~ 0
D+
Text Label 2100 2600 0    50   ~ 0
D-
Text Notes 1800 11000 0    50   ~ 0
TODO: Connect to connector's shield
Text Notes 7850 6350 0    50   ~ 0
TODO: Move big capacitors outside of the switch
Text Label 18100 3700 2    50   ~ 0
EXP_A6
Text Label 18100 3500 2    50   ~ 0
EXP_A4
Text Label 18100 3300 2    50   ~ 0
EXP_A2
Text Label 18100 2200 2    50   ~ 0
EXP_B0
Text Label 18100 3200 2    50   ~ 0
EXP_A1
Text Label 18100 2800 2    50   ~ 0
EXP_B6
Text Label 18100 3100 2    50   ~ 0
EXP_A0
Wire Wire Line
	5100 7600 5500 7600
Wire Wire Line
	5500 7600 7200 7600
Text Label 1400 2600 0    50   ~ 0
IN_D-
Text Label 1400 1400 0    50   ~ 0
IN_D+
Wire Wire Line
	1100 2000 1300 2000
Wire Wire Line
	1100 2100 1300 2100
Wire Wire Line
	1300 2100 1300 2600
Connection ~ 2500 1200
Wire Wire Line
	2500 1200 2600 1200
Wire Wire Line
	1300 1400 1800 1400
Wire Wire Line
	1800 1400 1800 1500
Wire Wire Line
	2000 1500 2000 1400
Wire Wire Line
	2000 1400 2600 1400
Wire Wire Line
	2000 2500 2000 2600
Wire Wire Line
	2000 2600 4600 2600
Wire Wire Line
	1800 2500 1800 2600
Wire Wire Line
	1800 2600 1300 2600
Wire Wire Line
	1300 1400 1300 2000
Wire Wire Line
	2600 1400 2600 2500
Wire Wire Line
	2400 2000 2500 2000
Wire Wire Line
	2500 2000 2500 1200
Wire Wire Line
	1400 2100 1400 2000
$Comp
L Power_Protection:USBLC6-2SC6 U104
U 1 1 5CDA9472
P 1900 2000
F 0 "U104" V 2600 1900 50  0000 L CNN
F 1 "USBLC6-2SC6" V 2700 1700 50  0000 L CNN
F 2 "Package_TO_SOT_SMD:SOT-23-6" H 1150 2400 50  0001 C CNN
F 3 "http://www2.st.com/resource/en/datasheet/CD00050750.pdf" H 2100 2350 50  0001 C CNN
	1    1900 2000
	0    1    1    0   
$EndComp
Wire Wire Line
	2800 1200 2900 1200
Wire Wire Line
	1200 1200 2500 1200
$Comp
L Device:R R127
U 1 1 5D88DBBC
P 3500 8850
F 0 "R127" H 3570 8896 50  0000 L CNN
F 1 "49.9" H 3570 8805 50  0000 L CNN
F 2 "IPC-7351-RESC:RESC_1005x015" V 3430 8850 50  0001 C CNN
F 3 "~" H 3500 8850 50  0001 C CNN
	1    3500 8850
	1    0    0    -1  
$EndComp
Wire Wire Line
	3500 8600 3500 8700
Text Label 3450 9800 2    50   ~ 0
PHY_VDDA
Wire Wire Line
	3050 9800 3450 9800
Wire Wire Line
	4100 9700 4200 9700
Wire Wire Line
	1100 8900 1100 6300
Wire Wire Line
	1000 6200 1000 8900
Wire Wire Line
	900  8900 900  6100
Wire Wire Line
	1800 9500 1900 9500
Wire Wire Line
	1800 10000 4200 10000
Wire Wire Line
	1800 10100 2750 10100
Wire Wire Line
	1800 9900 4200 9900
Wire Wire Line
	1800 9800 2750 9800
Wire Wire Line
	1200 8900 1200 6400
Text Label 4100 9400 2    50   ~ 0
ETH_RD-
$Comp
L unlockoslo:+3.3V_PHY #PWR0137
U 1 1 5DE92131
P 2300 8500
F 0 "#PWR0137" H 2300 8350 50  0001 C CNN
F 1 "+3.3V_PHY" H 2315 8673 50  0000 C CNN
F 2 "" H 2300 8500 50  0001 C CNN
F 3 "" H 2300 8500 50  0001 C CNN
	1    2300 8500
	1    0    0    -1  
$EndComp
$Comp
L Device:R R126
U 1 1 5D89113D
P 3100 8850
F 0 "R126" H 3170 8896 50  0000 L CNN
F 1 "49.9" H 3170 8805 50  0000 L CNN
F 2 "IPC-7351-RESC:RESC_1005x015" V 3030 8850 50  0001 C CNN
F 3 "~" H 3100 8850 50  0001 C CNN
	1    3100 8850
	1    0    0    -1  
$EndComp
$Comp
L Device:R R125
U 1 1 5D8914B3
P 2700 8850
F 0 "R125" H 2770 8896 50  0000 L CNN
F 1 "49.9" H 2770 8805 50  0000 L CNN
F 2 "IPC-7351-RESC:RESC_1005x015" V 2630 8850 50  0001 C CNN
F 3 "~" H 2700 8850 50  0001 C CNN
	1    2700 8850
	1    0    0    -1  
$EndComp
$Comp
L Device:R R124
U 1 1 5D8916E1
P 2300 8850
F 0 "R124" H 2370 8896 50  0000 L CNN
F 1 "49.9" H 2370 8805 50  0000 L CNN
F 2 "IPC-7351-RESC:RESC_1005x015" V 2230 8850 50  0001 C CNN
F 3 "~" H 2300 8850 50  0001 C CNN
	1    2300 8850
	1    0    0    -1  
$EndComp
Wire Wire Line
	2300 8500 2300 8600
Connection ~ 2300 8600
Wire Wire Line
	2300 8600 2300 8700
Wire Wire Line
	3100 8700 3100 8600
Wire Wire Line
	2700 8700 2700 8600
Wire Wire Line
	2300 8600 2700 8600
Connection ~ 2700 8600
Wire Wire Line
	2700 8600 3100 8600
Connection ~ 3100 8600
Wire Wire Line
	3100 8600 3500 8600
Wire Wire Line
	1800 9300 3100 9300
Wire Wire Line
	1800 9200 2700 9200
Wire Wire Line
	1800 9100 2300 9100
Wire Wire Line
	1800 9400 3500 9400
Wire Wire Line
	3500 9000 3500 9400
Connection ~ 3500 9400
Wire Wire Line
	3500 9400 4200 9400
Wire Wire Line
	3100 9000 3100 9300
Connection ~ 3100 9300
Wire Wire Line
	3100 9300 4200 9300
Wire Wire Line
	2700 9000 2700 9200
Connection ~ 2700 9200
Wire Wire Line
	2700 9200 4200 9200
Wire Wire Line
	2300 9000 2300 9100
Connection ~ 2300 9100
Wire Wire Line
	2300 9100 4200 9100
Wire Wire Line
	900  6100 1300 6100
$Comp
L Mechanical:MountingHole H105
U 1 1 5D06E610
P 17900 15600
F 0 "H105" H 18000 15600 50  0000 L CNN
F 1 "MountingHole" H 18000 15555 50  0001 L CNN
F 2 "MountingHole:MountingHole_2.5mm" H 17900 15600 50  0001 C CNN
F 3 "~" H 17900 15600 50  0001 C CNN
	1    17900 15600
	1    0    0    -1  
$EndComp
$Comp
L Mechanical:MountingHole H106
U 1 1 5D06E61A
P 17900 15800
F 0 "H106" H 18000 15800 50  0000 L CNN
F 1 "MountingHole" H 18000 15755 50  0001 L CNN
F 2 "MountingHole:MountingHole_2.5mm" H 17900 15800 50  0001 C CNN
F 3 "~" H 17900 15800 50  0001 C CNN
	1    17900 15800
	1    0    0    -1  
$EndComp
$Comp
L Connector_Generic:Conn_01x02 J105
U 1 1 5D4F648E
P 6550 2400
F 0 "J105" H 6630 2392 50  0000 L CNN
F 1 "USB_GPIO" H 6630 2301 50  0000 L CNN
F 2 "Connector_PinHeader_2.54mm:PinHeader_1x02_P2.54mm_Vertical" H 6550 2400 50  0001 C CNN
F 3 "~" H 6550 2400 50  0001 C CNN
F 4 "DNP" H 6550 2500 50  0000 C CNN "populate"
	1    6550 2400
	1    0    0    -1  
$EndComp
$Comp
L unlockoslo:Conn_UART_5 J102
U 1 1 5CD096EF
P 6350 800
F 0 "J102" V 6400 400 50  0000 C CNN
F 1 "UART" V 6300 400 50  0000 C CNN
F 2 "Connector_PinHeader_2.54mm:PinHeader_1x05_P2.54mm_Vertical" H 6350 800 50  0001 C CNN
F 3 "~" H 6350 800 50  0001 C CNN
F 4 "DNP" V 6200 400 50  0000 C CNN "populate"
	1    6350 800 
	0    -1   -1   0   
$EndComp
Text Label 13700 2900 2    50   ~ 0
PHY_REF_CLK
Wire Wire Line
	12900 2900 13700 2900
Text Label 13700 3700 2    50   ~ 0
PHY_RX_CRS_DV
Wire Wire Line
	12900 3700 13700 3700
Wire Wire Line
	13700 3000 12900 3000
Wire Wire Line
	13700 3400 12900 3400
Wire Wire Line
	12900 3500 13700 3500
Wire Wire Line
	13700 3600 12900 3600
Wire Wire Line
	13700 3200 12900 3200
Wire Wire Line
	12900 3300 13700 3300
Wire Wire Line
	13700 3100 12900 3100
Text Label 13700 3600 2    50   ~ 0
PHY_RXD1
Text Label 13700 3500 2    50   ~ 0
PHY_RXD0
Text Label 13700 3200 2    50   ~ 0
PHY_TX_EN
Text Label 13700 3300 2    50   ~ 0
PHY_TXD1
Text Label 13700 3100 2    50   ~ 0
PHY_TXD0
Text Label 13700 3000 2    50   ~ 0
PHY_MDIO
Text Label 13700 3400 2    50   ~ 0
PHY_MDC
Text Notes 13900 3350 1    50   ~ 0
PHY
Wire Notes Line
	13750 2800 13950 2800
Wire Notes Line
	13950 2800 13950 3700
Wire Notes Line
	13950 3700 13750 3700
$Comp
L power:PWR_FLAG #FLG0109
U 1 1 5D6D8F69
P 7600 6750
F 0 "#FLG0109" H 7600 6825 50  0001 C CNN
F 1 "PWR_FLAG" H 7600 6923 50  0001 C CNN
F 2 "" H 7600 6750 50  0001 C CNN
F 3 "~" H 7600 6750 50  0001 C CNN
	1    7600 6750
	1    0    0    -1  
$EndComp
Wire Wire Line
	7600 6750 7600 6800
Connection ~ 7600 6800
Wire Wire Line
	7600 6800 7500 6800
$Comp
L Connector_Generic:Conn_02x04_Odd_Even J107
U 1 1 5D566923
P 20600 5100
F 0 "J107" H 20650 5417 50  0000 C CNN
F 1 "Conn_02x04" H 20650 5326 50  0000 C CNN
F 2 "Connector_PinHeader_2.54mm:PinHeader_2x04_P2.54mm_Vertical" H 20600 5100 50  0001 C CNN
F 3 "~" H 20600 5100 50  0001 C CNN
F 4 "PPPC042LFBN-RC" H 20600 5100 50  0001 C CNN "mpn"
	1    20600 5100
	1    0    0    -1  
$EndComp
$Comp
L power:GND #PWR0112
U 1 1 5D567CDB
P 20300 5400
F 0 "#PWR0112" H 20300 5150 50  0001 C CNN
F 1 "GND" H 20305 5227 50  0000 C CNN
F 2 "" H 20300 5400 50  0001 C CNN
F 3 "" H 20300 5400 50  0001 C CNN
	1    20300 5400
	1    0    0    -1  
$EndComp
Wire Wire Line
	20400 5300 20300 5300
Wire Wire Line
	20300 5300 20300 5400
$Comp
L power:+3.3V #PWR0113
U 1 1 5D59A470
P 19900 4900
F 0 "#PWR0113" H 19900 4750 50  0001 C CNN
F 1 "+3.3V" H 19915 5073 50  0000 C CNN
F 2 "" H 19900 4900 50  0001 C CNN
F 3 "" H 19900 4900 50  0001 C CNN
	1    19900 4900
	1    0    0    -1  
$EndComp
Wire Wire Line
	19900 4900 19900 5100
Wire Wire Line
	19900 5100 20400 5100
$Comp
L power:+12V #PWR0114
U 1 1 5D5CD18F
P 19600 4900
F 0 "#PWR0114" H 19600 4750 50  0001 C CNN
F 1 "+12V" H 19615 5073 50  0000 C CNN
F 2 "" H 19600 4900 50  0001 C CNN
F 3 "" H 19600 4900 50  0001 C CNN
	1    19600 4900
	1    0    0    -1  
$EndComp
Wire Wire Line
	19600 4900 19600 5200
Wire Wire Line
	19600 5200 20400 5200
$Comp
L power:+3.3V #PWR0115
U 1 1 5D6337BF
P 21500 4900
F 0 "#PWR0115" H 21500 4750 50  0001 C CNN
F 1 "+3.3V" H 21515 5073 50  0000 C CNN
F 2 "" H 21500 4900 50  0001 C CNN
F 3 "" H 21500 4900 50  0001 C CNN
	1    21500 4900
	1    0    0    -1  
$EndComp
Wire Wire Line
	20900 5100 21500 5100
Wire Wire Line
	21500 5100 21500 4900
Text Label 1450 4300 0    50   ~ 0
Vin_adapter
Wire Wire Line
	20900 5000 21400 5000
Text Label 21400 5000 2    50   ~ 0
Vin_adapter
Wire Wire Line
	20000 5000 20400 5000
Text Label 20000 5000 0    50   ~ 0
Vin_adapter
$Comp
L power:+12V #PWR0116
U 1 1 5D8A0118
P 21800 4900
F 0 "#PWR0116" H 21800 4750 50  0001 C CNN
F 1 "+12V" H 21815 5073 50  0000 C CNN
F 2 "" H 21800 4900 50  0001 C CNN
F 3 "" H 21800 4900 50  0001 C CNN
	1    21800 4900
	1    0    0    -1  
$EndComp
Wire Wire Line
	21800 4900 21800 5200
Wire Wire Line
	21800 5200 20900 5200
$Comp
L power:GND #PWR0117
U 1 1 5D8D42D6
P 21000 5400
F 0 "#PWR0117" H 21000 5150 50  0001 C CNN
F 1 "GND" H 21005 5227 50  0000 C CNN
F 2 "" H 21000 5400 50  0001 C CNN
F 3 "" H 21000 5400 50  0001 C CNN
	1    21000 5400
	1    0    0    -1  
$EndComp
Wire Wire Line
	20900 5300 21000 5300
Wire Wire Line
	21000 5300 21000 5400
$Comp
L Connector:TestPoint TP105
U 1 1 5D56A4BF
P 1400 4200
F 0 "TP105" H 1458 4318 50  0001 L CNN
F 1 "Vin_adapter" H 1400 4433 50  0000 C CNN
F 2 "TestPoint:TestPoint_Pad_D1.0mm" H 1600 4200 50  0001 C CNN
F 3 "~" H 1600 4200 50  0001 C CNN
	1    1400 4200
	1    0    0    -1  
$EndComp
Wire Wire Line
	1400 4200 1400 4300
Connection ~ 1400 4300
Wire Wire Line
	1400 4300 2600 4300
$Comp
L Connector:TestPoint TP104
U 1 1 5D5A1212
P 2900 1100
F 0 "TP104" H 2958 1218 50  0001 L CNN
F 1 "Vin_USB" H 2900 1333 50  0000 C CNN
F 2 "TestPoint:TestPoint_Pad_D1.0mm" H 3100 1100 50  0001 C CNN
F 3 "~" H 3100 1100 50  0001 C CNN
	1    2900 1100
	1    0    0    -1  
$EndComp
Wire Wire Line
	2900 1100 2900 1200
$Comp
L Connector:TestPoint TP106
U 1 1 5D5DAED2
P 2300 4650
F 0 "TP106" H 2358 4768 50  0001 L CNN
F 1 "Vin_PoE" H 2300 4883 50  0000 C CNN
F 2 "TestPoint:TestPoint_Pad_D1.0mm" H 2500 4650 50  0001 C CNN
F 3 "~" H 2500 4650 50  0001 C CNN
	1    2300 4650
	-1   0    0    -1  
$EndComp
Wire Wire Line
	2500 4750 2500 6100
Connection ~ 2500 4750
Wire Wire Line
	2300 4750 2500 4750
Wire Wire Line
	2300 4650 2300 4750
Wire Wire Line
	2500 4400 2500 4750
Text Notes 6750 700  0    50   ~ 0
Debugging UART only.\nCan not power the device.
$Comp
L Switch:SW_Push SW101
U 1 1 5CFA0F84
P 10300 1800
F 0 "SW101" V 10254 1948 50  0000 L CNN
F 1 "TL3315NF100Q" V 10345 1948 50  0000 L CNN
F 2 "TL3315:TL3315" H 10300 2000 50  0001 C CNN
F 3 "~" H 10300 2000 50  0001 C CNN
	1    10300 1800
	0    1    1    0   
$EndComp
$Comp
L unlockoslo:74984104400 J103
U 1 1 5DAC9EBF
P 1200 9600
F 0 "J103" H 1200 9650 50  0000 C CNN
F 1 "74984104400" H 1200 9550 50  0000 C CNN
F 2 "74984104400:74984104400" H 1200 9600 50  0001 C CNN
F 3 "https://katalog.we-online.de/pbs/datasheet/74984104400.pdf" H 1200 9600 50  0001 C CNN
	1    1200 9600
	1    0    0    -1  
$EndComp
$EndSCHEMATC
