M48
; DRILL file {KiCad 5.1.2+dfsg1-1} date Thu 27 Feb 2020 09:59:51 PM CET
; FORMAT={-:-/ absolute / metric / decimal}
; #@! TF.CreationDate,2020-02-27T21:59:51+01:00
; #@! TF.GenerationSoftware,Kicad,Pcbnew,5.1.2+dfsg1-1
; #@! TF.FileFunction,NonPlated,1,2,NPTH
FMAT,2
METRIC
T1C3.200
%
G90
G05
T1
X194.5Y-145.5
X194.5Y-51.5
X100.5Y-51.5
X100.65Y-145.35
T0
M30
