G04 #@! TF.GenerationSoftware,KiCad,Pcbnew,5.1.2+dfsg1-1*
G04 #@! TF.CreationDate,2020-02-27T22:06:06+01:00*
G04 #@! TF.ProjectId,io-2.2,696f2d32-2e32-42e6-9b69-6361645f7063,rev?*
G04 #@! TF.SameCoordinates,Original*
G04 #@! TF.FileFunction,Profile,NP*
%FSLAX46Y46*%
G04 Gerber Fmt 4.6, Leading zero omitted, Abs format (unit mm)*
G04 Created by KiCad (PCBNEW 5.1.2+dfsg1-1) date 2020-02-27 22:06:06*
%MOMM*%
%LPD*%
G04 APERTURE LIST*
%ADD10C,0.300000*%
G04 APERTURE END LIST*
D10*
X97500000Y-51500000D02*
G75*
G02X100500000Y-48500000I3000000J0D01*
G01*
X100650000Y-148500000D02*
G75*
G02X97500000Y-145350000I0J3150000D01*
G01*
X194500000Y-48500000D02*
G75*
G02X197500000Y-51500000I0J-3000000D01*
G01*
X197500000Y-145500000D02*
G75*
G02X194500000Y-148500000I-3000000J0D01*
G01*
X97500000Y-145350000D02*
X97500000Y-51500000D01*
X194500000Y-148500000D02*
X100650000Y-148500000D01*
X197500000Y-51500000D02*
X197500000Y-145500000D01*
X100500000Y-48500000D02*
X194500000Y-48500000D01*
M02*
